,,DAVID1,,Toko Ikhwan Ramadhan,Jl. Banjar Sugihan N,,,,,,,,,,,,,,,,,,,,-20.15973683,56.81162509,N
,,DAVID2,,Toko Bambang Saputra,Jl. Banjar Sugihan N,,,,,,,,,,,,,,,,,,,,-20.15973683,56.81162509,N
,,DAVID3,,Toko Ade Yakub Sireg,Jl. Banjar Sugihan N,,,,,,,,,,,,,,,,,,,,-20.15973683,56.81162509,N
,,DAVID4,,Toko Harry Prayugo,Jl. Banjar Sugihan N,,,,,,,,,,,,,,,,,,,,-20.15973683,56.81162509,N
,,DAVID5,,Toko Cokro Hambinoto,Jl. Banjar Sugihan N,,,,,,,,,,,,,,,,,,,,-20.15973683,56.81162509,N
