,,31690,,Toko Ikhwan Ramadhan,Jl. Banjar Sugihan N,,,,,,,,,,,,,,,,,,,,-20.15973683,56.81162509,N
,,81280,,Toko Bambang Saputra,Jl. Banjar Sugihan N,,,,,,,,,,,,,,,,,,,,-20.15973683,56.81162509,N
,,81296,,Toko Ade Yakub Sireg,Jl. Banjar Sugihan N,,,,,,,,,,,,,,,,,,,,-20.15973683,56.81162509,N
,,81553,,Toko Harry Prayugo,Jl. Banjar Sugihan N,,,,,,,,,,,,,,,,,,,,-20.15973683,56.81162509,N
,,81554,,Toko Cokro Hambinoto,Jl. Banjar Sugihan N,,,,,,,,,,,,,,,,,,,,-20.15973683,56.81162509,N
,,81555,,Toko Lidza Faridza,Jl. Banjar Sugihan N,,,,,,,,,,,,,,,,,,,,-20.15973683,56.81162509,N
,,81565,,Toko Fajar Dien Dali,Jl. Banjar Sugihan N,,,,,,,,,,,,,,,,,,,,-20.15973683,56.81162509,N
,,81567,,Toko Hadi Susantho P,Jl. Banjar Sugihan N,,,,,,,,,,,,,,,,,,,,-20.15973683,56.81162509,N
,,81812,,Toko Arif Prasetia,Jl. Banjar Sugihan N,,,,,,,,,,,,,,,,,,,,-20.15973683,56.81162509,N
,,81911,,Toko Juniardi,Jl. Banjar Sugihan N,,,,,,,,,,,,,,,,,,,,-20.15973683,56.81162509,N
,,81928,,Toko Irnansyah,Jl. Banjar Sugihan N,,,,,,,,,,,,,,,,,,,,-20.15973683,56.81162509,N
,,81933,,Toko Dedi Syahputra,Jl. Banjar Sugihan N,,,,,,,,,,,,,,,,,,,,-20.15973683,56.81162509,N
,,81934,,Toko Syahrizal,Jl. Banjar Sugihan N,,,,,,,,,,,,,,,,,,,,-20.15973683,56.81162509,N
,,81981,,Toko Muhammad Fauzan,Jl. Banjar Sugihan N,,,,,,,,,,,,,,,,,,,,-20.15973683,56.81162509,N
,,82080,,Toko Achmad Fachrurr,Jl. Banjar Sugihan N,,,,,,,,,,,,,,,,,,,,-20.15973683,56.81162509,N
,,82247,,Toko Muhammad Azhar,Jl. Banjar Sugihan N,,,,,,,,,,,,,,,,,,,,-20.15973683,56.81162509,N
,,82683,,Toko Eri Hermawan,Jl. Banjar Sugihan N,,,,,,,,,,,,,,,,,,,,-20.15973683,56.81162509,N
,,83075,,Toko Denny Putra,Jl. Banjar Sugihan N,,,,,,,,,,,,,,,,,,,,-20.15973683,56.81162509,N
,,83279,,Toko Muhammad Farid ,Jl. Banjar Sugihan N,,,,,,,,,,,,,,,,,,,,-20.15973683,56.81162509,N
,,84111,,Toko Maman Mulyana,Jl. Banjar Sugihan N,,,,,,,,,,,,,,,,,,,,-20.15973683,56.81162509,N
