,,IMAM1,,Toko Juniardi,Jl. Banjar Sugihan N,,,,,,,,,,,,,,,,,,,,-20.15973683,56.81162509,N
,,IMAM2,,Toko Irnansyah,Jl. Banjar Sugihan N,,,,,,,,,,,,,,,,,,,,-20.15973683,56.81162509,N
,,IMAM3,,Toko Dedi Syahputra,Jl. Banjar Sugihan N,,,,,,,,,,,,,,,,,,,,-20.15973683,56.81162509,N
,,IMAM4,,Toko Syahrizal,Jl. Banjar Sugihan N,,,,,,,,,,,,,,,,,,,,-20.15973683,56.81162509,N
,,IMAM5,,Toko Muhammad Fauzan,Jl. Banjar Sugihan N,,,,,,,,,,,,,,,,,,,,-20.15973683,56.81162509,N
