fc_branch|fc_userid|fc_custcode|fc_abjcode|fc_abjtype|fc_abjstatus|fc_description|fd_date|fc_photo1|fc_photo2|fc_photo3
2001||211SIDOAY65|28041700120|SHC-MTOOL|||0000-00-00 01:01:01|null|null|null
2001||211SIDOFR36|28041700129|SHC-MTOOL|||0000-00-00 01:01:01|null|null|null
2001||211SIDOFR36|BRHC10B00038|DIS-MTOOL|||0000-00-00 01:01:01|null|null|null
2001||211SIDOFR36|MRHC90408396|DIS-MTOOL|||0000-00-00 01:01:01|null|null|null
2001||211SIDOFR36|MRHC90809399|DIS-MTOOL|||0000-00-00 01:01:01|null|null|null
2001||211SIDOLE36|04121200052|SHC-MTOOL|Baik|HAHAHAH|0000-00-00 01:01:01|211SIDOLE36_04121200052_1.jpg|null|null
2001||211SIDOLE36|BRHM12K01033|DIS-MTOOL|Rusak Fungsi|GSGAGGAAF|0000-00-00 01:01:01|211SIDOLE36_BRHM12K01033_1.jpg|null|null
2001||217SURAAR15|BRHC13105909|DIS-MTOOL|||0000-00-00 01:01:01|null|null|null
2001||217SURAAR15|BRHC13105910|DIS-MTOOL|||0000-00-00 01:01:01|null|null|null
2001||217SURAAR15|BRHC80200843|DIS-MTOOL|||0000-00-00 01:01:01|null|null|null
2001||217SURAAR15|DPCLAC215040190|DIS-MTOOL|||0000-00-00 01:01:01|null|null|null
2001||217SURAAR15|DPCLAM214110140|DIS-MTOOL|||0000-00-00 01:01:01|null|null|null
2001||217SURAAR15|MRHC70405117|DIS-MTOOL|||0000-00-00 01:01:01|null|null|null
