fc_branch|fc_invno|fc_custcode|fc_salescode|fd_docdate|fd_postdate|fd_inputdate|fm_netto|fm_pay_actual|fc_status_payment
2001|CA-B01020102020203650|211SIDOAV01|B010|2020-10-20 20:36:50|2020-10-20 20:36:50|2020-10-20 20:36:50|633000.0|633000.0|CASH
2001|CA-B01020102020203742|211SIDOKA01|B010|2020-10-20 20:37:42|2020-10-20 20:37:42|2020-10-20 20:37:42|199500.0|199500.0|CASH
2001|CA-B01020102020203809|211SIDOJH53|B010|2020-10-20 20:38:09|2020-10-20 20:38:09|2020-10-20 20:38:09|171500.0|171500.0|CASH
2001|CA-B01020102020203904|211SIDOMIN43|B010|2020-10-20 20:39:04|2020-10-20 20:39:04|2020-10-20 20:39:04|292500.0|292500.0|CASH
2001|CA-B01020102020203935|211SIDOCHA01|B010|2020-10-20 20:39:35|2020-10-20 20:39:35|2020-10-20 20:39:35|277500.0|277500.0|CASH
2001|CA-B01020102020203953|211SIDOAD76|B010|2020-10-20 20:39:53|2020-10-20 20:39:53|2020-10-20 20:39:53|402500.0|0.0|CASH
2001|CA-B01020102020203953|211SIDOAD76|B010|2020-10-20 20:39:53|2020-10-20 20:39:53|2020-10-20 20:39:53|402500.0|402500.0|KREDIT
