fc_Branch|fc_invno|fc_Year|fc_Periode|fd_Docdate|fd_Postdate|fd_Inputdate|fc_Inputby|fc_tipe|fn_TOP|fc_Salescode|fc_CompCode|fc_Areacode|fc_Chanelcode|fc_DivCode|fc_DistCode|fc_PPN|fd_DueDate|fc_POSO|fc_Custcode|fc_Suppcode|fc_Mu|fm_Rate|fc_Custbayar|fc_CustKrm|fc_Gdcode|fc_keterangan|fn_disc1|fn_disc2|fm_Brutto1|fm_Disc1|fm_Netto1|fm_DPP1|fm_PPn1|fm_Brutto2|fm_Disc2|fm_Netto2|fm_DPP2|fm_PPn2|fc_AppBy|fd_Appdate|fc_PostGoods|fc_Tax|fc_Status|fc_TipeGM|fc_SJRef|fc_Return|fc_Sopircode|fc_PreSONo
2001|CA-B01020102020203650|2020|10|2020-10-20 20:36:50|2020-10-20 20:36:50|2020-10-20 20:36:50|B010|NORMAL|1|B010|0002|25|4A|60|24|1|2020-10-20 20:36:50||211SIDOAV01||IDR|1|211SIDOAV01|211SIDOAV01|231||0|0|633000.0|0.0|633000.0|575454.5454545454|57545.454545454544|0.0|0.0|0.0|0.0|0.0||2020-10-20 20:36:50|1|1||601|||0102|
2001|CA-B01020102020203742|2020|10|2020-10-20 20:37:42|2020-10-20 20:37:42|2020-10-20 20:37:42|B010|NORMAL|1|B010|0002|25|4A|60|24|1|2020-10-20 20:37:42||211SIDOKA01||IDR|1|211SIDOKA01|211SIDOKA01|231||0|0|199500.0|0.0|199500.0|181363.63636363635|18136.363636363636|0.0|0.0|0.0|0.0|0.0||2020-10-20 20:37:42|1|1||601|||0102|
2001|CA-B01020102020203809|2020|10|2020-10-20 20:38:09|2020-10-20 20:38:09|2020-10-20 20:38:09|B010|NORMAL|1|B010|0002|25|4A|60|24|1|2020-10-20 20:38:09||211SIDOJH53||IDR|1|211SIDOJH53|211SIDOJH53|231||0|0|171500.0|0.0|171500.0|155909.09090909088|15590.90909090909|0.0|0.0|0.0|0.0|0.0||2020-10-20 20:38:09|1|1||601|||0102|
2001|CA-B01020102020203904|2020|10|2020-10-20 20:39:04|2020-10-20 20:39:04|2020-10-20 20:39:04|B010|NORMAL|1|B010|0002|25|3A|60|24|1|2020-10-20 20:39:04||211SIDOMIN43||IDR|1|211SIDOMIN43|211SIDOMIN43|231||0|0|292500.0|0.0|292500.0|265909.0909090909|26590.90909090909|0.0|0.0|0.0|0.0|0.0||2020-10-20 20:39:04|1|1||601|||0102|
2001|CA-B01020102020203935|2020|10|2020-10-20 20:39:35|2020-10-20 20:39:35|2020-10-20 20:39:35|B010|NORMAL|1|B010|0002|25|4A|60|24|1|2020-10-20 20:39:35||211SIDOCHA01||IDR|1|211SIDOCHA01|211SIDOCHA01|231||0|0|277500.0|0.0|277500.0|252272.72727272726|25227.272727272724|0.0|0.0|0.0|0.0|0.0||2020-10-20 20:39:35|1|1||601|||0102|
2001|CA-B01020102020203953|2020|10|2020-10-20 20:39:53|2020-10-20 20:39:53|2020-10-20 20:39:53|B010|NORMAL|1|B010|0002|25|4A|60|24|1|2020-10-20 20:39:53||211SIDOAD76||IDR|1|211SIDOAD76|211SIDOAD76|231||0|0|402500.0|0.0|402500.0|365909.0909090909|36590.90909090909|0.0|0.0|0.0|0.0|0.0||2020-10-20 20:39:53|1|1||601|||0102|
