9A1556C5162D0673|0001|0001||U|2001|DEPO GEDANGAN|ABCDEFGHIJKLMNO|IT CORNER|2020-09-02 16:27:31|2021-09-02 16:27:31|T
9A1556C5162D0673|2001|2001||U|2001|DEPO GEDANGAN|ABCDEFGHIJKLMNO|KANTOR PUSAT|2020-09-02 16:27:31|2021-09-02 16:27:31|T
9A1556C5162D0673|2022|2022|Branch Office|U|2001|DEPO GEDANGAN|ABCDEFGHIJKLMNO|KANTOR|2020-09-02 16:27:31|2021-09-02 16:27:31|T
9A1556C5162D0673|2177|2177|Canvassing Credit|U|2001|DEPO GEDANGAN|ABCDEFGHIJKLMNO|HAKIM|2020-09-02 16:27:31|2021-09-02 16:27:31|T
9A1556C5162D0673|3614|3614|Canvassing Cash|U|2001|DEPO GEDANGAN|ABCDEFGHIJKLMNO|SUBIN HARIANTO|2020-09-02 16:27:31|2021-09-02 16:27:31|T
9A1556C5162D0673|3617|3617|Canvassing Cash|U|2001|DEPO GEDANGAN|ABCDEFGHIJKLMNO|DANANG|2020-09-02 16:27:31|2021-09-02 16:27:31|T
9A1556C5162D0673|3618|3618|Canvassing Credit|U|2001|DEPO GEDANGAN|ABCDEFGHIJKLMNO|EKO PURWANTO|2020-09-02 16:27:31|2021-09-02 16:27:31|T
9A1556C5162D0673|3619|3619|Canvassing Credit|U|2001|DEPO GEDANGAN|ABCDEFGHIJKLMNO|YENIF SETYA BUDI|2020-09-02 16:27:31|2021-09-02 16:27:31|T
9A1556C5162D0673|3620|3620|Canvassing Credit|U|2001|DEPO GEDANGAN|ABCDEFGHIJKLMNO|DIDIN APRILIANTO|2020-09-02 16:27:31|2021-09-02 16:27:31|T
9A1556C5162D0673|3622|3622|Canvassing Credit|U|2001|DEPO GEDANGAN|ABCDEFGHIJKLMNO|M NUR HUDA|2020-09-02 16:27:31|2021-09-02 16:27:31|T
9A1556C5162D0673|3625|3625|Canvassing Credit|U|2001|DEPO GEDANGAN|ABCDEFGHIJKLMNO|HANIF|2020-09-02 16:27:31|2021-09-02 16:27:31|T
9A1556C5162D0673|3638|3638|Canvassing Credit|U|2001|DEPO GEDANGAN|ABCDEFGHIJKLMNO|HELMI|2020-09-02 16:27:31|2021-09-02 16:27:31|T
9A1556C5162D0673|3648|3648|Canvassing Cash|U|2001|DEPO GEDANGAN|ABCDEFGHIJKLMNO|ARIF MUSTOFA|2020-09-02 16:27:31|2021-09-02 16:27:31|T
9A1556C5162D0673|B001|B001|Canvassing Credit|U|2001|DEPO GEDANGAN|ABCDEFGHIJKLMNO|DODIK IRAWAN|2020-09-02 16:27:31|2021-09-02 16:27:31|T
9A1556C5162D0673|B002|B002|Canvassing Credit|U|2001|DEPO GEDANGAN|ABCDEFGHIJKLMNO|ARIF CAHYONO|2020-09-02 16:27:31|2021-09-02 16:27:31|T
9A1556C5162D0673|B004|B004|Canvassing Cash|U|2001|DEPO GEDANGAN|ABCDEFGHIJKLMNO|AHMAD SUBAIRI|2020-09-02 16:27:31|2021-09-02 16:27:31|T
9A1556C5162D0673|B005|B005|Canvassing Cash|U|2001|DEPO GEDANGAN|ABCDEFGHIJKLMNO|KURNIAWAN URIP SEMBO|2020-09-02 16:27:31|2021-09-02 16:27:31|T
9A1556C5162D0673|B006|B006|Canvassing Cash|U|2001|DEPO GEDANGAN|ABCDEFGHIJKLMNO|RIO AMANDA|2020-09-02 16:27:31|2021-09-02 16:27:31|T
9A1556C5162D0673|B008|B008|Canvassing Cash|U|2001|DEPO GEDANGAN|ABCDEFGHIJKLMNO|SUHENDRO WISASONGKO|2020-09-02 16:27:31|2021-09-02 16:27:31|T
9A1556C5162D0673|B009|B009|Canvassing Credit|U|2001|DEPO GEDANGAN|ABCDEFGHIJKLMNO|MOHAMAD SAIFUL|2020-09-02 16:27:31|2021-09-02 16:27:31|T
9A1556C5162D0673|B010|B010|Canvassing Credit|U|2001|DEPO GEDANGAN|ABCDEFGHIJKLMNO|KUSWANDI|2020-09-02 16:27:31|2021-09-02 16:27:31|T
9A1556C5162D0673|B011|B011|Canvassing Credit|U|2001|DEPO GEDANGAN|ABCDEFGHIJKLMNO|CHODERI|2020-09-02 16:27:31|2021-09-02 16:27:31|T
9A1556C5162D0673|B013|B013|Canvassing Credit|U|2001|DEPO GEDANGAN|ABCDEFGHIJKLMNO|ACHMAD FIRMANSYAH|2020-09-02 16:27:31|2021-09-02 16:27:31|T
9A1556C5162D0673|B015|B015|Canvassing Credit|U|2001|DEPO GEDANGAN|ABCDEFGHIJKLMNO|IMAM GHOZALI|2020-09-02 16:27:31|2021-09-02 16:27:31|T
9A1556C5162D0673|B016|B016|Canvassing Credit|U|2001|DEPO GEDANGAN|ABCDEFGHIJKLMNO|FIRMAN MAULANA|2020-09-02 16:27:31|2021-09-02 16:27:31|T
9A1556C5162D0673|B017|B017|Canvassing Credit|U|2001|DEPO GEDANGAN|ABCDEFGHIJKLMNO|FADELI IRAWAN|2020-09-02 16:27:31|2021-09-02 16:27:31|T
9A1556C5162D0673|B020|B020|Canvassing Cash|U|2001|DEPO GEDANGAN|ABCDEFGHIJKLMNO|UNTUNG WIYONO|2020-09-02 16:27:31|2021-09-02 16:27:31|T
9A1556C5162D0673|B021|B021|Canvassing Credit|U|2001|DEPO GEDANGAN|ABCDEFGHIJKLMNO|HASANURDIN|2020-09-02 16:27:31|2021-09-02 16:27:31|T
9A1556C5162D0673|B023|B023|Branch Office|U|2001|DEPO GEDANGAN|ABCDEFGHIJKLMNO|SO Kantor|2020-09-02 16:27:31|2021-09-02 16:27:31|T
9A1556C5162D0673|B026|B026|Canvassing Cash|U|2001|DEPO GEDANGAN|ABCDEFGHIJKLMNO|BAMBANG SUHARTONO|2020-09-02 16:27:31|2021-09-02 16:27:31|T
9A1556C5162D0673|B027|B027|Canvassing Credit|U|2001|DEPO GEDANGAN|ABCDEFGHIJKLMNO|RIZKI WAHYU PRIYONO|2020-09-02 16:27:31|2021-09-02 16:27:31|T
9A1556C5162D0673|B028|B028|Canvassing Cash|U|2001|DEPO GEDANGAN|ABCDEFGHIJKLMNO|RENDI SEPTAGEDI|2020-09-02 16:27:31|2021-09-02 16:27:31|T
9A1556C5162D0673|B029|B029|Canvassing Cash|U|2001|DEPO GEDANGAN|ABCDEFGHIJKLMNO|BEPI DWI SUSANTI|2020-09-02 16:27:31|2021-09-02 16:27:31|T
9A1556C5162D0673|B030|B030|Canvassing Cash|U|2001|DEPO GEDANGAN|ABCDEFGHIJKLMNO|OKA RINTIS JAYANTO|2020-09-02 16:27:31|2021-09-02 16:27:31|T
9A1556C5162D0673|B031|B031|Canvassing Credit|U|2001|DEPO GEDANGAN|ABCDEFGHIJKLMNO|LUCKY DWI|2020-09-02 16:27:31|2021-09-02 16:27:31|T
9A1556C5162D0673|B032|B032||U|2001|DEPO GEDANGAN|ABCDEFGHIJKLMNO|TOMY PERWIRA|2020-09-02 16:27:31|2021-09-02 16:27:31|T
9A1556C5162D0673|B033|B033||U|2001|DEPO GEDANGAN|ABCDEFGHIJKLMNO|FANDY SUDIRMAN|2020-09-02 16:27:31|2021-09-02 16:27:31|T
9A1556C5162D0673|B035|B035||U|2001|DEPO GEDANGAN|ABCDEFGHIJKLMNO|HABIB HABIBIE|2020-09-02 16:27:31|2021-09-02 16:27:31|T
9A1556C5162D0673|B036|B036||U|2001|DEPO GEDANGAN|ABCDEFGHIJKLMNO|BAGUS ARMADANA|2020-09-02 16:27:31|2021-09-02 16:27:31|T
