F97AF411385E77B3|2001|2001||U|2001|DEPO GEDANGAN|ABCDEFGHIJKL|KANTOR PUSAT|2020-08-14 04:58:41|2021-08-14 04:58:41|T
F97AF411385E77B3|B035|B035||U|B035|DEPO GEDANGAN|ABCDEFGHIJKL|KANTOR PUSAT|2020-08-14 04:58:41|2021-08-14 04:58:41|T
F97AF411385E77B3|2002|2002||U|2001|DEPO GEDANGAN|ABCDEFGHIJKL|DELTA FORCE|2020-08-14 04:58:41|2021-08-14 04:58:41|T
F97AF411385E77B3|2013|2013||U|2001|DEPO GEDANGAN|ABCDEFGHIJKL|PURWANTA|2020-08-14 04:58:41|2021-08-14 04:58:41|T
F97AF411385E77B3|2014|2014||U|2001|DEPO GEDANGAN|ABCDEFGHIJKL|SATRIYA|2020-08-14 04:58:41|2021-08-14 04:58:41|T
F97AF411385E77B3|2015|2015||U|2001|DEPO GEDANGAN|ABCDEFGHIJKL|LILIK|2020-08-14 04:58:41|2021-08-14 04:58:41|T
F97AF411385E77B3|2016|2016||U|2001|DEPO GEDANGAN|ABCDEFGHIJKL|AWAN SUBIYAKTO|2020-08-14 04:58:41|2021-08-14 04:58:41|T
F97AF411385E77B3|2017|2017||U|2001|DEPO GEDANGAN|ABCDEFGHIJKL|SIGIT WIWOHO|2020-08-14 04:58:41|2021-08-14 04:58:41|T
F97AF411385E77B3|2021|2021||U|2001|DEPO GEDANGAN|ABCDEFGHIJKL|SINGGIH|2020-08-14 04:58:41|2021-08-14 04:58:41|T
F97AF411385E77B3|2022|2022|Branch Office|U|2001|DEPO GEDANGAN|ABCDEFGHIJKL|KANTOR|2020-08-14 04:58:41|2021-08-14 04:58:41|T
F97AF411385E77B3|2023|2023||U|2001|DEPO GEDANGAN|ABCDEFGHIJKL|ROCHMAD|2020-08-14 04:58:41|2021-08-14 04:58:41|T
F97AF411385E77B3|2024|2024||U|2001|DEPO GEDANGAN|ABCDEFGHIJKL|SAMSUL|2020-08-14 04:58:41|2021-08-14 04:58:41|T
F97AF411385E77B3|2025|2025||U|2001|DEPO GEDANGAN|ABCDEFGHIJKL|BAMBANG|2020-08-14 04:58:41|2021-08-14 04:58:41|T
F97AF411385E77B3|2026|2026||U|2001|DEPO GEDANGAN|ABCDEFGHIJKL|BUDI|2020-08-14 04:58:41|2021-08-14 04:58:41|T
F97AF411385E77B3|2027|2027||U|2001|DEPO GEDANGAN|ABCDEFGHIJKL|NASIR|2020-08-14 04:58:41|2021-08-14 04:58:41|T
F97AF411385E77B3|2028|2028||U|2001|DEPO GEDANGAN|ABCDEFGHIJKL|YULI|2020-08-14 04:58:41|2021-08-14 04:58:41|T
F97AF411385E77B3|2029|2029||U|2001|DEPO GEDANGAN|ABCDEFGHIJKL|JOKO|2020-08-14 04:58:41|2021-08-14 04:58:41|T
F97AF411385E77B3|2030|2030||U|2001|DEPO GEDANGAN|ABCDEFGHIJKL|RINI|2020-08-14 04:58:41|2021-08-14 04:58:41|T
F97AF411385E77B3|2101|2101||U|2001|DEPO GEDANGAN|ABCDEFGHIJKL|ARMAN|2020-08-14 04:58:41|2021-08-14 04:58:41|T
F97AF411385E77B3|2102|2102||U|2001|DEPO GEDANGAN|ABCDEFGHIJKL|KANTOR|2020-08-14 04:58:41|2021-08-14 04:58:41|T
F97AF411385E77B3|2103|2103||U|2001|DEPO GEDANGAN|ABCDEFGHIJKL|LEGIMAN|2020-08-14 04:58:41|2021-08-14 04:58:41|T
F97AF411385E77B3|2104|2104||U|2001|DEPO GEDANGAN|ABCDEFGHIJKL|MAMAN|2020-08-14 04:58:41|2021-08-14 04:58:41|T
F97AF411385E77B3|2105|2105||U|2001|DEPO GEDANGAN|ABCDEFGHIJKL|ANTOK|2020-08-14 04:58:41|2021-08-14 04:58:41|T
F97AF411385E77B3|2106|2106||U|2001|DEPO GEDANGAN|ABCDEFGHIJKL|SUWARJI|2020-08-14 04:58:41|2021-08-14 04:58:41|T
F97AF411385E77B3|2107|2107||U|2001|DEPO GEDANGAN|ABCDEFGHIJKL|TOHA|2020-08-14 04:58:41|2021-08-14 04:58:41|T
F97AF411385E77B3|2108|2108||U|2001|DEPO GEDANGAN|ABCDEFGHIJKL|DEFI|2020-08-14 04:58:41|2021-08-14 04:58:41|T
F97AF411385E77B3|2109|2109||U|2001|DEPO GEDANGAN|ABCDEFGHIJKL|MUJI|2020-08-14 04:58:41|2021-08-14 04:58:41|T
F97AF411385E77B3|2110|2110||U|2001|DEPO GEDANGAN|ABCDEFGHIJKL|RAHMAN|2020-08-14 04:58:41|2021-08-14 04:58:41|T
F97AF411385E77B3|2111|2111||U|2001|DEPO GEDANGAN|ABCDEFGHIJKL|SISWANTO|2020-08-14 04:58:41|2021-08-14 04:58:41|T
F97AF411385E77B3|2112|2112||U|2001|DEPO GEDANGAN|ABCDEFGHIJKL|IMAM|2020-08-14 04:58:41|2021-08-14 04:58:41|T
F97AF411385E77B3|2113|2113||U|2001|DEPO GEDANGAN|ABCDEFGHIJKL|JUNIANTO|2020-08-14 04:58:41|2021-08-14 04:58:41|T
F97AF411385E77B3|2115|2115|Canvassing Cash|U|2001|DEPO GEDANGAN|ABCDEFGHIJKL|EDI SANTOSO|2020-08-14 04:58:41|2021-08-14 04:58:41|T
F97AF411385E77B3|2116|2116||U|2001|DEPO GEDANGAN|ABCDEFGHIJKL|TRIYONO|2020-08-14 04:58:41|2021-08-14 04:58:41|T
F97AF411385E77B3|2117|2117||U|2001|DEPO GEDANGAN|ABCDEFGHIJKL|HARTONO|2020-08-14 04:58:41|2021-08-14 04:58:41|T
F97AF411385E77B3|2118|2118||U|2001|DEPO GEDANGAN|ABCDEFGHIJKL|JONY|2020-08-14 04:58:41|2021-08-14 04:58:41|T
F97AF411385E77B3|2119|2119||U|2001|DEPO GEDANGAN|ABCDEFGHIJKL|ARIS|2020-08-14 04:58:41|2021-08-14 04:58:41|T
F97AF411385E77B3|2120|2120||U|2001|DEPO GEDANGAN|ABCDEFGHIJKL|BUDI|2020-08-14 04:58:41|2021-08-14 04:58:41|T
F97AF411385E77B3|2121|2121||U|2001|DEPO GEDANGAN|ABCDEFGHIJKL|RONI|2020-08-14 04:58:41|2021-08-14 04:58:41|T
F97AF411385E77B3|2122|2122||U|2001|DEPO GEDANGAN|ABCDEFGHIJKL|EKO|2020-08-14 04:58:41|2021-08-14 04:58:41|T
F97AF411385E77B3|2123|2123||U|2001|DEPO GEDANGAN|ABCDEFGHIJKL|FIRMAN|2020-08-14 04:58:41|2021-08-14 04:58:41|T
F97AF411385E77B3|2124|2124||U|2001|DEPO GEDANGAN|ABCDEFGHIJKL|SAMSUL|2020-08-14 04:58:41|2021-08-14 04:58:41|T
F97AF411385E77B3|2125|2125||U|2001|DEPO GEDANGAN|ABCDEFGHIJKL|MONIC|2020-08-14 04:58:41|2021-08-14 04:58:41|T
F97AF411385E77B3|2126|2126||U|2001|DEPO GEDANGAN|ABCDEFGHIJKL|HARI|2020-08-14 04:58:41|2021-08-14 04:58:41|T
F97AF411385E77B3|2127|2127||U|2001|DEPO GEDANGAN|ABCDEFGHIJKL|SINDU|2020-08-14 04:58:41|2021-08-14 04:58:41|T
F97AF411385E77B3|2128|2128||U|2001|DEPO GEDANGAN|ABCDEFGHIJKL|ARIFIN|2020-08-14 04:58:41|2021-08-14 04:58:41|T
F97AF411385E77B3|2129|2129||U|2001|DEPO GEDANGAN|ABCDEFGHIJKL|OKI|2020-08-14 04:58:41|2021-08-14 04:58:41|T
F97AF411385E77B3|2130|2130||U|2001|DEPO GEDANGAN|ABCDEFGHIJKL|SUPRIYONO|2020-08-14 04:58:41|2021-08-14 04:58:41|T
F97AF411385E77B3|2131|2131||U|2001|DEPO GEDANGAN|ABCDEFGHIJKL|SUNGSANG|2020-08-14 04:58:41|2021-08-14 04:58:41|T
F97AF411385E77B3|2132|2132||U|2001|DEPO GEDANGAN|ABCDEFGHIJKL|AFIF|2020-08-14 04:58:41|2021-08-14 04:58:41|T
F97AF411385E77B3|2133|2133||U|2001|DEPO GEDANGAN|ABCDEFGHIJKL|ILHAM|2020-08-14 04:58:41|2021-08-14 04:58:41|T
F97AF411385E77B3|2134|2134||U|2001|DEPO GEDANGAN|ABCDEFGHIJKL|KUSWANDI|2020-08-14 04:58:41|2021-08-14 04:58:41|T
F97AF411385E77B3|2135|2135||U|2001|DEPO GEDANGAN|ABCDEFGHIJKL|YOYOK|2020-08-14 04:58:41|2021-08-14 04:58:41|T
F97AF411385E77B3|2136|2136||U|2001|DEPO GEDANGAN|ABCDEFGHIJKL|HUSNI|2020-08-14 04:58:41|2021-08-14 04:58:41|T
F97AF411385E77B3|2137|2137||U|2001|DEPO GEDANGAN|ABCDEFGHIJKL|JATMIKO|2020-08-14 04:58:41|2021-08-14 04:58:41|T
F97AF411385E77B3|2138|2138||U|2001|DEPO GEDANGAN|ABCDEFGHIJKL|BIMO|2020-08-14 04:58:41|2021-08-14 04:58:41|T
F97AF411385E77B3|2139|2139||U|2001|DEPO GEDANGAN|ABCDEFGHIJKL|SUGENG|2020-08-14 04:58:41|2021-08-14 04:58:41|T
F97AF411385E77B3|2140|2140||U|2001|DEPO GEDANGAN|ABCDEFGHIJKL|AYIS|2020-08-14 04:58:41|2021-08-14 04:58:41|T
F97AF411385E77B3|2141|2141||U|2001|DEPO GEDANGAN|ABCDEFGHIJKL|ARIK SAIFUDIN|2020-08-14 04:58:41|2021-08-14 04:58:41|T
F97AF411385E77B3|2142|2142||U|2001|DEPO GEDANGAN|ABCDEFGHIJKL|YUDHA|2020-08-14 04:58:41|2021-08-14 04:58:41|T
F97AF411385E77B3|2143|2143||U|2001|DEPO GEDANGAN|ABCDEFGHIJKL|IRWAN|2020-08-14 04:58:41|2021-08-14 04:58:41|T
F97AF411385E77B3|2144|2144||U|2001|DEPO GEDANGAN|ABCDEFGHIJKL|ARIF CAHYONO|2020-08-14 04:58:41|2021-08-14 04:58:41|T
F97AF411385E77B3|2145|2145||U|2001|DEPO GEDANGAN|ABCDEFGHIJKL|ANDI PRAMANA|2020-08-14 04:58:41|2021-08-14 04:58:41|T
F97AF411385E77B3|2146|2146||U|2001|DEPO GEDANGAN|ABCDEFGHIJKL|DAVID|2020-08-14 04:58:41|2021-08-14 04:58:41|T
F97AF411385E77B3|2147|2147||U|2001|DEPO GEDANGAN|ABCDEFGHIJKL|IWAN|2020-08-14 04:58:41|2021-08-14 04:58:41|T
F97AF411385E77B3|2148|2148||U|2001|DEPO GEDANGAN|ABCDEFGHIJKL|GOFUR|2020-08-14 04:58:41|2021-08-14 04:58:41|T
F97AF411385E77B3|2149|2149||U|2001|DEPO GEDANGAN|ABCDEFGHIJKL|KHOIRUL ANAM|2020-08-14 04:58:41|2021-08-14 04:58:41|T
F97AF411385E77B3|2150|2150||U|2001|DEPO GEDANGAN|ABCDEFGHIJKL|OMAN|2020-08-14 04:58:41|2021-08-14 04:58:41|T
F97AF411385E77B3|2151|2151||U|2001|DEPO GEDANGAN|ABCDEFGHIJKL|ARIF|2020-08-14 04:58:41|2021-08-14 04:58:41|T
F97AF411385E77B3|2152|2152||U|2001|DEPO GEDANGAN|ABCDEFGHIJKL|HAMID|2020-08-14 04:58:41|2021-08-14 04:58:41|T
F97AF411385E77B3|2153|2153||U|2001|DEPO GEDANGAN|ABCDEFGHIJKL|UJANG SOLEH|2020-08-14 04:58:41|2021-08-14 04:58:41|T
F97AF411385E77B3|2154|2154||U|2001|DEPO GEDANGAN|ABCDEFGHIJKL|SARWOTO|2020-08-14 04:58:41|2021-08-14 04:58:41|T
F97AF411385E77B3|2155|2155||U|2001|DEPO GEDANGAN|ABCDEFGHIJKL|SAMINGUN|2020-08-14 04:58:41|2021-08-14 04:58:41|T
F97AF411385E77B3|2156|2156||U|2001|DEPO GEDANGAN|ABCDEFGHIJKL|AKMAL|2020-08-14 04:58:41|2021-08-14 04:58:41|T
F97AF411385E77B3|2157|2157||U|2001|DEPO GEDANGAN|ABCDEFGHIJKL|MUITO|2020-08-14 04:58:41|2021-08-14 04:58:41|T
F97AF411385E77B3|2158|2158||U|2001|DEPO GEDANGAN|ABCDEFGHIJKL|NUR EFFENDI|2020-08-14 04:58:41|2021-08-14 04:58:41|T
F97AF411385E77B3|2159|2159||U|2001|DEPO GEDANGAN|ABCDEFGHIJKL|Bachtiar|2020-08-14 04:58:41|2021-08-14 04:58:41|T
F97AF411385E77B3|215D|215D||U|2001|DEPO GEDANGAN|ABCDEFGHIJKL|ANTOK (TO2)|2020-08-14 04:58:41|2021-08-14 04:58:41|T
F97AF411385E77B3|215P|215P||U|2001|DEPO GEDANGAN|ABCDEFGHIJKL|ANTOK (TO1)|2020-08-14 04:58:41|2021-08-14 04:58:41|T
F97AF411385E77B3|215R|215R||U|2001|DEPO GEDANGAN|ABCDEFGHIJKL|SUGIA FERI|2020-08-14 04:58:41|2021-08-14 04:58:41|T
F97AF411385E77B3|215S|215S||U|2001|DEPO GEDANGAN|ABCDEFGHIJKL|AIDIL HAMSYAH SIHOTA|2020-08-14 04:58:41|2021-08-14 04:58:41|T
F97AF411385E77B3|2160|2160||U|2001|DEPO GEDANGAN|ABCDEFGHIJKL|Deny|2020-08-14 04:58:41|2021-08-14 04:58:41|T
F97AF411385E77B3|2161|2161||U|2001|DEPO GEDANGAN|ABCDEFGHIJKL|Siman|2020-08-14 04:58:41|2021-08-14 04:58:41|T
F97AF411385E77B3|2162|2162||U|2001|DEPO GEDANGAN|ABCDEFGHIJKL|Edo|2020-08-14 04:58:41|2021-08-14 04:58:41|T
F97AF411385E77B3|2163|2163||U|2001|DEPO GEDANGAN|ABCDEFGHIJKL|Cherdiek Arie K|2020-08-14 04:58:41|2021-08-14 04:58:41|T
F97AF411385E77B3|2164|2164||U|2001|DEPO GEDANGAN|ABCDEFGHIJKL|DMC|2020-08-14 04:58:41|2021-08-14 04:58:41|T
F97AF411385E77B3|2165|2165||U|2001|DEPO GEDANGAN|ABCDEFGHIJKL|Tommi|2020-08-14 04:58:41|2021-08-14 04:58:41|T
F97AF411385E77B3|2166|2166||U|2001|DEPO GEDANGAN|ABCDEFGHIJKL|Fahruddin|2020-08-14 04:58:41|2021-08-14 04:58:41|T
F97AF411385E77B3|2167|2167||U|2001|DEPO GEDANGAN|ABCDEFGHIJKL|CITO|2020-08-14 04:58:41|2021-08-14 04:58:41|T
F97AF411385E77B3|2168|2168||U|2001|DEPO GEDANGAN|ABCDEFGHIJKL|RONALDO|2020-08-14 04:58:41|2021-08-14 04:58:41|T
F97AF411385E77B3|2169|2169||U|2001|DEPO GEDANGAN|ABCDEFGHIJKL|RINI|2020-08-14 04:58:41|2021-08-14 04:58:41|T
F97AF411385E77B3|216D|216D||U|2001|DEPO GEDANGAN|ABCDEFGHIJKL|TRIYONO (TO2)|2020-08-14 04:58:41|2021-08-14 04:58:41|T
F97AF411385E77B3|216P|216P||U|2001|DEPO GEDANGAN|ABCDEFGHIJKL|TRIYONO (TO1)|2020-08-14 04:58:41|2021-08-14 04:58:41|T
F97AF411385E77B3|2170|2170||U|2001|DEPO GEDANGAN|ABCDEFGHIJKL|KURNIAWAN|2020-08-14 04:58:41|2021-08-14 04:58:41|T
F97AF411385E77B3|2171|2171||U|2001|DEPO GEDANGAN|ABCDEFGHIJKL|FERI|2020-08-14 04:58:41|2021-08-14 04:58:41|T
F97AF411385E77B3|2172|2172||U|2001|DEPO GEDANGAN|ABCDEFGHIJKL|SANDI|2020-08-14 04:58:41|2021-08-14 04:58:41|T
F97AF411385E77B3|2173|2173||U|2001|DEPO GEDANGAN|ABCDEFGHIJKL|FERRY|2020-08-14 04:58:41|2021-08-14 04:58:41|T
F97AF411385E77B3|2174|2174||U|2001|DEPO GEDANGAN|ABCDEFGHIJKL|LUKMAN HAKIM|2020-08-14 04:58:41|2021-08-14 04:58:41|T
F97AF411385E77B3|2175|2175||U|2001|DEPO GEDANGAN|ABCDEFGHIJKL|AMIR|2020-08-14 04:58:41|2021-08-14 04:58:41|T
F97AF411385E77B3|2176|2176||U|2001|DEPO GEDANGAN|ABCDEFGHIJKL|SAIFUL|2020-08-14 04:58:41|2021-08-14 04:58:41|T
F97AF411385E77B3|2177|2177|Canvassing Credit|U|2001|DEPO GEDANGAN|ABCDEFGHIJKL|HAKIM|2020-08-14 04:58:41|2021-08-14 04:58:41|T
F97AF411385E77B3|2178|2178||U|2001|DEPO GEDANGAN|ABCDEFGHIJKL|SANDI|2020-08-14 04:58:41|2021-08-14 04:58:41|T
F97AF411385E77B3|2179|2179||U|2001|DEPO GEDANGAN|ABCDEFGHIJKL|KADIT|2020-08-14 04:58:41|2021-08-14 04:58:41|T
F97AF411385E77B3|217D|217D||U|2001|DEPO GEDANGAN|ABCDEFGHIJKL|HARTONO (TO2)|2020-08-14 04:58:41|2021-08-14 04:58:41|T
F97AF411385E77B3|217P|217P||U|2001|DEPO GEDANGAN|ABCDEFGHIJKL|HARTONO (TO1)|2020-08-14 04:58:41|2021-08-14 04:58:41|T
F97AF411385E77B3|2201|2201||U|2001|DEPO GEDANGAN|ABCDEFGHIJKL|ARMAN|2020-08-14 04:58:41|2021-08-14 04:58:41|T
F97AF411385E77B3|2202|2202||U|2001|DEPO GEDANGAN|ABCDEFGHIJKL|MULYADI|2020-08-14 04:58:41|2021-08-14 04:58:41|T
F97AF411385E77B3|2203|2203||U|2001|DEPO GEDANGAN|ABCDEFGHIJKL|ANDIK|2020-08-14 04:58:41|2021-08-14 04:58:41|T
F97AF411385E77B3|2204|2204||U|2001|DEPO GEDANGAN|ABCDEFGHIJKL|YUNIANTO|2020-08-14 04:58:41|2021-08-14 04:58:41|T
F97AF411385E77B3|2205|2205||U|2001|DEPO GEDANGAN|ABCDEFGHIJKL|MULYONO|2020-08-14 04:58:41|2021-08-14 04:58:41|T
F97AF411385E77B3|2206|2206||U|2001|DEPO GEDANGAN|ABCDEFGHIJKL|MUHID|2020-08-14 04:58:41|2021-08-14 04:58:41|T
F97AF411385E77B3|2207|2207||U|2001|DEPO GEDANGAN|ABCDEFGHIJKL|HERMANUS|2020-08-14 04:58:41|2021-08-14 04:58:41|T
F97AF411385E77B3|2208|2208||U|2001|DEPO GEDANGAN|ABCDEFGHIJKL|HARI|2020-08-14 04:58:41|2021-08-14 04:58:41|T
F97AF411385E77B3|2209|2209||U|2001|DEPO GEDANGAN|ABCDEFGHIJKL|ANTOK/HARI|2020-08-14 04:58:41|2021-08-14 04:58:41|T
F97AF411385E77B3|2210|2210||U|2001|DEPO GEDANGAN|ABCDEFGHIJKL|ANTOK/BAMBANG|2020-08-14 04:58:41|2021-08-14 04:58:41|T
F97AF411385E77B3|2211|2211||U|2001|DEPO GEDANGAN|ABCDEFGHIJKL|ANTOK/MUHID|2020-08-14 04:58:41|2021-08-14 04:58:41|T
F97AF411385E77B3|2212|2212||U|2001|DEPO GEDANGAN|ABCDEFGHIJKL|ANTOK/ROHMAD|2020-08-14 04:58:41|2021-08-14 04:58:41|T
F97AF411385E77B3|2213|2213||U|2001|DEPO GEDANGAN|ABCDEFGHIJKL|FIRMAN|2020-08-14 04:58:41|2021-08-14 04:58:41|T
F97AF411385E77B3|2214|2214||U|2001|DEPO GEDANGAN|ABCDEFGHIJKL|SAMSUL DF|2020-08-14 04:58:41|2021-08-14 04:58:41|T
F97AF411385E77B3|2215|2215||U|2001|DEPO GEDANGAN|ABCDEFGHIJKL|HARI DF|2020-08-14 04:58:41|2021-08-14 04:58:41|T
F97AF411385E77B3|2216|2216||U|2001|DEPO GEDANGAN|ABCDEFGHIJKL|MONIC|2020-08-14 04:58:41|2021-08-14 04:58:41|T
F97AF411385E77B3|2217|2217||U|2001|DEPO GEDANGAN|ABCDEFGHIJKL|SAPTA|2020-08-14 04:58:41|2021-08-14 04:58:41|T
F97AF411385E77B3|2218|2218||U|2001|DEPO GEDANGAN|ABCDEFGHIJKL|DIAN|2020-08-14 04:58:41|2021-08-14 04:58:41|T
F97AF411385E77B3|2219|2219||U|2001|DEPO GEDANGAN|ABCDEFGHIJKL|RONI|2020-08-14 04:58:41|2021-08-14 04:58:41|T
F97AF411385E77B3|221D|221D||U|2001|DEPO GEDANGAN|ABCDEFGHIJKL|ARMAN (TO2)|2020-08-14 04:58:41|2021-08-14 04:58:41|T
F97AF411385E77B3|221P|221P||U|2001|DEPO GEDANGAN|ABCDEFGHIJKL|ARMAN (TO1)|2020-08-14 04:58:41|2021-08-14 04:58:41|T
F97AF411385E77B3|2220|2220||U|2001|DEPO GEDANGAN|ABCDEFGHIJKL|BUDI SISWANTO|2020-08-14 04:58:41|2021-08-14 04:58:41|T
F97AF411385E77B3|2221|2221||U|2001|DEPO GEDANGAN|ABCDEFGHIJKL|IRVAN|2020-08-14 04:58:41|2021-08-14 04:58:41|T
F97AF411385E77B3|2222|2222||U|2001|DEPO GEDANGAN|ABCDEFGHIJKL|ARIFIN|2020-08-14 04:58:41|2021-08-14 04:58:41|T
F97AF411385E77B3|2223|2223||U|2001|DEPO GEDANGAN|ABCDEFGHIJKL|SINDU|2020-08-14 04:58:41|2021-08-14 04:58:41|T
F97AF411385E77B3|2224|2224||U|2001|DEPO GEDANGAN|ABCDEFGHIJKL|AFIF|2020-08-14 04:58:41|2021-08-14 04:58:41|T
F97AF411385E77B3|2225|2225||U|2001|DEPO GEDANGAN|ABCDEFGHIJKL|EKO|2020-08-14 04:58:41|2021-08-14 04:58:41|T
F97AF411385E77B3|2226|2226||U|2001|DEPO GEDANGAN|ABCDEFGHIJKL|DWI WINARKO|2020-08-14 04:58:41|2021-08-14 04:58:41|T
F97AF411385E77B3|2227|2227||U|2001|DEPO GEDANGAN|ABCDEFGHIJKL|FANDY BAGUS|2020-08-14 04:58:41|2021-08-14 04:58:41|T
F97AF411385E77B3|2228|2228||U|2001|DEPO GEDANGAN|ABCDEFGHIJKL|NURHADI|2020-08-14 04:58:41|2021-08-14 04:58:41|T
F97AF411385E77B3|2229|2229||U|2001|DEPO GEDANGAN|ABCDEFGHIJKL|HAMDAN SANI|2020-08-14 04:58:41|2021-08-14 04:58:41|T
F97AF411385E77B3|2230|2230||U|2001|DEPO GEDANGAN|ABCDEFGHIJKL|YULIA MELFA|2020-08-14 04:58:41|2021-08-14 04:58:41|T
F97AF411385E77B3|2231|2231||U|2001|DEPO GEDANGAN|ABCDEFGHIJKL|TRI WALUYO|2020-08-14 04:58:41|2021-08-14 04:58:41|T
F97AF411385E77B3|2232|2232||U|2001|DEPO GEDANGAN|ABCDEFGHIJKL|HARRIS|2020-08-14 04:58:41|2021-08-14 04:58:41|T
F97AF411385E77B3|2233|2233||U|2001|DEPO GEDANGAN|ABCDEFGHIJKL|ANDRY MARDENI|2020-08-14 04:58:41|2021-08-14 04:58:41|T
F97AF411385E77B3|2234|2234||U|2001|DEPO GEDANGAN|ABCDEFGHIJKL|KHOIRUL ANAM|2020-08-14 04:58:41|2021-08-14 04:58:41|T
F97AF411385E77B3|2235|2235||U|2001|DEPO GEDANGAN|ABCDEFGHIJKL|HADI BAHAGIA|2020-08-14 04:58:41|2021-08-14 04:58:41|T
F97AF411385E77B3|2236|2236||U|2001|DEPO GEDANGAN|ABCDEFGHIJKL|KAHARUDIN|2020-08-14 04:58:41|2021-08-14 04:58:41|T
F97AF411385E77B3|2237|2237||U|2001|DEPO GEDANGAN|ABCDEFGHIJKL|TEDDY TUHUMENA|2020-08-14 04:58:41|2021-08-14 04:58:41|T
F97AF411385E77B3|2238|2238||U|2001|DEPO GEDANGAN|ABCDEFGHIJKL|BAMBANG SRIYONO|2020-08-14 04:58:41|2021-08-14 04:58:41|T
F97AF411385E77B3|2239|2239||U|2001|DEPO GEDANGAN|ABCDEFGHIJKL|EDDY SOET|2020-08-14 04:58:41|2021-08-14 04:58:41|T
F97AF411385E77B3|223D|223D||U|2001|DEPO GEDANGAN|ABCDEFGHIJKL|YUNIANTO (DEPO)|2020-08-14 04:58:41|2021-08-14 04:58:41|T
F97AF411385E77B3|223P|223P||U|2001|DEPO GEDANGAN|ABCDEFGHIJKL|YUNIANTO (PABRIK)|2020-08-14 04:58:41|2021-08-14 04:58:41|T
F97AF411385E77B3|2240|2240||U|2001|DEPO GEDANGAN|ABCDEFGHIJKL|RUDIONO|2020-08-14 04:58:41|2021-08-14 04:58:41|T
F97AF411385E77B3|2241|2241||U|2001|DEPO GEDANGAN|ABCDEFGHIJKL|DWI ANDRIAWAN|2020-08-14 04:58:41|2021-08-14 04:58:41|T
F97AF411385E77B3|2242|2242||U|2001|DEPO GEDANGAN|ABCDEFGHIJKL|ANDY WIRANA|2020-08-14 04:58:41|2021-08-14 04:58:41|T
F97AF411385E77B3|2243|2243||U|2001|DEPO GEDANGAN|ABCDEFGHIJKL|ARIS VINDIAWAN|2020-08-14 04:58:41|2021-08-14 04:58:41|T
F97AF411385E77B3|2244|2244||U|2001|DEPO GEDANGAN|ABCDEFGHIJKL|PUGUH PRASETYO|2020-08-14 04:58:41|2021-08-14 04:58:41|T
F97AF411385E77B3|2245|2245||U|2001|DEPO GEDANGAN|ABCDEFGHIJKL|DEDY HERMAWAN|2020-08-14 04:58:41|2021-08-14 04:58:41|T
F97AF411385E77B3|2246|2246||U|2001|DEPO GEDANGAN|ABCDEFGHIJKL|MOH SAFII|2020-08-14 04:58:41|2021-08-14 04:58:41|T
F97AF411385E77B3|2247|2247||U|2001|DEPO GEDANGAN|ABCDEFGHIJKL|PRISTIONO|2020-08-14 04:58:41|2021-08-14 04:58:41|T
F97AF411385E77B3|2248|2248||U|2001|DEPO GEDANGAN|ABCDEFGHIJKL|MOCH ABDUL ARIS|2020-08-14 04:58:41|2021-08-14 04:58:41|T
F97AF411385E77B3|2249|2249||U|2001|DEPO GEDANGAN|ABCDEFGHIJKL|ANTON SUJARWO|2020-08-14 04:58:41|2021-08-14 04:58:41|T
F97AF411385E77B3|2250|2250||U|2001|DEPO GEDANGAN|ABCDEFGHIJKL|PRIYA TIMUR|2020-08-14 04:58:41|2021-08-14 04:58:41|T
F97AF411385E77B3|2251|2251||U|2001|DEPO GEDANGAN|ABCDEFGHIJKL|DENI JEMUR|2020-08-14 04:58:41|2021-08-14 04:58:41|T
F97AF411385E77B3|2252|2252||U|2001|DEPO GEDANGAN|ABCDEFGHIJKL|SUBHAN|2020-08-14 04:58:41|2021-08-14 04:58:41|T
F97AF411385E77B3|2253|2253||U|2001|DEPO GEDANGAN|ABCDEFGHIJKL|DMC SALSA|2020-08-14 04:58:41|2021-08-14 04:58:41|T
F97AF411385E77B3|2254|2254||U|2001|DEPO GEDANGAN|ABCDEFGHIJKL|MARTIN ROYAS|2020-08-14 04:58:41|2021-08-14 04:58:41|T
F97AF411385E77B3|2255|2255||U|2001|DEPO GEDANGAN|ABCDEFGHIJKL|ATOM|2020-08-14 04:58:41|2021-08-14 04:58:41|T
F97AF411385E77B3|2256|2256||U|2001|DEPO GEDANGAN|ABCDEFGHIJKL|HERU|2020-08-14 04:58:41|2021-08-14 04:58:41|T
F97AF411385E77B3|2257|2257|Branch Office|U|2001|DEPO GEDANGAN|ABCDEFGHIJKL|FACHRUDDIN|2020-08-14 04:58:41|2021-08-14 04:58:41|T
F97AF411385E77B3|2258|2258||U|2001|DEPO GEDANGAN|ABCDEFGHIJKL|SAMSUL EFFENDY|2020-08-14 04:58:41|2021-08-14 04:58:41|T
F97AF411385E77B3|226D|226D||U|2001|DEPO GEDANGAN|ABCDEFGHIJKL|BUDI (TO2)|2020-08-14 04:58:41|2021-08-14 04:58:41|T
F97AF411385E77B3|226P|226P||U|2001|DEPO GEDANGAN|ABCDEFGHIJKL|BUDI (TO1)|2020-08-14 04:58:41|2021-08-14 04:58:41|T
F97AF411385E77B3|2301|2301||U|2001|DEPO GEDANGAN|ABCDEFGHIJKL|AGUS|2020-08-14 04:58:41|2021-08-14 04:58:41|T
F97AF411385E77B3|2302|2302||U|2001|DEPO GEDANGAN|ABCDEFGHIJKL|KANTOR|2020-08-14 04:58:41|2021-08-14 04:58:41|T
F97AF411385E77B3|2303|2303||U|2001|DEPO GEDANGAN|ABCDEFGHIJKL|SANTOSO|2020-08-14 04:58:41|2021-08-14 04:58:41|T
F97AF411385E77B3|2304|2304||U|2001|DEPO GEDANGAN|ABCDEFGHIJKL|YONGKI|2020-08-14 04:58:41|2021-08-14 04:58:41|T
F97AF411385E77B3|2305|2305||U|2001|DEPO GEDANGAN|ABCDEFGHIJKL|INDRA|2020-08-14 04:58:41|2021-08-14 04:58:41|T
F97AF411385E77B3|2306|2306||U|2001|DEPO GEDANGAN|ABCDEFGHIJKL|EKO|2020-08-14 04:58:41|2021-08-14 04:58:41|T
F97AF411385E77B3|2307|2307||U|2001|DEPO GEDANGAN|ABCDEFGHIJKL|TRI WIBOWO|2020-08-14 04:58:41|2021-08-14 04:58:41|T
F97AF411385E77B3|2308|2308||U|2001|DEPO GEDANGAN|ABCDEFGHIJKL|PURNOMO|2020-08-14 04:58:41|2021-08-14 04:58:41|T
F97AF411385E77B3|2309|2309||U|2001|DEPO GEDANGAN|ABCDEFGHIJKL|BUDIONO|2020-08-14 04:58:41|2021-08-14 04:58:41|T
F97AF411385E77B3|2310|2310||U|2001|DEPO GEDANGAN|ABCDEFGHIJKL|FARID|2020-08-14 04:58:41|2021-08-14 04:58:41|T
F97AF411385E77B3|2311|2311||U|2001|DEPO GEDANGAN|ABCDEFGHIJKL|BAYU|2020-08-14 04:58:41|2021-08-14 04:58:41|T
F97AF411385E77B3|2312|2312||U|2001|DEPO GEDANGAN|ABCDEFGHIJKL|GALIH|2020-08-14 04:58:41|2021-08-14 04:58:41|T
F97AF411385E77B3|2313|2313||U|2001|DEPO GEDANGAN|ABCDEFGHIJKL|AHMAD|2020-08-14 04:58:41|2021-08-14 04:58:41|T
F97AF411385E77B3|2314|2314||U|2001|DEPO GEDANGAN|ABCDEFGHIJKL|AGUS S|2020-08-14 04:58:41|2021-08-14 04:58:41|T
F97AF411385E77B3|2315|2315||U|2001|DEPO GEDANGAN|ABCDEFGHIJKL|ANDRY|2020-08-14 04:58:41|2021-08-14 04:58:41|T
F97AF411385E77B3|2316|2316||U|2001|DEPO GEDANGAN|ABCDEFGHIJKL|HADI DF|2020-08-14 04:58:41|2021-08-14 04:58:41|T
F97AF411385E77B3|2317|2317||U|2001|DEPO GEDANGAN|ABCDEFGHIJKL|RONI DF|2020-08-14 04:58:41|2021-08-14 04:58:41|T
F97AF411385E77B3|2318|2318||U|2001|DEPO GEDANGAN|ABCDEFGHIJKL|BUDI DF|2020-08-14 04:58:41|2021-08-14 04:58:41|T
F97AF411385E77B3|2319|2319||U|2001|DEPO GEDANGAN|ABCDEFGHIJKL|MONIC DF|2020-08-14 04:58:41|2021-08-14 04:58:41|T
F97AF411385E77B3|231D|231D||U|2001|DEPO GEDANGAN|ABCDEFGHIJKL|AGUS (TO2)|2020-08-14 04:58:41|2021-08-14 04:58:41|T
F97AF411385E77B3|231P|231P||U|2001|DEPO GEDANGAN|ABCDEFGHIJKL|AGUS (TO1)|2020-08-14 04:58:41|2021-08-14 04:58:41|T
F97AF411385E77B3|2320|2320||U|2001|DEPO GEDANGAN|ABCDEFGHIJKL|FIRMAN DF|2020-08-14 04:58:41|2021-08-14 04:58:41|T
F97AF411385E77B3|2321|2321||U|2001|DEPO GEDANGAN|ABCDEFGHIJKL|SAMSUL DF|2020-08-14 04:58:41|2021-08-14 04:58:41|T
F97AF411385E77B3|2322|2322||U|2001|DEPO GEDANGAN|ABCDEFGHIJKL|ADI|2020-08-14 04:58:41|2021-08-14 04:58:41|T
F97AF411385E77B3|2323|2323||U|2001|DEPO GEDANGAN|ABCDEFGHIJKL|ARIS|2020-08-14 04:58:41|2021-08-14 04:58:41|T
F97AF411385E77B3|2324|2324||U|2001|DEPO GEDANGAN|ABCDEFGHIJKL|YOGI|2020-08-14 04:58:41|2021-08-14 04:58:41|T
F97AF411385E77B3|2325|2325||U|2001|DEPO GEDANGAN|ABCDEFGHIJKL|MOH.EKO|2020-08-14 04:58:41|2021-08-14 04:58:41|T
F97AF411385E77B3|2326|2326||U|2001|DEPO GEDANGAN|ABCDEFGHIJKL|EKO S|2020-08-14 04:58:41|2021-08-14 04:58:41|T
F97AF411385E77B3|2327|2327||U|2001|DEPO GEDANGAN|ABCDEFGHIJKL|RENDRA|2020-08-14 04:58:41|2021-08-14 04:58:41|T
F97AF411385E77B3|2328|2328||U|2001|DEPO GEDANGAN|ABCDEFGHIJKL|TRI WALUYO|2020-08-14 04:58:41|2021-08-14 04:58:41|T
F97AF411385E77B3|2329|2329||U|2001|DEPO GEDANGAN|ABCDEFGHIJKL|DIAS|2020-08-14 04:58:41|2021-08-14 04:58:41|T
F97AF411385E77B3|2330|2330||U|2001|DEPO GEDANGAN|ABCDEFGHIJKL|DIDIK WAHYONO|2020-08-14 04:58:41|2021-08-14 04:58:41|T
F97AF411385E77B3|2331|2331||U|2001|DEPO GEDANGAN|ABCDEFGHIJKL|HERNAWAN|2020-08-14 04:58:41|2021-08-14 04:58:41|T
F97AF411385E77B3|2332|2332||U|2001|DEPO GEDANGAN|ABCDEFGHIJKL|SIGIT|2020-08-14 04:58:41|2021-08-14 04:58:41|T
F97AF411385E77B3|2333|2333||U|2001|DEPO GEDANGAN|ABCDEFGHIJKL|WAHYU PRASETYO|2020-08-14 04:58:41|2021-08-14 04:58:41|T
F97AF411385E77B3|2334|2334||U|2001|DEPO GEDANGAN|ABCDEFGHIJKL|EDI PURNOMO|2020-08-14 04:58:41|2021-08-14 04:58:41|T
F97AF411385E77B3|2335|2335||U|2001|DEPO GEDANGAN|ABCDEFGHIJKL|DWI WIRA (HR)|2020-08-14 04:58:41|2021-08-14 04:58:41|T
F97AF411385E77B3|2336|2336||U|2001|DEPO GEDANGAN|ABCDEFGHIJKL|ALIP SUSANTO|2020-08-14 04:58:41|2021-08-14 04:58:41|T
F97AF411385E77B3|2337|2337||U|2001|DEPO GEDANGAN|ABCDEFGHIJKL|TEGUH WAHYU|2020-08-14 04:58:41|2021-08-14 04:58:41|T
F97AF411385E77B3|2338|2338||U|2001|DEPO GEDANGAN|ABCDEFGHIJKL|USMAN|2020-08-14 04:58:41|2021-08-14 04:58:41|T
F97AF411385E77B3|2339|2339||U|2001|DEPO GEDANGAN|ABCDEFGHIJKL|AKBAR|2020-08-14 04:58:41|2021-08-14 04:58:41|T
F97AF411385E77B3|2340|2340||U|2001|DEPO GEDANGAN|ABCDEFGHIJKL|RONI WIJAYA|2020-08-14 04:58:41|2021-08-14 04:58:41|T
F97AF411385E77B3|2341|2341||U|2001|DEPO GEDANGAN|ABCDEFGHIJKL|YONO|2020-08-14 04:58:41|2021-08-14 04:58:41|T
F97AF411385E77B3|2342|2342||U|2001|DEPO GEDANGAN|ABCDEFGHIJKL|AJI|2020-08-14 04:58:41|2021-08-14 04:58:41|T
F97AF411385E77B3|2343|2343||U|2001|DEPO GEDANGAN|ABCDEFGHIJKL|HARIYADI|2020-08-14 04:58:41|2021-08-14 04:58:41|T
F97AF411385E77B3|2344|2344||U|2001|DEPO GEDANGAN|ABCDEFGHIJKL|PUTRA|2020-08-14 04:58:41|2021-08-14 04:58:41|T
F97AF411385E77B3|2345|2345||U|2001|DEPO GEDANGAN|ABCDEFGHIJKL|AINUL MUIS|2020-08-14 04:58:41|2021-08-14 04:58:41|T
F97AF411385E77B3|2346|2346||U|2001|DEPO GEDANGAN|ABCDEFGHIJKL|BIYANTORO|2020-08-14 04:58:41|2021-08-14 04:58:41|T
F97AF411385E77B3|2347|2347||U|2001|DEPO GEDANGAN|ABCDEFGHIJKL|IRAWAN|2020-08-14 04:58:41|2021-08-14 04:58:41|T
F97AF411385E77B3|2401|2401||U|2001|DEPO GEDANGAN|ABCDEFGHIJKL|JONI EFFENDI|2020-08-14 04:58:41|2021-08-14 04:58:41|T
F97AF411385E77B3|2402|2402||U|2001|DEPO GEDANGAN|ABCDEFGHIJKL|KANTOR|2020-08-14 04:58:41|2021-08-14 04:58:41|T
F97AF411385E77B3|2403|2403||U|2001|DEPO GEDANGAN|ABCDEFGHIJKL|SAIKUDIN|2020-08-14 04:58:41|2021-08-14 04:58:41|T
F97AF411385E77B3|2404|2404||U|2001|DEPO GEDANGAN|ABCDEFGHIJKL|JOKO PURNOMO|2020-08-14 04:58:41|2021-08-14 04:58:41|T
F97AF411385E77B3|2405|2405||U|2001|DEPO GEDANGAN|ABCDEFGHIJKL|KADARUSMAN|2020-08-14 04:58:41|2021-08-14 04:58:41|T
F97AF411385E77B3|2406|2406||U|2001|DEPO GEDANGAN|ABCDEFGHIJKL|PRAMONO|2020-08-14 04:58:41|2021-08-14 04:58:41|T
F97AF411385E77B3|2407|2407||U|2001|DEPO GEDANGAN|ABCDEFGHIJKL|NONO|2020-08-14 04:58:41|2021-08-14 04:58:41|T
F97AF411385E77B3|2408|2408||U|2001|DEPO GEDANGAN|ABCDEFGHIJKL|IRWAN PRASETYO|2020-08-14 04:58:41|2021-08-14 04:58:41|T
F97AF411385E77B3|2409|2409||U|2001|DEPO GEDANGAN|ABCDEFGHIJKL|YUNIANTO (MJK)|2020-08-14 04:58:41|2021-08-14 04:58:41|T
F97AF411385E77B3|2410|2410||U|2001|DEPO GEDANGAN|ABCDEFGHIJKL|FARID|2020-08-14 04:58:41|2021-08-14 04:58:41|T
F97AF411385E77B3|2411|2411||U|2001|DEPO GEDANGAN|ABCDEFGHIJKL|EKO|2020-08-14 04:58:41|2021-08-14 04:58:41|T
F97AF411385E77B3|2412|2412||U|2001|DEPO GEDANGAN|ABCDEFGHIJKL|LINDHU YANNUGRAH|2020-08-14 04:58:41|2021-08-14 04:58:41|T
F97AF411385E77B3|2413|2413||U|2001|DEPO GEDANGAN|ABCDEFGHIJKL|INDRA ERDIANTO|2020-08-14 04:58:41|2021-08-14 04:58:41|T
F97AF411385E77B3|2414|2414||U|2001|DEPO GEDANGAN|ABCDEFGHIJKL|FIRDAUS|2020-08-14 04:58:41|2021-08-14 04:58:41|T
F97AF411385E77B3|2415|2415||U|2001|DEPO GEDANGAN|ABCDEFGHIJKL|SAIFUDIN|2020-08-14 04:58:41|2021-08-14 04:58:41|T
F97AF411385E77B3|2416|2416||U|2001|DEPO GEDANGAN|ABCDEFGHIJKL|Yoyok|2020-08-14 04:58:41|2021-08-14 04:58:41|T
F97AF411385E77B3|2417|2417||U|2001|DEPO GEDANGAN|ABCDEFGHIJKL|JATMIKO|2020-08-14 04:58:41|2021-08-14 04:58:41|T
F97AF411385E77B3|2418|2418||U|2001|DEPO GEDANGAN|ABCDEFGHIJKL|ERWIN|2020-08-14 04:58:41|2021-08-14 04:58:41|T
F97AF411385E77B3|2419|2419||U|2001|DEPO GEDANGAN|ABCDEFGHIJKL|ANDY|2020-08-14 04:58:41|2021-08-14 04:58:41|T
F97AF411385E77B3|2501|2501||U|2001|DEPO GEDANGAN|ABCDEFGHIJKL|KANTOR|2020-08-14 04:58:41|2021-08-14 04:58:41|T
F97AF411385E77B3|2502|2502||U|2001|DEPO GEDANGAN|ABCDEFGHIJKL|JHONY|2020-08-14 04:58:41|2021-08-14 04:58:41|T
F97AF411385E77B3|2503|2503||U|2001|DEPO GEDANGAN|ABCDEFGHIJKL|SUKRON|2020-08-14 04:58:41|2021-08-14 04:58:41|T
F97AF411385E77B3|2504|2504||U|2001|DEPO GEDANGAN|ABCDEFGHIJKL|UNTUNG|2020-08-14 04:58:41|2021-08-14 04:58:41|T
F97AF411385E77B3|2505|2505||U|2001|DEPO GEDANGAN|ABCDEFGHIJKL|RONI|2020-08-14 04:58:41|2021-08-14 04:58:41|T
F97AF411385E77B3|2506|2506||U|2001|DEPO GEDANGAN|ABCDEFGHIJKL|ALDI|2020-08-14 04:58:41|2021-08-14 04:58:41|T
F97AF411385E77B3|2507|2507||U|2001|DEPO GEDANGAN|ABCDEFGHIJKL|AGUS|2020-08-14 04:58:41|2021-08-14 04:58:41|T
F97AF411385E77B3|2508|2508||U|2001|DEPO GEDANGAN|ABCDEFGHIJKL|JOKO|2020-08-14 04:58:41|2021-08-14 04:58:41|T
F97AF411385E77B3|2509|2509||U|2001|DEPO GEDANGAN|ABCDEFGHIJKL|ISMIATI|2020-08-14 04:58:41|2021-08-14 04:58:41|T
F97AF411385E77B3|2510|2510||U|2001|DEPO GEDANGAN|ABCDEFGHIJKL|KASAN|2020-08-14 04:58:41|2021-08-14 04:58:41|T
F97AF411385E77B3|2511|2511||U|2001|DEPO GEDANGAN|ABCDEFGHIJKL|EDI|2020-08-14 04:58:41|2021-08-14 04:58:41|T
F97AF411385E77B3|2512|2512||U|2001|DEPO GEDANGAN|ABCDEFGHIJKL|SAIFUL|2020-08-14 04:58:41|2021-08-14 04:58:41|T
F97AF411385E77B3|2513|2513||U|2001|DEPO GEDANGAN|ABCDEFGHIJKL|NITA|2020-08-14 04:58:41|2021-08-14 04:58:41|T
F97AF411385E77B3|2514|2514||U|2001|DEPO GEDANGAN|ABCDEFGHIJKL|ARIES|2020-08-14 04:58:41|2021-08-14 04:58:41|T
F97AF411385E77B3|2515|2515||U|2001|DEPO GEDANGAN|ABCDEFGHIJKL|ARDIAN|2020-08-14 04:58:41|2021-08-14 04:58:41|T
F97AF411385E77B3|2516|2516||U|2001|DEPO GEDANGAN|ABCDEFGHIJKL|BAMBANG|2020-08-14 04:58:41|2021-08-14 04:58:41|T
F97AF411385E77B3|2517|2517||U|2001|DEPO GEDANGAN|ABCDEFGHIJKL|DWI|2020-08-14 04:58:41|2021-08-14 04:58:41|T
F97AF411385E77B3|2518|2518||U|2001|DEPO GEDANGAN|ABCDEFGHIJKL|OPI|2020-08-14 04:58:41|2021-08-14 04:58:41|T
F97AF411385E77B3|2519|2519||U|2001|DEPO GEDANGAN|ABCDEFGHIJKL|DIDIT|2020-08-14 04:58:41|2021-08-14 04:58:41|T
F97AF411385E77B3|2601|2601||U|2001|DEPO GEDANGAN|ABCDEFGHIJKL|KANTOR|2020-08-14 04:58:41|2021-08-14 04:58:41|T
F97AF411385E77B3|2602|2602||U|2001|DEPO GEDANGAN|ABCDEFGHIJKL|ISWANDI|2020-08-14 04:58:41|2021-08-14 04:58:41|T
F97AF411385E77B3|2603|2603||U|2001|DEPO GEDANGAN|ABCDEFGHIJKL|AFIF|2020-08-14 04:58:41|2021-08-14 04:58:41|T
F97AF411385E77B3|2604|2604||U|2001|DEPO GEDANGAN|ABCDEFGHIJKL|PRIYONO|2020-08-14 04:58:41|2021-08-14 04:58:41|T
F97AF411385E77B3|2605|2605||U|2001|DEPO GEDANGAN|ABCDEFGHIJKL|FERRY|2020-08-14 04:58:41|2021-08-14 04:58:41|T
F97AF411385E77B3|2606|2606||U|2001|DEPO GEDANGAN|ABCDEFGHIJKL|JAROT AGUS NURCAHYO|2020-08-14 04:58:41|2021-08-14 04:58:41|T
F97AF411385E77B3|2607|2607||U|2001|DEPO GEDANGAN|ABCDEFGHIJKL|HARRY WIBISONO|2020-08-14 04:58:41|2021-08-14 04:58:41|T
F97AF411385E77B3|2608|2608||U|2001|DEPO GEDANGAN|ABCDEFGHIJKL|SIGID WITJAKSONO|2020-08-14 04:58:41|2021-08-14 04:58:41|T
F97AF411385E77B3|2609|2609||U|2001|DEPO GEDANGAN|ABCDEFGHIJKL|CESWAR|2020-08-14 04:58:41|2021-08-14 04:58:41|T
F97AF411385E77B3|260D|260D||U|2001|DEPO GEDANGAN|ABCDEFGHIJKL|PONGKI (TO2)|2020-08-14 04:58:41|2021-08-14 04:58:41|T
F97AF411385E77B3|260P|260P||U|2001|DEPO GEDANGAN|ABCDEFGHIJKL|PONGKI (TO1)|2020-08-14 04:58:41|2021-08-14 04:58:41|T
F97AF411385E77B3|2610|2610||U|2001|DEPO GEDANGAN|ABCDEFGHIJKL|PONGKI|2020-08-14 04:58:41|2021-08-14 04:58:41|T
F97AF411385E77B3|2611|2611||U|2001|DEPO GEDANGAN|ABCDEFGHIJKL|AMIR|2020-08-14 04:58:41|2021-08-14 04:58:41|T
F97AF411385E77B3|2612|2612||U|2001|DEPO GEDANGAN|ABCDEFGHIJKL|SINTUK|2020-08-14 04:58:41|2021-08-14 04:58:41|T
F97AF411385E77B3|2613|2613||U|2001|DEPO GEDANGAN|ABCDEFGHIJKL|ANDIK|2020-08-14 04:58:41|2021-08-14 04:58:41|T
F97AF411385E77B3|2615|2615||U|2001|DEPO GEDANGAN|ABCDEFGHIJKL|BENNY|2020-08-14 04:58:41|2021-08-14 04:58:41|T
F97AF411385E77B3|2616|2616||U|2001|DEPO GEDANGAN|ABCDEFGHIJKL|HERDI|2020-08-14 04:58:41|2021-08-14 04:58:41|T
F97AF411385E77B3|2617|2617||U|2001|DEPO GEDANGAN|ABCDEFGHIJKL|AGUNG|2020-08-14 04:58:41|2021-08-14 04:58:41|T
F97AF411385E77B3|2618|2618||U|2001|DEPO GEDANGAN|ABCDEFGHIJKL|MIFTAH|2020-08-14 04:58:41|2021-08-14 04:58:41|T
F97AF411385E77B3|2619|2619||U|2001|DEPO GEDANGAN|ABCDEFGHIJKL|SUMARDI|2020-08-14 04:58:41|2021-08-14 04:58:41|T
F97AF411385E77B3|2620|2620||U|2001|DEPO GEDANGAN|ABCDEFGHIJKL|ARIF WAHYUDI|2020-08-14 04:58:41|2021-08-14 04:58:41|T
F97AF411385E77B3|2621|2621||U|2001|DEPO GEDANGAN|ABCDEFGHIJKL|PUTRO|2020-08-14 04:58:41|2021-08-14 04:58:41|T
F97AF411385E77B3|263D|263D||U|2001|DEPO GEDANGAN|ABCDEFGHIJKL|AFIF (TO2)|2020-08-14 04:58:41|2021-08-14 04:58:41|T
F97AF411385E77B3|263P|263P||U|2001|DEPO GEDANGAN|ABCDEFGHIJKL|AFIF (TO1)|2020-08-14 04:58:41|2021-08-14 04:58:41|T
F97AF411385E77B3|266D|266D||U|2001|DEPO GEDANGAN|ABCDEFGHIJKL|JAROT AGUS (TO2)|2020-08-14 04:58:41|2021-08-14 04:58:41|T
F97AF411385E77B3|267D|267D||U|2001|DEPO GEDANGAN|ABCDEFGHIJKL|HARRY WIBISONO (TO2)|2020-08-14 04:58:41|2021-08-14 04:58:41|T
F97AF411385E77B3|267P|267P||U|2001|DEPO GEDANGAN|ABCDEFGHIJKL|HARRY WIBISONO (TO1)|2020-08-14 04:58:41|2021-08-14 04:58:41|T
F97AF411385E77B3|268D|268D||U|2001|DEPO GEDANGAN|ABCDEFGHIJKL|SIGID WITJAKSONO (TO|2020-08-14 04:58:41|2021-08-14 04:58:41|T
F97AF411385E77B3|269D|269D||U|2001|DEPO GEDANGAN|ABCDEFGHIJKL|CESWAR (TO2)|2020-08-14 04:58:41|2021-08-14 04:58:41|T
F97AF411385E77B3|269P|269P||U|2001|DEPO GEDANGAN|ABCDEFGHIJKL|CESWAR (TO1)|2020-08-14 04:58:41|2021-08-14 04:58:41|T
F97AF411385E77B3|2701|2701||U|2001|DEPO GEDANGAN|ABCDEFGHIJKL|KANTOR DEPO JEMBER|2020-08-14 04:58:41|2021-08-14 04:58:41|T
F97AF411385E77B3|2702|2702||U|2001|DEPO GEDANGAN|ABCDEFGHIJKL|ROBI|2020-08-14 04:58:41|2021-08-14 04:58:41|T
F97AF411385E77B3|2703|2703||U|2001|DEPO GEDANGAN|ABCDEFGHIJKL|TRI ZAENAUL|2020-08-14 04:58:41|2021-08-14 04:58:41|T
F97AF411385E77B3|2704|2704||U|2001|DEPO GEDANGAN|ABCDEFGHIJKL|WASIAH|2020-08-14 04:58:41|2021-08-14 04:58:41|T
F97AF411385E77B3|2705|2705||U|2001|DEPO GEDANGAN|ABCDEFGHIJKL|BAGUS|2020-08-14 04:58:41|2021-08-14 04:58:41|T
F97AF411385E77B3|2706|2706||U|2001|DEPO GEDANGAN|ABCDEFGHIJKL|ARIK BARGOWO|2020-08-14 04:58:41|2021-08-14 04:58:41|T
F97AF411385E77B3|2707|2707||U|2001|DEPO GEDANGAN|ABCDEFGHIJKL|SUYOTO|2020-08-14 04:58:41|2021-08-14 04:58:41|T
F97AF411385E77B3|2708|2708||U|2001|DEPO GEDANGAN|ABCDEFGHIJKL|IMRON FAHRIZAL|2020-08-14 04:58:41|2021-08-14 04:58:41|T
F97AF411385E77B3|2709|2709||U|2001|DEPO GEDANGAN|ABCDEFGHIJKL|PERU BUDI|2020-08-14 04:58:41|2021-08-14 04:58:41|T
F97AF411385E77B3|2710|2710||U|2001|DEPO GEDANGAN|ABCDEFGHIJKL|WAKIK|2020-08-14 04:58:41|2021-08-14 04:58:41|T
F97AF411385E77B3|2711|2711||U|2001|DEPO GEDANGAN|ABCDEFGHIJKL|BAGUS CAHYONO|2020-08-14 04:58:41|2021-08-14 04:58:41|T
F97AF411385E77B3|2712|2712||U|2001|DEPO GEDANGAN|ABCDEFGHIJKL|DEDI WAHYONO|2020-08-14 04:58:41|2021-08-14 04:58:41|T
F97AF411385E77B3|2713|2713||U|2001|DEPO GEDANGAN|ABCDEFGHIJKL|MUKLIS|2020-08-14 04:58:41|2021-08-14 04:58:41|T
F97AF411385E77B3|2714|2714||U|2001|DEPO GEDANGAN|ABCDEFGHIJKL|SULISTIYO|2020-08-14 04:58:41|2021-08-14 04:58:41|T
F97AF411385E77B3|2715|2715||U|2001|DEPO GEDANGAN|ABCDEFGHIJKL|SUJARI|2020-08-14 04:58:41|2021-08-14 04:58:41|T
F97AF411385E77B3|2801|2801||U|2001|DEPO GEDANGAN|ABCDEFGHIJKL|KANTOR|2020-08-14 04:58:41|2021-08-14 04:58:41|T
F97AF411385E77B3|2802|2802||U|2001|DEPO GEDANGAN|ABCDEFGHIJKL|SLAMET WIDODO|2020-08-14 04:58:41|2021-08-14 04:58:41|T
F97AF411385E77B3|2803|2803||U|2001|DEPO GEDANGAN|ABCDEFGHIJKL|RICKY |2020-08-14 04:58:41|2021-08-14 04:58:41|T
F97AF411385E77B3|2804|2804||U|2001|DEPO GEDANGAN|ABCDEFGHIJKL|SUPARTO|2020-08-14 04:58:41|2021-08-14 04:58:41|T
F97AF411385E77B3|2805|2805||U|2001|DEPO GEDANGAN|ABCDEFGHIJKL|DEDDY |2020-08-14 04:58:41|2021-08-14 04:58:41|T
F97AF411385E77B3|2806|2806||U|2001|DEPO GEDANGAN|ABCDEFGHIJKL|INDRA|2020-08-14 04:58:41|2021-08-14 04:58:41|T
F97AF411385E77B3|2807|2807||U|2001|DEPO GEDANGAN|ABCDEFGHIJKL|DWI JOKO|2020-08-14 04:58:41|2021-08-14 04:58:41|T
F97AF411385E77B3|2808|2808||U|2001|DEPO GEDANGAN|ABCDEFGHIJKL|AGUS YULIANTO|2020-08-14 04:58:41|2021-08-14 04:58:41|T
F97AF411385E77B3|2809|2809||U|2001|DEPO GEDANGAN|ABCDEFGHIJKL|ROSYANTO|2020-08-14 04:58:41|2021-08-14 04:58:41|T
F97AF411385E77B3|2810|2810||U|2001|DEPO GEDANGAN|ABCDEFGHIJKL|BAYU NOVIANTO|2020-08-14 04:58:41|2021-08-14 04:58:41|T
F97AF411385E77B3|2811|2811||U|2001|DEPO GEDANGAN|ABCDEFGHIJKL|SYAIFUL ANWAR|2020-08-14 04:58:41|2021-08-14 04:58:41|T
F97AF411385E77B3|2812|2812||U|2001|DEPO GEDANGAN|ABCDEFGHIJKL|PURNOMOSIDI|2020-08-14 04:58:41|2021-08-14 04:58:41|T
F97AF411385E77B3|2813|2813||U|2001|DEPO GEDANGAN|ABCDEFGHIJKL|JOHAN KURNIAWAN|2020-08-14 04:58:41|2021-08-14 04:58:41|T
F97AF411385E77B3|2814|2814||U|2001|DEPO GEDANGAN|ABCDEFGHIJKL|ANDHY RASYD|2020-08-14 04:58:41|2021-08-14 04:58:41|T
F97AF411385E77B3|2815|2815||U|2001|DEPO GEDANGAN|ABCDEFGHIJKL|KELIK AGUS|2020-08-14 04:58:41|2021-08-14 04:58:41|T
F97AF411385E77B3|2816|2816||U|2001|DEPO GEDANGAN|ABCDEFGHIJKL|DWI JOKO|2020-08-14 04:58:41|2021-08-14 04:58:41|T
F97AF411385E77B3|2817|2817||U|2001|DEPO GEDANGAN|ABCDEFGHIJKL|PRISMA ARIF SUGANDA|2020-08-14 04:58:41|2021-08-14 04:58:41|T
F97AF411385E77B3|2818|2818||U|2001|DEPO GEDANGAN|ABCDEFGHIJKL|DONI ANDRIYANTO|2020-08-14 04:58:41|2021-08-14 04:58:41|T
F97AF411385E77B3|2819|2819||U|2001|DEPO GEDANGAN|ABCDEFGHIJKL|HENDRO SUSILO|2020-08-14 04:58:41|2021-08-14 04:58:41|T
F97AF411385E77B3|2901|2901||U|2001|DEPO GEDANGAN|ABCDEFGHIJKL|KANTOR|2020-08-14 04:58:41|2021-08-14 04:58:41|T
F97AF411385E77B3|2902|2902||U|2001|DEPO GEDANGAN|ABCDEFGHIJKL|ISWANTO|2020-08-14 04:58:41|2021-08-14 04:58:41|T
F97AF411385E77B3|2903|2903||U|2001|DEPO GEDANGAN|ABCDEFGHIJKL|SUTARDI|2020-08-14 04:58:41|2021-08-14 04:58:41|T
F97AF411385E77B3|2904|2904||U|2001|DEPO GEDANGAN|ABCDEFGHIJKL|DIDIT|2020-08-14 04:58:41|2021-08-14 04:58:41|T
F97AF411385E77B3|2905|2905||U|2001|DEPO GEDANGAN|ABCDEFGHIJKL|RONI|2020-08-14 04:58:41|2021-08-14 04:58:41|T
F97AF411385E77B3|2906|2906||U|2001|DEPO GEDANGAN|ABCDEFGHIJKL|PAK HENDRA|2020-08-14 04:58:41|2021-08-14 04:58:41|T
F97AF411385E77B3|2907|2907||U|2001|DEPO GEDANGAN|ABCDEFGHIJKL|SUGENG|2020-08-14 04:58:41|2021-08-14 04:58:41|T
F97AF411385E77B3|2908|2908||U|2001|DEPO GEDANGAN|ABCDEFGHIJKL|TRIANTO|2020-08-14 04:58:41|2021-08-14 04:58:41|T
F97AF411385E77B3|2909|2909||U|2001|DEPO GEDANGAN|ABCDEFGHIJKL|BASUKI|2020-08-14 04:58:41|2021-08-14 04:58:41|T
F97AF411385E77B3|2910|2910||U|2001|DEPO GEDANGAN|ABCDEFGHIJKL|FAHRUDIN|2020-08-14 04:58:41|2021-08-14 04:58:41|T
F97AF411385E77B3|2911|2911||U|2001|DEPO GEDANGAN|ABCDEFGHIJKL|ADI|2020-08-14 04:58:41|2021-08-14 04:58:41|T
F97AF411385E77B3|2912|2912||U|2001|DEPO GEDANGAN|ABCDEFGHIJKL|KUDUS|2020-08-14 04:58:41|2021-08-14 04:58:41|T
F97AF411385E77B3|2913|2913||U|2001|DEPO GEDANGAN|ABCDEFGHIJKL|SAMIAJI PUJOHASTONO|2020-08-14 04:58:41|2021-08-14 04:58:41|T
F97AF411385E77B3|2914|2914||U|2001|DEPO GEDANGAN|ABCDEFGHIJKL|PARDI|2020-08-14 04:58:41|2021-08-14 04:58:41|T
F97AF411385E77B3|2915|2915||U|2001|DEPO GEDANGAN|ABCDEFGHIJKL|SUHERU|2020-08-14 04:58:41|2021-08-14 04:58:41|T
F97AF411385E77B3|2916|2916||U|2001|DEPO GEDANGAN|ABCDEFGHIJKL|GHANDI|2020-08-14 04:58:41|2021-08-14 04:58:41|T
F97AF411385E77B3|2917|2917||U|2001|DEPO GEDANGAN|ABCDEFGHIJKL|NURHIDAYAT|2020-08-14 04:58:41|2021-08-14 04:58:41|T
F97AF411385E77B3|2918|2918||U|2001|DEPO GEDANGAN|ABCDEFGHIJKL|DIAN|2020-08-14 04:58:41|2021-08-14 04:58:41|T
F97AF411385E77B3|2919|2919||U|2001|DEPO GEDANGAN|ABCDEFGHIJKL|HERU|2020-08-14 04:58:41|2021-08-14 04:58:41|T
F97AF411385E77B3|2920|2920||U|2001|DEPO GEDANGAN|ABCDEFGHIJKL|HERI|2020-08-14 04:58:41|2021-08-14 04:58:41|T
F97AF411385E77B3|2921|2921||U|2001|DEPO GEDANGAN|ABCDEFGHIJKL|DENY|2020-08-14 04:58:41|2021-08-14 04:58:41|T
F97AF411385E77B3|2922|2922||U|2001|DEPO GEDANGAN|ABCDEFGHIJKL|PARDI|2020-08-14 04:58:41|2021-08-14 04:58:41|T
F97AF411385E77B3|2923|2923||U|2001|DEPO GEDANGAN|ABCDEFGHIJKL|ANDRI|2020-08-14 04:58:41|2021-08-14 04:58:41|T
F97AF411385E77B3|2924|2924||U|2001|DEPO GEDANGAN|ABCDEFGHIJKL|BAMBANG|2020-08-14 04:58:41|2021-08-14 04:58:41|T
F97AF411385E77B3|2925|2925||U|2001|DEPO GEDANGAN|ABCDEFGHIJKL|UNTUNG|2020-08-14 04:58:41|2021-08-14 04:58:41|T
F97AF411385E77B3|2926|2926||U|2001|DEPO GEDANGAN|ABCDEFGHIJKL|TRIYONO|2020-08-14 04:58:41|2021-08-14 04:58:41|T
F97AF411385E77B3|2927|2927||U|2001|DEPO GEDANGAN|ABCDEFGHIJKL|UNTUNG TRI|2020-08-14 04:58:41|2021-08-14 04:58:41|T
F97AF411385E77B3|2928|2928||U|2001|DEPO GEDANGAN|ABCDEFGHIJKL|DENNY|2020-08-14 04:58:41|2021-08-14 04:58:41|T
F97AF411385E77B3|2929|2929||U|2001|DEPO GEDANGAN|ABCDEFGHIJKL|ANDY|2020-08-14 04:58:41|2021-08-14 04:58:41|T
F97AF411385E77B3|2930|2930||U|2001|DEPO GEDANGAN|ABCDEFGHIJKL|AGUNG SISWOYO|2020-08-14 04:58:41|2021-08-14 04:58:41|T
F97AF411385E77B3|2931|2931||U|2001|DEPO GEDANGAN|ABCDEFGHIJKL|TARDI|2020-08-14 04:58:41|2021-08-14 04:58:41|T
F97AF411385E77B3|2932|2932||U|2001|DEPO GEDANGAN|ABCDEFGHIJKL|YENNY|2020-08-14 04:58:41|2021-08-14 04:58:41|T
F97AF411385E77B3|2933|2933||U|2001|DEPO GEDANGAN|ABCDEFGHIJKL|HERI|2020-08-14 04:58:41|2021-08-14 04:58:41|T
F97AF411385E77B3|2934|2934||U|2001|DEPO GEDANGAN|ABCDEFGHIJKL|TITIN|2020-08-14 04:58:41|2021-08-14 04:58:41|T
F97AF411385E77B3|2935|2935||U|2001|DEPO GEDANGAN|ABCDEFGHIJKL|AGUNG|2020-08-14 04:58:41|2021-08-14 04:58:41|T
F97AF411385E77B3|2936|2936||U|2001|DEPO GEDANGAN|ABCDEFGHIJKL|Dyah|2020-08-14 04:58:41|2021-08-14 04:58:41|T
F97AF411385E77B3|2B01|2B01||U|2001|DEPO GEDANGAN|ABCDEFGHIJKL|KANTOR MAKASAR|2020-08-14 04:58:41|2021-08-14 04:58:41|T
F97AF411385E77B3|2B02|2B02||U|2001|DEPO GEDANGAN|ABCDEFGHIJKL|AGUS SUSANTO|2020-08-14 04:58:41|2021-08-14 04:58:41|T
F97AF411385E77B3|2B03|2B03||U|2001|DEPO GEDANGAN|ABCDEFGHIJKL|LATVENTIUS BENEDICTU|2020-08-14 04:58:41|2021-08-14 04:58:41|T
F97AF411385E77B3|2B04|2B04||U|2001|DEPO GEDANGAN|ABCDEFGHIJKL|SYAHRIL SYAM|2020-08-14 04:58:41|2021-08-14 04:58:41|T
F97AF411385E77B3|2B05|2B05||U|2001|DEPO GEDANGAN|ABCDEFGHIJKL|HENDRY|2020-08-14 04:58:41|2021-08-14 04:58:41|T
F97AF411385E77B3|2B06|2B06||U|2001|DEPO GEDANGAN|ABCDEFGHIJKL|M SAID|2020-08-14 04:58:41|2021-08-14 04:58:41|T
F97AF411385E77B3|2B07|2B07||U|2001|DEPO GEDANGAN|ABCDEFGHIJKL|ADE IRVAN SUNARYO|2020-08-14 04:58:41|2021-08-14 04:58:41|T
F97AF411385E77B3|2B08|2B08||U|2001|DEPO GEDANGAN|ABCDEFGHIJKL|SULKARNAIN IDRIS|2020-08-14 04:58:41|2021-08-14 04:58:41|T
F97AF411385E77B3|2B09|2B09||U|2001|DEPO GEDANGAN|ABCDEFGHIJKL|KHAIRUL A|2020-08-14 04:58:41|2021-08-14 04:58:41|T
F97AF411385E77B3|2B10|2B10||U|2001|DEPO GEDANGAN|ABCDEFGHIJKL|IRFAN|2020-08-14 04:58:41|2021-08-14 04:58:41|T
F97AF411385E77B3|2B11|2B11||U|2001|DEPO GEDANGAN|ABCDEFGHIJKL|MULYADI|2020-08-14 04:58:41|2021-08-14 04:58:41|T
F97AF411385E77B3|2B12|2B12||U|2001|DEPO GEDANGAN|ABCDEFGHIJKL|MUH. ARMAN ARHAS|2020-08-14 04:58:41|2021-08-14 04:58:41|T
F97AF411385E77B3|2B13|2B13||U|2001|DEPO GEDANGAN|ABCDEFGHIJKL|NUR HUSAIN|2020-08-14 04:58:41|2021-08-14 04:58:41|T
F97AF411385E77B3|2B14|2B14||U|2001|DEPO GEDANGAN|ABCDEFGHIJKL|SLAMET RIYADI|2020-08-14 04:58:41|2021-08-14 04:58:41|T
F97AF411385E77B3|2B15|2B15||U|2001|DEPO GEDANGAN|ABCDEFGHIJKL|SUDIRMAN|2020-08-14 04:58:41|2021-08-14 04:58:41|T
F97AF411385E77B3|2B16|2B16||U|2001|DEPO GEDANGAN|ABCDEFGHIJKL|SURYADI|2020-08-14 04:58:41|2021-08-14 04:58:41|T
F97AF411385E77B3|2B17|2B17||U|2001|DEPO GEDANGAN|ABCDEFGHIJKL|MUH. SYARIF WAHID|2020-08-14 04:58:41|2021-08-14 04:58:41|T
F97AF411385E77B3|2B18|2B18||U|2001|DEPO GEDANGAN|ABCDEFGHIJKL|HARUN HADIWIJONO|2020-08-14 04:58:41|2021-08-14 04:58:41|T
F97AF411385E77B3|2B19|2B19||U|2001|DEPO GEDANGAN|ABCDEFGHIJKL|MANSYUR SITABA|2020-08-14 04:58:41|2021-08-14 04:58:41|T
F97AF411385E77B3|2B20|2B20||U|2001|DEPO GEDANGAN|ABCDEFGHIJKL|AHMAD NUR|2020-08-14 04:58:41|2021-08-14 04:58:41|T
F97AF411385E77B3|2B21|2B21||U|2001|DEPO GEDANGAN|ABCDEFGHIJKL|ISWAN ABUBAKAR|2020-08-14 04:58:41|2021-08-14 04:58:41|T
F97AF411385E77B3|2B22|2B22||U|2001|DEPO GEDANGAN|ABCDEFGHIJKL|FREDERIK RIZAL MALLI|2020-08-14 04:58:41|2021-08-14 04:58:41|T
F97AF411385E77B3|2B23|2B23||U|2001|DEPO GEDANGAN|ABCDEFGHIJKL|BUDI HARTONO|2020-08-14 04:58:41|2021-08-14 04:58:41|T
F97AF411385E77B3|2B24|2B24||U|2001|DEPO GEDANGAN|ABCDEFGHIJKL|WIRAL|2020-08-14 04:58:41|2021-08-14 04:58:41|T
F97AF411385E77B3|2B25|2B25||U|2001|DEPO GEDANGAN|ABCDEFGHIJKL|ANDI MAPPATUNRU|2020-08-14 04:58:41|2021-08-14 04:58:41|T
F97AF411385E77B3|2B26|2B26||U|2001|DEPO GEDANGAN|ABCDEFGHIJKL|NURYADIN MULYADI|2020-08-14 04:58:41|2021-08-14 04:58:41|T
F97AF411385E77B3|2B27|2B27||U|2001|DEPO GEDANGAN|ABCDEFGHIJKL|AMIRUDDIN|2020-08-14 04:58:41|2021-08-14 04:58:41|T
F97AF411385E77B3|2B28|2B28||U|2001|DEPO GEDANGAN|ABCDEFGHIJKL|MUHADIR|2020-08-14 04:58:41|2021-08-14 04:58:41|T
F97AF411385E77B3|2B29|2B29||U|2001|DEPO GEDANGAN|ABCDEFGHIJKL|ZULFIKRI|2020-08-14 04:58:41|2021-08-14 04:58:41|T
F97AF411385E77B3|2B30|2B30||U|2001|DEPO GEDANGAN|ABCDEFGHIJKL|NAJAMUDDIN|2020-08-14 04:58:41|2021-08-14 04:58:41|T
F97AF411385E77B3|2B31|2B31||U|2001|DEPO GEDANGAN|ABCDEFGHIJKL|MUH ILHAM|2020-08-14 04:58:41|2021-08-14 04:58:41|T
F97AF411385E77B3|2B32|2B32||U|2001|DEPO GEDANGAN|ABCDEFGHIJKL|HAMID|2020-08-14 04:58:41|2021-08-14 04:58:41|T
F97AF411385E77B3|2B33|2B33||U|2001|DEPO GEDANGAN|ABCDEFGHIJKL|ANWAR|2020-08-14 04:58:41|2021-08-14 04:58:41|T
F97AF411385E77B3|2B34|2B34||U|2001|DEPO GEDANGAN|ABCDEFGHIJKL|LILIAWATI|2020-08-14 04:58:41|2021-08-14 04:58:41|T
F97AF411385E77B3|2B35|2B35||U|2001|DEPO GEDANGAN|ABCDEFGHIJKL|SYAMSUL BACHRI|2020-08-14 04:58:41|2021-08-14 04:58:41|T
F97AF411385E77B3|2B36|2B36||U|2001|DEPO GEDANGAN|ABCDEFGHIJKL|FITRIA JUSUF|2020-08-14 04:58:41|2021-08-14 04:58:41|T
F97AF411385E77B3|2B37|2B37||U|2001|DEPO GEDANGAN|ABCDEFGHIJKL|RUSTAM|2020-08-14 04:58:41|2021-08-14 04:58:41|T
F97AF411385E77B3|2B6D|2B6D||U|2001|DEPO GEDANGAN|ABCDEFGHIJKL|ADE IRVAN SUNARYO (T|2020-08-14 04:58:41|2021-08-14 04:58:41|T
F97AF411385E77B3|2B6P|2B6P||U|2001|DEPO GEDANGAN|ABCDEFGHIJKL|ADE IRVAN SUNARYO (T|2020-08-14 04:58:41|2021-08-14 04:58:41|T
F97AF411385E77B3|2B7D|2B7D||U|2001|DEPO GEDANGAN|ABCDEFGHIJKL|SULKARNAIN IDRIS (TO|2020-08-14 04:58:41|2021-08-14 04:58:41|T
F97AF411385E77B3|2B7P|2B7P||U|2001|DEPO GEDANGAN|ABCDEFGHIJKL|SULKARNAIN IDRIS (TO|2020-08-14 04:58:41|2021-08-14 04:58:41|T
F97AF411385E77B3|2C01|2C01||U|2001|DEPO GEDANGAN|ABCDEFGHIJKL|KANTOR CITEUREUP|2020-08-14 04:58:41|2021-08-14 04:58:41|T
F97AF411385E77B3|2C02|2C02||U|2001|DEPO GEDANGAN|ABCDEFGHIJKL|SANUSI CITEUREUP|2020-08-14 04:58:41|2021-08-14 04:58:41|T
F97AF411385E77B3|2C03|2C03||U|2001|DEPO GEDANGAN|ABCDEFGHIJKL|Sartimin|2020-08-14 04:58:41|2021-08-14 04:58:41|T
F97AF411385E77B3|2C04|2C04||U|2001|DEPO GEDANGAN|ABCDEFGHIJKL|Parjiyo|2020-08-14 04:58:41|2021-08-14 04:58:41|T
F97AF411385E77B3|2C05|2C05||U|2001|DEPO GEDANGAN|ABCDEFGHIJKL|Samto|2020-08-14 04:58:41|2021-08-14 04:58:41|T
F97AF411385E77B3|2C06|2C06||U|2001|DEPO GEDANGAN|ABCDEFGHIJKL|Widodo|2020-08-14 04:58:41|2021-08-14 04:58:41|T
F97AF411385E77B3|2C07|2C07||U|2001|DEPO GEDANGAN|ABCDEFGHIJKL|Ujang |2020-08-14 04:58:41|2021-08-14 04:58:41|T
F97AF411385E77B3|2C08|2C08||U|2001|DEPO GEDANGAN|ABCDEFGHIJKL|Panggih|2020-08-14 04:58:41|2021-08-14 04:58:41|T
F97AF411385E77B3|2C09|2C09||U|2001|DEPO GEDANGAN|ABCDEFGHIJKL|Sony|2020-08-14 04:58:41|2021-08-14 04:58:41|T
F97AF411385E77B3|2C10|2C10||U|2001|DEPO GEDANGAN|ABCDEFGHIJKL|Imron|2020-08-14 04:58:41|2021-08-14 04:58:41|T
F97AF411385E77B3|2C11|2C11||U|2001|DEPO GEDANGAN|ABCDEFGHIJKL|Fathur|2020-08-14 04:58:41|2021-08-14 04:58:41|T
F97AF411385E77B3|2C12|2C12||U|2001|DEPO GEDANGAN|ABCDEFGHIJKL|Suprapto|2020-08-14 04:58:41|2021-08-14 04:58:41|T
F97AF411385E77B3|2C13|2C13||U|2001|DEPO GEDANGAN|ABCDEFGHIJKL|Tajudin|2020-08-14 04:58:41|2021-08-14 04:58:41|T
F97AF411385E77B3|2C14|2C14||U|2001|DEPO GEDANGAN|ABCDEFGHIJKL|Yadi|2020-08-14 04:58:41|2021-08-14 04:58:41|T
F97AF411385E77B3|2C15|2C15||U|2001|DEPO GEDANGAN|ABCDEFGHIJKL|Enoh |2020-08-14 04:58:41|2021-08-14 04:58:41|T
F97AF411385E77B3|2C16|2C16||U|2001|DEPO GEDANGAN|ABCDEFGHIJKL|Nino|2020-08-14 04:58:41|2021-08-14 04:58:41|T
F97AF411385E77B3|2C17|2C17||U|2001|DEPO GEDANGAN|ABCDEFGHIJKL|Deni. A|2020-08-14 04:58:41|2021-08-14 04:58:41|T
F97AF411385E77B3|2C18|2C18||U|2001|DEPO GEDANGAN|ABCDEFGHIJKL|Deni.B|2020-08-14 04:58:41|2021-08-14 04:58:41|T
F97AF411385E77B3|2C19|2C19||U|2001|DEPO GEDANGAN|ABCDEFGHIJKL|IWAN|2020-08-14 04:58:41|2021-08-14 04:58:41|T
F97AF411385E77B3|2C20|2C20||U|2001|DEPO GEDANGAN|ABCDEFGHIJKL|DAVID|2020-08-14 04:58:41|2021-08-14 04:58:41|T
F97AF411385E77B3|2C21|2C21||U|2001|DEPO GEDANGAN|ABCDEFGHIJKL|RIDWAN|2020-08-14 04:58:41|2021-08-14 04:58:41|T
F97AF411385E77B3|2C22|2C22||U|2001|DEPO GEDANGAN|ABCDEFGHIJKL|ASMAN|2020-08-14 04:58:41|2021-08-14 04:58:41|T
F97AF411385E77B3|2C23|2C23||U|2001|DEPO GEDANGAN|ABCDEFGHIJKL|RAHMAT|2020-08-14 04:58:41|2021-08-14 04:58:41|T
F97AF411385E77B3|2C24|2C24||U|2001|DEPO GEDANGAN|ABCDEFGHIJKL|SENDI|2020-08-14 04:58:41|2021-08-14 04:58:41|T
F97AF411385E77B3|2C25|2C25||U|2001|DEPO GEDANGAN|ABCDEFGHIJKL|ENDANG|2020-08-14 04:58:41|2021-08-14 04:58:41|T
F97AF411385E77B3|2C26|2C26||U|2001|DEPO GEDANGAN|ABCDEFGHIJKL|KURDI|2020-08-14 04:58:41|2021-08-14 04:58:41|T
F97AF411385E77B3|2C27|2C27||U|2001|DEPO GEDANGAN|ABCDEFGHIJKL|PIDIN|2020-08-14 04:58:41|2021-08-14 04:58:41|T
F97AF411385E77B3|2C28|2C28||U|2001|DEPO GEDANGAN|ABCDEFGHIJKL|SUDRAJAT|2020-08-14 04:58:41|2021-08-14 04:58:41|T
F97AF411385E77B3|2C29|2C29||U|2001|DEPO GEDANGAN|ABCDEFGHIJKL|SANIN|2020-08-14 04:58:41|2021-08-14 04:58:41|T
F97AF411385E77B3|2C30|2C30||U|2001|DEPO GEDANGAN|ABCDEFGHIJKL|HERU|2020-08-14 04:58:41|2021-08-14 04:58:41|T
F97AF411385E77B3|2C31|2C31||U|2001|DEPO GEDANGAN|ABCDEFGHIJKL|SUMANTRI|2020-08-14 04:58:41|2021-08-14 04:58:41|T
F97AF411385E77B3|2C32|2C32||U|2001|DEPO GEDANGAN|ABCDEFGHIJKL|SUKARIADI|2020-08-14 04:58:41|2021-08-14 04:58:41|T
F97AF411385E77B3|2C33|2C33||U|2001|DEPO GEDANGAN|ABCDEFGHIJKL|YUDHA|2020-08-14 04:58:41|2021-08-14 04:58:41|T
F97AF411385E77B3|2C34|2C34||U|2001|DEPO GEDANGAN|ABCDEFGHIJKL|BUDI|2020-08-14 04:58:41|2021-08-14 04:58:41|T
F97AF411385E77B3|2C35|2C35||U|2001|DEPO GEDANGAN|ABCDEFGHIJKL|SAEFRUDIN|2020-08-14 04:58:41|2021-08-14 04:58:41|T
F97AF411385E77B3|2C36|2C36||U|2001|DEPO GEDANGAN|ABCDEFGHIJKL|IAN|2020-08-14 04:58:41|2021-08-14 04:58:41|T
F97AF411385E77B3|2C37|2C37||U|2001|DEPO GEDANGAN|ABCDEFGHIJKL|R.Sati|2020-08-14 04:58:41|2021-08-14 04:58:41|T
F97AF411385E77B3|2C38|2C38||U|2001|DEPO GEDANGAN|ABCDEFGHIJKL|DADAN|2020-08-14 04:58:41|2021-08-14 04:58:41|T
F97AF411385E77B3|2C39|2C39||U|2001|DEPO GEDANGAN|ABCDEFGHIJKL|DASEP|2020-08-14 04:58:41|2021-08-14 04:58:41|T
F97AF411385E77B3|2C40|2C40||U|2001|DEPO GEDANGAN|ABCDEFGHIJKL|DEDEN|2020-08-14 04:58:41|2021-08-14 04:58:41|T
F97AF411385E77B3|2C41|2C41||U|2001|DEPO GEDANGAN|ABCDEFGHIJKL|HENDAR|2020-08-14 04:58:41|2021-08-14 04:58:41|T
F97AF411385E77B3|2C42|2C42||U|2001|DEPO GEDANGAN|ABCDEFGHIJKL|DINA|2020-08-14 04:58:41|2021-08-14 04:58:41|T
F97AF411385E77B3|2C43|2C43||U|2001|DEPO GEDANGAN|ABCDEFGHIJKL|ANGEL|2020-08-14 04:58:41|2021-08-14 04:58:41|T
F97AF411385E77B3|2C44|2C44||U|2001|DEPO GEDANGAN|ABCDEFGHIJKL|BUDI|2020-08-14 04:58:41|2021-08-14 04:58:41|T
F97AF411385E77B3|2C45|2C45||U|2001|DEPO GEDANGAN|ABCDEFGHIJKL|Sandra|2020-08-14 04:58:41|2021-08-14 04:58:41|T
F97AF411385E77B3|2C46|2C46||U|2001|DEPO GEDANGAN|ABCDEFGHIJKL|DIDIK|2020-08-14 04:58:41|2021-08-14 04:58:41|T
F97AF411385E77B3|2C47|2C47||U|2001|DEPO GEDANGAN|ABCDEFGHIJKL|HARDIN|2020-08-14 04:58:41|2021-08-14 04:58:41|T
F97AF411385E77B3|2C48|2C48||U|2001|DEPO GEDANGAN|ABCDEFGHIJKL|PEPEN|2020-08-14 04:58:41|2021-08-14 04:58:41|T
F97AF411385E77B3|2C49|2C49||U|2001|DEPO GEDANGAN|ABCDEFGHIJKL|ADEN|2020-08-14 04:58:41|2021-08-14 04:58:41|T
F97AF411385E77B3|2C50|2C50||U|2001|DEPO GEDANGAN|ABCDEFGHIJKL|HARYADI|2020-08-14 04:58:41|2021-08-14 04:58:41|T
F97AF411385E77B3|2C51|2C51||U|2001|DEPO GEDANGAN|ABCDEFGHIJKL|NANDA|2020-08-14 04:58:41|2021-08-14 04:58:41|T
F97AF411385E77B3|2C52|2C52||U|2001|DEPO GEDANGAN|ABCDEFGHIJKL|YAMIN|2020-08-14 04:58:41|2021-08-14 04:58:41|T
F97AF411385E77B3|2C53|2C53||U|2001|DEPO GEDANGAN|ABCDEFGHIJKL|ENTIS|2020-08-14 04:58:41|2021-08-14 04:58:41|T
F97AF411385E77B3|2C54|2C54||U|2001|DEPO GEDANGAN|ABCDEFGHIJKL|EDI|2020-08-14 04:58:41|2021-08-14 04:58:41|T
F97AF411385E77B3|2C55|2C55||U|2001|DEPO GEDANGAN|ABCDEFGHIJKL|IYUS|2020-08-14 04:58:41|2021-08-14 04:58:41|T
F97AF411385E77B3|2C56|2C56||U|2001|DEPO GEDANGAN|ABCDEFGHIJKL|KUNCORO|2020-08-14 04:58:41|2021-08-14 04:58:41|T
F97AF411385E77B3|2C57|2C57||U|2001|DEPO GEDANGAN|ABCDEFGHIJKL|IWAN KUSWANTO|2020-08-14 04:58:41|2021-08-14 04:58:41|T
F97AF411385E77B3|2C58|2C58||U|2001|DEPO GEDANGAN|ABCDEFGHIJKL|D SUDRAJAT|2020-08-14 04:58:41|2021-08-14 04:58:41|T
F97AF411385E77B3|2C59|2C59||U|2001|DEPO GEDANGAN|ABCDEFGHIJKL|ALIFUDIN|2020-08-14 04:58:41|2021-08-14 04:58:41|T
F97AF411385E77B3|2C60|2C60||U|2001|DEPO GEDANGAN|ABCDEFGHIJKL|ADJIE S|2020-08-14 04:58:41|2021-08-14 04:58:41|T
F97AF411385E77B3|2C61|2C61||U|2001|DEPO GEDANGAN|ABCDEFGHIJKL|UKAR|2020-08-14 04:58:41|2021-08-14 04:58:41|T
F97AF411385E77B3|2C62|2C62||U|2001|DEPO GEDANGAN|ABCDEFGHIJKL|ACIM|2020-08-14 04:58:41|2021-08-14 04:58:41|T
F97AF411385E77B3|2C63|2C63||U|2001|DEPO GEDANGAN|ABCDEFGHIJKL|DOVI|2020-08-14 04:58:41|2021-08-14 04:58:41|T
F97AF411385E77B3|2C64|2C64||U|2001|DEPO GEDANGAN|ABCDEFGHIJKL|SAPTORI|2020-08-14 04:58:41|2021-08-14 04:58:41|T
F97AF411385E77B3|2C65|2C65||U|2001|DEPO GEDANGAN|ABCDEFGHIJKL|HAMID HIDAYAT|2020-08-14 04:58:41|2021-08-14 04:58:41|T
F97AF411385E77B3|2C66|2C66||U|2001|DEPO GEDANGAN|ABCDEFGHIJKL|SARMUJI|2020-08-14 04:58:41|2021-08-14 04:58:41|T
F97AF411385E77B3|2C67|2C67||U|2001|DEPO GEDANGAN|ABCDEFGHIJKL|AGUS PAMUNGKAS|2020-08-14 04:58:41|2021-08-14 04:58:41|T
F97AF411385E77B3|2C68|2C68||U|2001|DEPO GEDANGAN|ABCDEFGHIJKL|IMAM|2020-08-14 04:58:41|2021-08-14 04:58:41|T
F97AF411385E77B3|2C69|2C69||U|2001|DEPO GEDANGAN|ABCDEFGHIJKL|NURKHOLIS|2020-08-14 04:58:41|2021-08-14 04:58:41|T
F97AF411385E77B3|2C70|2C70||U|2001|DEPO GEDANGAN|ABCDEFGHIJKL|ARI|2020-08-14 04:58:41|2021-08-14 04:58:41|T
F97AF411385E77B3|2C71|2C71||U|2001|DEPO GEDANGAN|ABCDEFGHIJKL|DENI C|2020-08-14 04:58:41|2021-08-14 04:58:41|T
F97AF411385E77B3|2C72|2C72||U|2001|DEPO GEDANGAN|ABCDEFGHIJKL|SOBIRIN|2020-08-14 04:58:41|2021-08-14 04:58:41|T
F97AF411385E77B3|2C73|2C73||U|2001|DEPO GEDANGAN|ABCDEFGHIJKL|SUHENDRA|2020-08-14 04:58:41|2021-08-14 04:58:41|T
F97AF411385E77B3|2C74|2C74||U|2001|DEPO GEDANGAN|ABCDEFGHIJKL|TOHIRIN|2020-08-14 04:58:41|2021-08-14 04:58:41|T
F97AF411385E77B3|2C75|2C75||U|2001|DEPO GEDANGAN|ABCDEFGHIJKL|WAHYU NUGROHO|2020-08-14 04:58:41|2021-08-14 04:58:41|T
F97AF411385E77B3|2C76|2C76||U|2001|DEPO GEDANGAN|ABCDEFGHIJKL|MINTARYA|2020-08-14 04:58:41|2021-08-14 04:58:41|T
F97AF411385E77B3|2C77|2C77||U|2001|DEPO GEDANGAN|ABCDEFGHIJKL|ANDI|2020-08-14 04:58:41|2021-08-14 04:58:41|T
F97AF411385E77B3|2C78|2C78||U|2001|DEPO GEDANGAN|ABCDEFGHIJKL|RAJAMUDA|2020-08-14 04:58:41|2021-08-14 04:58:41|T
F97AF411385E77B3|2C79|2C79||U|2001|DEPO GEDANGAN|ABCDEFGHIJKL|DIDIT|2020-08-14 04:58:41|2021-08-14 04:58:41|T
F97AF411385E77B3|2C80|2C80||U|2001|DEPO GEDANGAN|ABCDEFGHIJKL|DIDIT BP|2020-08-14 04:58:41|2021-08-14 04:58:41|T
F97AF411385E77B3|2C81|2C81||U|2001|DEPO GEDANGAN|ABCDEFGHIJKL|BUDI DIAN|2020-08-14 04:58:41|2021-08-14 04:58:41|T
F97AF411385E77B3|2C82|2C82||U|2001|DEPO GEDANGAN|ABCDEFGHIJKL|TENI|2020-08-14 04:58:41|2021-08-14 04:58:41|T
F97AF411385E77B3|2C83|2C83||U|2001|DEPO GEDANGAN|ABCDEFGHIJKL|ADI SUNARDI|2020-08-14 04:58:41|2021-08-14 04:58:41|T
F97AF411385E77B3|2C84|2C84||U|2001|DEPO GEDANGAN|ABCDEFGHIJKL|ZIGAR|2020-08-14 04:58:41|2021-08-14 04:58:41|T
F97AF411385E77B3|2C85|2C85||U|2001|DEPO GEDANGAN|ABCDEFGHIJKL|HERI B|2020-08-14 04:58:41|2021-08-14 04:58:41|T
F97AF411385E77B3|2C86|2C86||U|2001|DEPO GEDANGAN|ABCDEFGHIJKL|HAMDANI|2020-08-14 04:58:41|2021-08-14 04:58:41|T
F97AF411385E77B3|2C87|2C87||U|2001|DEPO GEDANGAN|ABCDEFGHIJKL|ALI YUSUF|2020-08-14 04:58:41|2021-08-14 04:58:41|T
F97AF411385E77B3|2C88|2C88||U|2001|DEPO GEDANGAN|ABCDEFGHIJKL|AHMAD CTR|2020-08-14 04:58:41|2021-08-14 04:58:41|T
F97AF411385E77B3|2C89|2C89||U|2001|DEPO GEDANGAN|ABCDEFGHIJKL|HERMAN CTR|2020-08-14 04:58:41|2021-08-14 04:58:41|T
F97AF411385E77B3|2C90|2C90||U|2001|DEPO GEDANGAN|ABCDEFGHIJKL|HERI RUDHIONO|2020-08-14 04:58:41|2021-08-14 04:58:41|T
F97AF411385E77B3|2C91|2C91||U|2001|DEPO GEDANGAN|ABCDEFGHIJKL|ASEP SUDARAJAT|2020-08-14 04:58:41|2021-08-14 04:58:41|T
F97AF411385E77B3|2C92|2C92||U|2001|DEPO GEDANGAN|ABCDEFGHIJKL|ARDIANTO|2020-08-14 04:58:41|2021-08-14 04:58:41|T
F97AF411385E77B3|2C93|2C93||U|2001|DEPO GEDANGAN|ABCDEFGHIJKL|SYAHRIAL|2020-08-14 04:58:41|2021-08-14 04:58:41|T
F97AF411385E77B3|2C94|2C94||U|2001|DEPO GEDANGAN|ABCDEFGHIJKL|RONALD|2020-08-14 04:58:41|2021-08-14 04:58:41|T
F97AF411385E77B3|2C95|2C95||U|2001|DEPO GEDANGAN|ABCDEFGHIJKL|ALI SAID|2020-08-14 04:58:41|2021-08-14 04:58:41|T
F97AF411385E77B3|2C96|2C96||U|2001|DEPO GEDANGAN|ABCDEFGHIJKL|JACKSON|2020-08-14 04:58:41|2021-08-14 04:58:41|T
F97AF411385E77B3|2C97|2C97||U|2001|DEPO GEDANGAN|ABCDEFGHIJKL|DAYAT|2020-08-14 04:58:41|2021-08-14 04:58:41|T
F97AF411385E77B3|2C98|2C98||U|2001|DEPO GEDANGAN|ABCDEFGHIJKL|MISWANTO|2020-08-14 04:58:41|2021-08-14 04:58:41|T
F97AF411385E77B3|2C99|2C99||U|2001|DEPO GEDANGAN|ABCDEFGHIJKL|ANWAR ABDULLAH|2020-08-14 04:58:41|2021-08-14 04:58:41|T
F97AF411385E77B3|2CA1|2CA1||U|2001|DEPO GEDANGAN|ABCDEFGHIJKL|IBRAHIM|2020-08-14 04:58:41|2021-08-14 04:58:41|T
F97AF411385E77B3|2CA2|2CA2||U|2001|DEPO GEDANGAN|ABCDEFGHIJKL|TATANG SUHENDRA|2020-08-14 04:58:41|2021-08-14 04:58:41|T
F97AF411385E77B3|2CA3|2CA3||U|2001|DEPO GEDANGAN|ABCDEFGHIJKL|NOVIANTO|2020-08-14 04:58:41|2021-08-14 04:58:41|T
F97AF411385E77B3|2CA4|2CA4||U|2001|DEPO GEDANGAN|ABCDEFGHIJKL|ENTANG|2020-08-14 04:58:41|2021-08-14 04:58:41|T
F97AF411385E77B3|2CA5|2CA5||U|2001|DEPO GEDANGAN|ABCDEFGHIJKL|ARIS KURNIAWAN|2020-08-14 04:58:41|2021-08-14 04:58:41|T
F97AF411385E77B3|2CA6|2CA6||U|2001|DEPO GEDANGAN|ABCDEFGHIJKL|MASAN|2020-08-14 04:58:41|2021-08-14 04:58:41|T
F97AF411385E77B3|2CA7|2CA7||U|2001|DEPO GEDANGAN|ABCDEFGHIJKL|MINAN|2020-08-14 04:58:41|2021-08-14 04:58:41|T
F97AF411385E77B3|2CA8|2CA8||U|2001|DEPO GEDANGAN|ABCDEFGHIJKL|ASEP SP|2020-08-14 04:58:41|2021-08-14 04:58:41|T
F97AF411385E77B3|2CA9|2CA9||U|2001|DEPO GEDANGAN|ABCDEFGHIJKL|SANTOSO|2020-08-14 04:58:41|2021-08-14 04:58:41|T
F97AF411385E77B3|2CB1|2CB1||U|2001|DEPO GEDANGAN|ABCDEFGHIJKL|WAGIONO|2020-08-14 04:58:41|2021-08-14 04:58:41|T
F97AF411385E77B3|2CB2|2CB2||U|2001|DEPO GEDANGAN|ABCDEFGHIJKL|RUDY HARSONO|2020-08-14 04:58:41|2021-08-14 04:58:41|T
F97AF411385E77B3|2CB3|2CB3||U|2001|DEPO GEDANGAN|ABCDEFGHIJKL|IBRAHIM RH|2020-08-14 04:58:41|2021-08-14 04:58:41|T
F97AF411385E77B3|2CB4|2CB4||U|2001|DEPO GEDANGAN|ABCDEFGHIJKL|UJANG ACANG|2020-08-14 04:58:41|2021-08-14 04:58:41|T
F97AF411385E77B3|2CB5|2CB5||U|2001|DEPO GEDANGAN|ABCDEFGHIJKL|BARKAH BD|2020-08-14 04:58:41|2021-08-14 04:58:41|T
F97AF411385E77B3|2CB6|2CB6||U|2001|DEPO GEDANGAN|ABCDEFGHIJKL|KRISTIAWAN|2020-08-14 04:58:41|2021-08-14 04:58:41|T
F97AF411385E77B3|2D01|2D01||U|2001|DEPO GEDANGAN|ABCDEFGHIJKL|HERMAN|2020-08-14 04:58:41|2021-08-14 04:58:41|T
F97AF411385E77B3|2D02|2D02||U|2001|DEPO GEDANGAN|ABCDEFGHIJKL|DADANG|2020-08-14 04:58:41|2021-08-14 04:58:41|T
F97AF411385E77B3|2D03|2D03||U|2001|DEPO GEDANGAN|ABCDEFGHIJKL|ASEP|2020-08-14 04:58:41|2021-08-14 04:58:41|T
F97AF411385E77B3|2D04|2D04||U|2001|DEPO GEDANGAN|ABCDEFGHIJKL|AWAL TURYONO|2020-08-14 04:58:41|2021-08-14 04:58:41|T
F97AF411385E77B3|2D05|2D05||U|2001|DEPO GEDANGAN|ABCDEFGHIJKL|BUDIONO|2020-08-14 04:58:41|2021-08-14 04:58:41|T
F97AF411385E77B3|2D06|2D06||U|2001|DEPO GEDANGAN|ABCDEFGHIJKL|DODI HIMAWAN|2020-08-14 04:58:41|2021-08-14 04:58:41|T
F97AF411385E77B3|2D07|2D07||U|2001|DEPO GEDANGAN|ABCDEFGHIJKL|IRNANSYAH|2020-08-14 04:58:41|2021-08-14 04:58:41|T
F97AF411385E77B3|2D08|2D08||U|2001|DEPO GEDANGAN|ABCDEFGHIJKL|ROHMAN|2020-08-14 04:58:41|2021-08-14 04:58:41|T
F97AF411385E77B3|2D09|2D09||U|2001|DEPO GEDANGAN|ABCDEFGHIJKL|IDJAJI|2020-08-14 04:58:41|2021-08-14 04:58:41|T
F97AF411385E77B3|2D10|2D10||U|2001|DEPO GEDANGAN|ABCDEFGHIJKL|HERMANSYAH|2020-08-14 04:58:41|2021-08-14 04:58:41|T
F97AF411385E77B3|2D11|2D11||U|2001|DEPO GEDANGAN|ABCDEFGHIJKL|JAWAHIR|2020-08-14 04:58:41|2021-08-14 04:58:41|T
F97AF411385E77B3|2D12|2D12||U|2001|DEPO GEDANGAN|ABCDEFGHIJKL|MURTADO|2020-08-14 04:58:41|2021-08-14 04:58:41|T
F97AF411385E77B3|2D13|2D13||U|2001|DEPO GEDANGAN|ABCDEFGHIJKL|SAHIRIN|2020-08-14 04:58:41|2021-08-14 04:58:41|T
F97AF411385E77B3|2D14|2D14||U|2001|DEPO GEDANGAN|ABCDEFGHIJKL|EDI PUJIANTO|2020-08-14 04:58:41|2021-08-14 04:58:41|T
F97AF411385E77B3|2D15|2D15||U|2001|DEPO GEDANGAN|ABCDEFGHIJKL|ENDI SUHENDI|2020-08-14 04:58:41|2021-08-14 04:58:41|T
F97AF411385E77B3|2D16|2D16||U|2001|DEPO GEDANGAN|ABCDEFGHIJKL|THOMAS|2020-08-14 04:58:41|2021-08-14 04:58:41|T
F97AF411385E77B3|2D17|2D17||U|2001|DEPO GEDANGAN|ABCDEFGHIJKL|BAKRI|2020-08-14 04:58:41|2021-08-14 04:58:41|T
F97AF411385E77B3|2D18|2D18||U|2001|DEPO GEDANGAN|ABCDEFGHIJKL|ARIS KURNIAWAN|2020-08-14 04:58:41|2021-08-14 04:58:41|T
F97AF411385E77B3|2D19|2D19||U|2001|DEPO GEDANGAN|ABCDEFGHIJKL|NURDIN B|2020-08-14 04:58:41|2021-08-14 04:58:41|T
F97AF411385E77B3|2D20|2D20||U|2001|DEPO GEDANGAN|ABCDEFGHIJKL|MUKTAR UKAY|2020-08-14 04:58:41|2021-08-14 04:58:41|T
F97AF411385E77B3|2D21|2D21||U|2001|DEPO GEDANGAN|ABCDEFGHIJKL|SUHARYADI|2020-08-14 04:58:41|2021-08-14 04:58:41|T
F97AF411385E77B3|2D22|2D22||U|2001|DEPO GEDANGAN|ABCDEFGHIJKL|SANTOSO|2020-08-14 04:58:41|2021-08-14 04:58:41|T
F97AF411385E77B3|2D23|2D23||U|2001|DEPO GEDANGAN|ABCDEFGHIJKL|RUDY HARSONO|2020-08-14 04:58:41|2021-08-14 04:58:41|T
F97AF411385E77B3|2D24|2D24||U|2001|DEPO GEDANGAN|ABCDEFGHIJKL|UJANG KARDI|2020-08-14 04:58:41|2021-08-14 04:58:41|T
F97AF411385E77B3|2D25|2D25||U|2001|DEPO GEDANGAN|ABCDEFGHIJKL|MUHAMMAD|2020-08-14 04:58:41|2021-08-14 04:58:41|T
F97AF411385E77B3|2D26|2D26||U|2001|DEPO GEDANGAN|ABCDEFGHIJKL|FRANKY|2020-08-14 04:58:41|2021-08-14 04:58:41|T
F97AF411385E77B3|2D27|2D27||U|2001|DEPO GEDANGAN|ABCDEFGHIJKL|SUHARTONO|2020-08-14 04:58:41|2021-08-14 04:58:41|T
F97AF411385E77B3|2D28|2D28||U|2001|DEPO GEDANGAN|ABCDEFGHIJKL|RIANI|2020-08-14 04:58:41|2021-08-14 04:58:41|T
F97AF411385E77B3|2D29|2D29||U|2001|DEPO GEDANGAN|ABCDEFGHIJKL|SUNOYO|2020-08-14 04:58:41|2021-08-14 04:58:41|T
F97AF411385E77B3|2D30|2D30||U|2001|DEPO GEDANGAN|ABCDEFGHIJKL|DAYAT|2020-08-14 04:58:41|2021-08-14 04:58:41|T
F97AF411385E77B3|2D31|2D31||U|2001|DEPO GEDANGAN|ABCDEFGHIJKL|MUDIN|2020-08-14 04:58:41|2021-08-14 04:58:41|T
F97AF411385E77B3|2D32|2D32||U|2001|DEPO GEDANGAN|ABCDEFGHIJKL|WINDARDI|2020-08-14 04:58:41|2021-08-14 04:58:41|T
F97AF411385E77B3|2D33|2D33||U|2001|DEPO GEDANGAN|ABCDEFGHIJKL|RUSLAN|2020-08-14 04:58:41|2021-08-14 04:58:41|T
F97AF411385E77B3|2D34|2D34||U|2001|DEPO GEDANGAN|ABCDEFGHIJKL|ENTIK|2020-08-14 04:58:41|2021-08-14 04:58:41|T
F97AF411385E77B3|2D35|2D35||U|2001|DEPO GEDANGAN|ABCDEFGHIJKL|WIBIYANTO|2020-08-14 04:58:41|2021-08-14 04:58:41|T
F97AF411385E77B3|2D36|2D36||U|2001|DEPO GEDANGAN|ABCDEFGHIJKL|KWADIYONO|2020-08-14 04:58:41|2021-08-14 04:58:41|T
F97AF411385E77B3|2D37|2D37||U|2001|DEPO GEDANGAN|ABCDEFGHIJKL|GATOT|2020-08-14 04:58:41|2021-08-14 04:58:41|T
F97AF411385E77B3|2E01|2E01||U|2001|DEPO GEDANGAN|ABCDEFGHIJKL|KANTOR DEPO BANDUNG|2020-08-14 04:58:41|2021-08-14 04:58:41|T
F97AF411385E77B3|2E02|2E02||U|2001|DEPO GEDANGAN|ABCDEFGHIJKL|HERMAN|2020-08-14 04:58:41|2021-08-14 04:58:41|T
F97AF411385E77B3|2E03|2E03||U|2001|DEPO GEDANGAN|ABCDEFGHIJKL|DADANG|2020-08-14 04:58:41|2021-08-14 04:58:41|T
F97AF411385E77B3|2E04|2E04||U|2001|DEPO GEDANGAN|ABCDEFGHIJKL|ASEP|2020-08-14 04:58:41|2021-08-14 04:58:41|T
F97AF411385E77B3|2E05|2E05||U|2001|DEPO GEDANGAN|ABCDEFGHIJKL|Yayat|2020-08-14 04:58:41|2021-08-14 04:58:41|T
F97AF411385E77B3|2E06|2E06||U|2001|DEPO GEDANGAN|ABCDEFGHIJKL|IVAN|2020-08-14 04:58:41|2021-08-14 04:58:41|T
F97AF411385E77B3|2E07|2E07||U|2001|DEPO GEDANGAN|ABCDEFGHIJKL|GARNIDA|2020-08-14 04:58:41|2021-08-14 04:58:41|T
F97AF411385E77B3|2E08|2E08||U|2001|DEPO GEDANGAN|ABCDEFGHIJKL|YUS LUKMAN|2020-08-14 04:58:41|2021-08-14 04:58:41|T
F97AF411385E77B3|2E09|2E09||U|2001|DEPO GEDANGAN|ABCDEFGHIJKL|RIDWAN|2020-08-14 04:58:41|2021-08-14 04:58:41|T
F97AF411385E77B3|2E10|2E10||U|2001|DEPO GEDANGAN|ABCDEFGHIJKL|IMAM|2020-08-14 04:58:41|2021-08-14 04:58:41|T
F97AF411385E77B3|2E11|2E11||U|2001|DEPO GEDANGAN|ABCDEFGHIJKL|FERDINAND|2020-08-14 04:58:41|2021-08-14 04:58:41|T
F97AF411385E77B3|2E12|2E12||U|2001|DEPO GEDANGAN|ABCDEFGHIJKL|SAMSUDIN|2020-08-14 04:58:41|2021-08-14 04:58:41|T
F97AF411385E77B3|2E13|2E13||U|2001|DEPO GEDANGAN|ABCDEFGHIJKL|AGUS|2020-08-14 04:58:41|2021-08-14 04:58:41|T
F97AF411385E77B3|2E14|2E14||U|2001|DEPO GEDANGAN|ABCDEFGHIJKL|Asep Purwana|2020-08-14 04:58:41|2021-08-14 04:58:41|T
F97AF411385E77B3|2E15|2E15||U|2001|DEPO GEDANGAN|ABCDEFGHIJKL|Yoga Ariska|2020-08-14 04:58:41|2021-08-14 04:58:41|T
F97AF411385E77B3|2E16|2E16||U|2001|DEPO GEDANGAN|ABCDEFGHIJKL|Ade Sandi|2020-08-14 04:58:41|2021-08-14 04:58:41|T
F97AF411385E77B3|2E17|2E17||U|2001|DEPO GEDANGAN|ABCDEFGHIJKL|Mochamad Rustandi|2020-08-14 04:58:41|2021-08-14 04:58:41|T
F97AF411385E77B3|2F01|2F01||U|2001|DEPO GEDANGAN|ABCDEFGHIJKL|AFDIL|2020-08-14 04:58:41|2021-08-14 04:58:41|T
F97AF411385E77B3|2F02|2F02||U|2001|DEPO GEDANGAN|ABCDEFGHIJKL|IRAWADI|2020-08-14 04:58:41|2021-08-14 04:58:41|T
F97AF411385E77B3|2F03|2F03||U|2001|DEPO GEDANGAN|ABCDEFGHIJKL|HENDRIK|2020-08-14 04:58:41|2021-08-14 04:58:41|T
F97AF411385E77B3|2F04|2F04||U|2001|DEPO GEDANGAN|ABCDEFGHIJKL|KANTOR MEDAN|2020-08-14 04:58:41|2021-08-14 04:58:41|T
F97AF411385E77B3|2F05|2F05||U|2001|DEPO GEDANGAN|ABCDEFGHIJKL|AHOK|2020-08-14 04:58:41|2021-08-14 04:58:41|T
F97AF411385E77B3|2F06|2F06||U|2001|DEPO GEDANGAN|ABCDEFGHIJKL|ADI PRANOTO|2020-08-14 04:58:41|2021-08-14 04:58:41|T
F97AF411385E77B3|2F07|2F07||U|2001|DEPO GEDANGAN|ABCDEFGHIJKL|HENDRA WIJAYA|2020-08-14 04:58:41|2021-08-14 04:58:41|T
F97AF411385E77B3|2F08|2F08||U|2001|DEPO GEDANGAN|ABCDEFGHIJKL|AHMAD FACHRURROJI|2020-08-14 04:58:41|2021-08-14 04:58:41|T
F97AF411385E77B3|2F09|2F09||U|2001|DEPO GEDANGAN|ABCDEFGHIJKL|KHAIRUL ANWAR|2020-08-14 04:58:41|2021-08-14 04:58:41|T
F97AF411385E77B3|2F10|2F10||U|2001|DEPO GEDANGAN|ABCDEFGHIJKL|LANDO SIREGAR|2020-08-14 04:58:41|2021-08-14 04:58:41|T
F97AF411385E77B3|2F11|2F11||U|2001|DEPO GEDANGAN|ABCDEFGHIJKL|IRWANSYAH|2020-08-14 04:58:41|2021-08-14 04:58:41|T
F97AF411385E77B3|2F12|2F12||U|2001|DEPO GEDANGAN|ABCDEFGHIJKL|RICKY IRAWAN|2020-08-14 04:58:41|2021-08-14 04:58:41|T
F97AF411385E77B3|2F13|2F13||U|2001|DEPO GEDANGAN|ABCDEFGHIJKL|MAHYARUDDIN GULO|2020-08-14 04:58:41|2021-08-14 04:58:41|T
F97AF411385E77B3|2F14|2F14||U|2001|DEPO GEDANGAN|ABCDEFGHIJKL|ILHAM HUSADA|2020-08-14 04:58:41|2021-08-14 04:58:41|T
F97AF411385E77B3|2F15|2F15||U|2001|DEPO GEDANGAN|ABCDEFGHIJKL|ABDIANSYAH|2020-08-14 04:58:41|2021-08-14 04:58:41|T
F97AF411385E77B3|2F16|2F16||U|2001|DEPO GEDANGAN|ABCDEFGHIJKL|AHMAD DENI S|2020-08-14 04:58:41|2021-08-14 04:58:41|T
F97AF411385E77B3|2F17|2F17||U|2001|DEPO GEDANGAN|ABCDEFGHIJKL|BUCHAIRI DALIMUNTHE|2020-08-14 04:58:41|2021-08-14 04:58:41|T
F97AF411385E77B3|2F18|2F18||U|2001|DEPO GEDANGAN|ABCDEFGHIJKL|HERMIN|2020-08-14 04:58:41|2021-08-14 04:58:41|T
F97AF411385E77B3|2F19|2F19||U|2001|DEPO GEDANGAN|ABCDEFGHIJKL|ABEN|2020-08-14 04:58:41|2021-08-14 04:58:41|T
F97AF411385E77B3|2F20|2F20||U|2001|DEPO GEDANGAN|ABCDEFGHIJKL|DEPO MEDAN|2020-08-14 04:58:41|2021-08-14 04:58:41|T
F97AF411385E77B3|2F21|2F21||U|2001|DEPO GEDANGAN|ABCDEFGHIJKL|LIANTO|2020-08-14 04:58:41|2021-08-14 04:58:41|T
F97AF411385E77B3|2F22|2F22||U|2001|DEPO GEDANGAN|ABCDEFGHIJKL|YOGA MUSTAFA|2020-08-14 04:58:41|2021-08-14 04:58:41|T
F97AF411385E77B3|2F23|2F23||U|2001|DEPO GEDANGAN|ABCDEFGHIJKL|TUGIRAN|2020-08-14 04:58:41|2021-08-14 04:58:41|T
F97AF411385E77B3|2F24|2F24||U|2001|DEPO GEDANGAN|ABCDEFGHIJKL|IKHWAN|2020-08-14 04:58:41|2021-08-14 04:58:41|T
F97AF411385E77B3|2F25|2F25||U|2001|DEPO GEDANGAN|ABCDEFGHIJKL|JEFRI|2020-08-14 04:58:41|2021-08-14 04:58:41|T
F97AF411385E77B3|2G01|2G01||U|2001|DEPO GEDANGAN|ABCDEFGHIJKL|KANTOR DEPO BANJARMA|2020-08-14 04:58:41|2021-08-14 04:58:41|T
F97AF411385E77B3|2G02|2G02||U|2001|DEPO GEDANGAN|ABCDEFGHIJKL|MUKHLAS             |2020-08-14 04:58:41|2021-08-14 04:58:41|T
F97AF411385E77B3|2G03|2G03||U|2001|DEPO GEDANGAN|ABCDEFGHIJKL|DEVA R.A            |2020-08-14 04:58:41|2021-08-14 04:58:41|T
F97AF411385E77B3|2G04|2G04||U|2001|DEPO GEDANGAN|ABCDEFGHIJKL|RIZA FIRMANI        |2020-08-14 04:58:41|2021-08-14 04:58:41|T
F97AF411385E77B3|2G05|2G05||U|2001|DEPO GEDANGAN|ABCDEFGHIJKL|GT. RIZA GAZALI|2020-08-14 04:58:41|2021-08-14 04:58:41|T
F97AF411385E77B3|2G06|2G06||U|2001|DEPO GEDANGAN|ABCDEFGHIJKL|HELMI DARMAWAN|2020-08-14 04:58:41|2021-08-14 04:58:41|T
F97AF411385E77B3|2G07|2G07||U|2001|DEPO GEDANGAN|ABCDEFGHIJKL|MUSRIFANI|2020-08-14 04:58:41|2021-08-14 04:58:41|T
F97AF411385E77B3|2G08|2G08||U|2001|DEPO GEDANGAN|ABCDEFGHIJKL|HELDA|2020-08-14 04:58:41|2021-08-14 04:58:41|T
F97AF411385E77B3|2G09|2G09||U|2001|DEPO GEDANGAN|ABCDEFGHIJKL|AHMAD MARTADINATA|2020-08-14 04:58:41|2021-08-14 04:58:41|T
F97AF411385E77B3|2G10|2G10||U|2001|DEPO GEDANGAN|ABCDEFGHIJKL|RYAN|2020-08-14 04:58:41|2021-08-14 04:58:41|T
F97AF411385E77B3|2G11|2G11||U|2001|DEPO GEDANGAN|ABCDEFGHIJKL|EVA|2020-08-14 04:58:41|2021-08-14 04:58:41|T
F97AF411385E77B3|2G12|2G12||U|2001|DEPO GEDANGAN|ABCDEFGHIJKL|INDRA|2020-08-14 04:58:41|2021-08-14 04:58:41|T
F97AF411385E77B3|2G13|2G13||U|2001|DEPO GEDANGAN|ABCDEFGHIJKL|MULYADI|2020-08-14 04:58:41|2021-08-14 04:58:41|T
F97AF411385E77B3|2G14|2G14||U|2001|DEPO GEDANGAN|ABCDEFGHIJKL|OYI|2020-08-14 04:58:41|2021-08-14 04:58:41|T
F97AF411385E77B3|2H01|2H01||U|2001|DEPO GEDANGAN|ABCDEFGHIJKL|KANTOR DEPO RUNGKUT|2020-08-14 04:58:41|2021-08-14 04:58:41|T
F97AF411385E77B3|2H02|2H02||U|2001|DEPO GEDANGAN|ABCDEFGHIJKL|HANDIK|2020-08-14 04:58:41|2021-08-14 04:58:41|T
F97AF411385E77B3|2H03|2H03||U|2001|DEPO GEDANGAN|ABCDEFGHIJKL|ANDIKA|2020-08-14 04:58:41|2021-08-14 04:58:41|T
F97AF411385E77B3|2H04|2H04||U|2001|DEPO GEDANGAN|ABCDEFGHIJKL|AGUS|2020-08-14 04:58:41|2021-08-14 04:58:41|T
F97AF411385E77B3|2H05|2H05||U|2001|DEPO GEDANGAN|ABCDEFGHIJKL|YUDA|2020-08-14 04:58:41|2021-08-14 04:58:41|T
F97AF411385E77B3|2H06|2H06||U|2001|DEPO GEDANGAN|ABCDEFGHIJKL|DENNY|2020-08-14 04:58:41|2021-08-14 04:58:41|T
F97AF411385E77B3|2H07|2H07||U|2001|DEPO GEDANGAN|ABCDEFGHIJKL|LUKMAN|2020-08-14 04:58:41|2021-08-14 04:58:41|T
F97AF411385E77B3|2H08|2H08||U|2001|DEPO GEDANGAN|ABCDEFGHIJKL|DELTA FORCE|2020-08-14 04:58:41|2021-08-14 04:58:41|T
F97AF411385E77B3|2H09|2H09||U|2001|DEPO GEDANGAN|ABCDEFGHIJKL|AGUNG|2020-08-14 04:58:41|2021-08-14 04:58:41|T
F97AF411385E77B3|2H10|2H10||U|2001|DEPO GEDANGAN|ABCDEFGHIJKL|AGUNG/HANDIK|2020-08-14 04:58:41|2021-08-14 04:58:41|T
F97AF411385E77B3|2H11|2H11||U|2001|DEPO GEDANGAN|ABCDEFGHIJKL|AGUNG/DENNY|2020-08-14 04:58:41|2021-08-14 04:58:41|T
F97AF411385E77B3|2H12|2H12||U|2001|DEPO GEDANGAN|ABCDEFGHIJKL|ANAM|2020-08-14 04:58:41|2021-08-14 04:58:41|T
F97AF411385E77B3|2H13|2H13||U|2001|DEPO GEDANGAN|ABCDEFGHIJKL|ANTHONY|2020-08-14 04:58:41|2021-08-14 04:58:41|T
F97AF411385E77B3|2H14|2H14||U|2001|DEPO GEDANGAN|ABCDEFGHIJKL|HARI|2020-08-14 04:58:41|2021-08-14 04:58:41|T
F97AF411385E77B3|2H15|2H15||U|2001|DEPO GEDANGAN|ABCDEFGHIJKL|PURNOMO|2020-08-14 04:58:41|2021-08-14 04:58:41|T
F97AF411385E77B3|2H16|2H16||U|2001|DEPO GEDANGAN|ABCDEFGHIJKL|SIMAN|2020-08-14 04:58:41|2021-08-14 04:58:41|T
F97AF411385E77B3|2H17|2H17||U|2001|DEPO GEDANGAN|ABCDEFGHIJKL|YULIUS|2020-08-14 04:58:41|2021-08-14 04:58:41|T
F97AF411385E77B3|2H18|2H18||U|2001|DEPO GEDANGAN|ABCDEFGHIJKL|ADIT|2020-08-14 04:58:41|2021-08-14 04:58:41|T
F97AF411385E77B3|2H19|2H19||U|2001|DEPO GEDANGAN|ABCDEFGHIJKL|ANDY NOPIANSYAH|2020-08-14 04:58:41|2021-08-14 04:58:41|T
F97AF411385E77B3|2H20|2H20||U|2001|DEPO GEDANGAN|ABCDEFGHIJKL|BACHTIAR|2020-08-14 04:58:41|2021-08-14 04:58:41|T
F97AF411385E77B3|2H21|2H21||U|2001|DEPO GEDANGAN|ABCDEFGHIJKL|AKBAR|2020-08-14 04:58:41|2021-08-14 04:58:41|T
F97AF411385E77B3|2H22|2H22||U|2001|DEPO GEDANGAN|ABCDEFGHIJKL|YUNUS|2020-08-14 04:58:41|2021-08-14 04:58:41|T
F97AF411385E77B3|2I01|2I01||U|2001|DEPO GEDANGAN|ABCDEFGHIJKL|KANTOR TEGAL|2020-08-14 04:58:41|2021-08-14 04:58:41|T
F97AF411385E77B3|2I02|2I02||U|2001|DEPO GEDANGAN|ABCDEFGHIJKL|RISWANTORO|2020-08-14 04:58:41|2021-08-14 04:58:41|T
F97AF411385E77B3|2I03|2I03||U|2001|DEPO GEDANGAN|ABCDEFGHIJKL|AGUNG|2020-08-14 04:58:41|2021-08-14 04:58:41|T
F97AF411385E77B3|2I04|2I04||U|2001|DEPO GEDANGAN|ABCDEFGHIJKL|DEBI PURNOMO|2020-08-14 04:58:41|2021-08-14 04:58:41|T
F97AF411385E77B3|2I05|2I05||U|2001|DEPO GEDANGAN|ABCDEFGHIJKL|HANDJOKO|2020-08-14 04:58:41|2021-08-14 04:58:41|T
F97AF411385E77B3|2I06|2I06||U|2001|DEPO GEDANGAN|ABCDEFGHIJKL|HERI RIYADI|2020-08-14 04:58:41|2021-08-14 04:58:41|T
F97AF411385E77B3|2I07|2I07||U|2001|DEPO GEDANGAN|ABCDEFGHIJKL|SETO HANDOKO|2020-08-14 04:58:41|2021-08-14 04:58:41|T
F97AF411385E77B3|2I08|2I08||U|2001|DEPO GEDANGAN|ABCDEFGHIJKL|M.RIPAI|2020-08-14 04:58:41|2021-08-14 04:58:41|T
F97AF411385E77B3|2J01|2J01||U|2001|DEPO GEDANGAN|ABCDEFGHIJKL|DEDY S|2020-08-14 04:58:41|2021-08-14 04:58:41|T
F97AF411385E77B3|2J02|2J02||U|2001|DEPO GEDANGAN|ABCDEFGHIJKL|KANTOR|2020-08-14 04:58:41|2021-08-14 04:58:41|T
F97AF411385E77B3|2J03|2J03||U|2001|DEPO GEDANGAN|ABCDEFGHIJKL|EKO PURWITO|2020-08-14 04:58:41|2021-08-14 04:58:41|T
F97AF411385E77B3|2J04|2J04||U|2001|DEPO GEDANGAN|ABCDEFGHIJKL|TRI HARYANTO|2020-08-14 04:58:41|2021-08-14 04:58:41|T
F97AF411385E77B3|2J05|2J05||U|2001|DEPO GEDANGAN|ABCDEFGHIJKL|PUTRA EKO AGUNG|2020-08-14 04:58:41|2021-08-14 04:58:41|T
F97AF411385E77B3|2J06|2J06||U|2001|DEPO GEDANGAN|ABCDEFGHIJKL|KHOERUL ROJAB|2020-08-14 04:58:41|2021-08-14 04:58:41|T
F97AF411385E77B3|2J07|2J07||U|2001|DEPO GEDANGAN|ABCDEFGHIJKL|FAJAR HIDAYAT|2020-08-14 04:58:41|2021-08-14 04:58:41|T
F97AF411385E77B3|2J08|2J08||U|2001|DEPO GEDANGAN|ABCDEFGHIJKL|TOFIK ARIYANTO|2020-08-14 04:58:41|2021-08-14 04:58:41|T
F97AF411385E77B3|2J09|2J09||U|2001|DEPO GEDANGAN|ABCDEFGHIJKL|ENDANG PURWANINGSIH|2020-08-14 04:58:41|2021-08-14 04:58:41|T
F97AF411385E77B3|2J10|2J10||U|2001|DEPO GEDANGAN|ABCDEFGHIJKL|DINO EKO HARTANTO|2020-08-14 04:58:41|2021-08-14 04:58:41|T
F97AF411385E77B3|2J11|2J11||U|2001|DEPO GEDANGAN|ABCDEFGHIJKL|IRMA SRI RAHAYU|2020-08-14 04:58:41|2021-08-14 04:58:41|T
F97AF411385E77B3|2J12|2J12||U|2001|DEPO GEDANGAN|ABCDEFGHIJKL|RUDIYANTO|2020-08-14 04:58:41|2021-08-14 04:58:41|T
F97AF411385E77B3|2J13|2J13||U|2001|DEPO GEDANGAN|ABCDEFGHIJKL|WAHYU SUSANTI|2020-08-14 04:58:41|2021-08-14 04:58:41|T
F97AF411385E77B3|2J14|2J14||U|2001|DEPO GEDANGAN|ABCDEFGHIJKL|DIYAH RETNO UTAMI|2020-08-14 04:58:41|2021-08-14 04:58:41|T
F97AF411385E77B3|2J15|2J15||U|2001|DEPO GEDANGAN|ABCDEFGHIJKL|WIKE NURSIAMI|2020-08-14 04:58:41|2021-08-14 04:58:41|T
F97AF411385E77B3|2K01|2K01||U|2001|DEPO GEDANGAN|ABCDEFGHIJKL|Budi Kurniawan|2020-08-14 04:58:41|2021-08-14 04:58:41|T
F97AF411385E77B3|2K02|2K02||U|2001|DEPO GEDANGAN|ABCDEFGHIJKL|KANTOR JOGJA|2020-08-14 04:58:41|2021-08-14 04:58:41|T
F97AF411385E77B3|2K03|2K03||U|2001|DEPO GEDANGAN|ABCDEFGHIJKL|SANUSI|2020-08-14 04:58:41|2021-08-14 04:58:41|T
F97AF411385E77B3|2K04|2K04||U|2001|DEPO GEDANGAN|ABCDEFGHIJKL|RUDI|2020-08-14 04:58:41|2021-08-14 04:58:41|T
F97AF411385E77B3|2K05|2K05||U|2001|DEPO GEDANGAN|ABCDEFGHIJKL|SOFIAN|2020-08-14 04:58:41|2021-08-14 04:58:41|T
F97AF411385E77B3|2K06|2K06||U|2001|DEPO GEDANGAN|ABCDEFGHIJKL|ARIFIN|2020-08-14 04:58:41|2021-08-14 04:58:41|T
F97AF411385E77B3|2L01|2L01||U|2001|DEPO GEDANGAN|ABCDEFGHIJKL|KANTOR DENPASAR|2020-08-14 04:58:41|2021-08-14 04:58:41|T
F97AF411385E77B3|2L02|2L02||U|2001|DEPO GEDANGAN|ABCDEFGHIJKL|I MADE EKA LANTARA|2020-08-14 04:58:41|2021-08-14 04:58:41|T
F97AF411385E77B3|2L03|2L03||U|2001|DEPO GEDANGAN|ABCDEFGHIJKL|I MADE ARIANA|2020-08-14 04:58:41|2021-08-14 04:58:41|T
F97AF411385E77B3|2L04|2L04||U|2001|DEPO GEDANGAN|ABCDEFGHIJKL|MARIO INKIRIWANG|2020-08-14 04:58:41|2021-08-14 04:58:41|T
F97AF411385E77B3|2L05|2L05||U|2001|DEPO GEDANGAN|ABCDEFGHIJKL|AGUS ZAZ MERTA|2020-08-14 04:58:41|2021-08-14 04:58:41|T
F97AF411385E77B3|2L06|2L06||U|2001|DEPO GEDANGAN|ABCDEFGHIJKL|I KETUT SUGIANTARA|2020-08-14 04:58:41|2021-08-14 04:58:41|T
F97AF411385E77B3|2L07|2L07||U|2001|DEPO GEDANGAN|ABCDEFGHIJKL||2020-08-14 04:58:41|2021-08-14 04:58:41|T
F97AF411385E77B3|2L08|2L08||U|2001|DEPO GEDANGAN|ABCDEFGHIJKL|AGUS SASTRAWAN|2020-08-14 04:58:41|2021-08-14 04:58:41|T
F97AF411385E77B3|2L09|2L09||U|2001|DEPO GEDANGAN|ABCDEFGHIJKL|MADE PURNAWAN|2020-08-14 04:58:41|2021-08-14 04:58:41|T
F97AF411385E77B3|2L10|2L10||U|2001|DEPO GEDANGAN|ABCDEFGHIJKL|GESANG JUNI ARIF|2020-08-14 04:58:41|2021-08-14 04:58:41|T
F97AF411385E77B3|2L11|2L11||U|2001|DEPO GEDANGAN|ABCDEFGHIJKL|DOMINGGUS|2020-08-14 04:58:41|2021-08-14 04:58:41|T
F97AF411385E77B3|2L12|2L12||U|2001|DEPO GEDANGAN|ABCDEFGHIJKL|SUTRISNO|2020-08-14 04:58:41|2021-08-14 04:58:41|T
F97AF411385E77B3|2L13|2L13||U|2001|DEPO GEDANGAN|ABCDEFGHIJKL|DWI RAHARIYOKO|2020-08-14 04:58:41|2021-08-14 04:58:41|T
F97AF411385E77B3|2L14|2L14||U|2001|DEPO GEDANGAN|ABCDEFGHIJKL|AGUNG WICAKSONO|2020-08-14 04:58:41|2021-08-14 04:58:41|T
F97AF411385E77B3|2L15|2L15||U|2001|DEPO GEDANGAN|ABCDEFGHIJKL|I MADE YUDANA|2020-08-14 04:58:41|2021-08-14 04:58:41|T
F97AF411385E77B3|2L16|2L16||U|2001|DEPO GEDANGAN|ABCDEFGHIJKL|JONATHAN HENDRA|2020-08-14 04:58:41|2021-08-14 04:58:41|T
F97AF411385E77B3|2L17|2L17||U|2001|DEPO GEDANGAN|ABCDEFGHIJKL|HANTON|2020-08-14 04:58:41|2021-08-14 04:58:41|T
F97AF411385E77B3|2M01|2M01||U|2001|DEPO GEDANGAN|ABCDEFGHIJKL|ABDUL WAHID|2020-08-14 04:58:41|2021-08-14 04:58:41|T
F97AF411385E77B3|2M02|2M02||U|2001|DEPO GEDANGAN|ABCDEFGHIJKL|KANTOR GRESIK|2020-08-14 04:58:41|2021-08-14 04:58:41|T
F97AF411385E77B3|2M03|2M03||U|2001|DEPO GEDANGAN|ABCDEFGHIJKL|KANTOR GRESIK|2020-08-14 04:58:41|2021-08-14 04:58:41|T
F97AF411385E77B3|2M04|2M04||U|2001|DEPO GEDANGAN|ABCDEFGHIJKL|MUJI (PDN)|2020-08-14 04:58:41|2021-08-14 04:58:41|T
F97AF411385E77B3|2M05|2M05||U|2001|DEPO GEDANGAN|ABCDEFGHIJKL|DWI WIRA SETIAWAN|2020-08-14 04:58:41|2021-08-14 04:58:41|T
F97AF411385E77B3|2M06|2M06||U|2001|DEPO GEDANGAN|ABCDEFGHIJKL|GALIH ARIFIANTO|2020-08-14 04:58:41|2021-08-14 04:58:41|T
F97AF411385E77B3|2M07|2M07||U|2001|DEPO GEDANGAN|ABCDEFGHIJKL|RUDIANTO|2020-08-14 04:58:41|2021-08-14 04:58:41|T
F97AF411385E77B3|2M08|2M08||U|2001|DEPO GEDANGAN|ABCDEFGHIJKL|NAKHDIMURIZAL|2020-08-14 04:58:41|2021-08-14 04:58:41|T
F97AF411385E77B3|2N01|2N01||U|2001|DEPO GEDANGAN|ABCDEFGHIJKL|SUPRIYONO|2020-08-14 04:58:41|2021-08-14 04:58:41|T
F97AF411385E77B3|2N02|2N02||U|2001|DEPO GEDANGAN|ABCDEFGHIJKL|KANTOR PANDAAN|2020-08-14 04:58:41|2021-08-14 04:58:41|T
F97AF411385E77B3|2N03|2N03||U|2001|DEPO GEDANGAN|ABCDEFGHIJKL|FEBRI|2020-08-14 04:58:41|2021-08-14 04:58:41|T
F97AF411385E77B3|2N04|2N04||U|2001|DEPO GEDANGAN|ABCDEFGHIJKL|SUWITO|2020-08-14 04:58:41|2021-08-14 04:58:41|T
F97AF411385E77B3|2N05|2N05||U|2001|DEPO GEDANGAN|ABCDEFGHIJKL|ZAINUDIN|2020-08-14 04:58:41|2021-08-14 04:58:41|T
F97AF411385E77B3|2N06|2N06||U|2001|DEPO GEDANGAN|ABCDEFGHIJKL|EFFENDI|2020-08-14 04:58:41|2021-08-14 04:58:41|T
F97AF411385E77B3|2N07|2N07||U|2001|DEPO GEDANGAN|ABCDEFGHIJKL|WUJUD|2020-08-14 04:58:41|2021-08-14 04:58:41|T
F97AF411385E77B3|2N08|2N08||U|2001|DEPO GEDANGAN|ABCDEFGHIJKL|DANANG SETYADANI|2020-08-14 04:58:41|2021-08-14 04:58:41|T
F97AF411385E77B3|2N09|2N09||U|2001|DEPO GEDANGAN|ABCDEFGHIJKL|SUPAAT|2020-08-14 04:58:41|2021-08-14 04:58:41|T
F97AF411385E77B3|2N10|2N10||U|2001|DEPO GEDANGAN|ABCDEFGHIJKL|SUPRI|2020-08-14 04:58:41|2021-08-14 04:58:41|T
F97AF411385E77B3|2N11|2N11||U|2001|DEPO GEDANGAN|ABCDEFGHIJKL|KLANA|2020-08-14 04:58:41|2021-08-14 04:58:41|T
F97AF411385E77B3|2N12|2N12||U|2001|DEPO GEDANGAN|ABCDEFGHIJKL|AHMAD DIYAR RIFQI|2020-08-14 04:58:41|2021-08-14 04:58:41|T
F97AF411385E77B3|2N13|2N13||U|2001|DEPO GEDANGAN|ABCDEFGHIJKL|NAKHDIMURIZAL|2020-08-14 04:58:41|2021-08-14 04:58:41|T
F97AF411385E77B3|2N14|2N14||U|2001|DEPO GEDANGAN|ABCDEFGHIJKL|SUROSO|2020-08-14 04:58:41|2021-08-14 04:58:41|T
F97AF411385E77B3|2N15|2N15||U|2001|DEPO GEDANGAN|ABCDEFGHIJKL|STEVEN|2020-08-14 04:58:41|2021-08-14 04:58:41|T
F97AF411385E77B3|2O01|2O01||U|2001|DEPO GEDANGAN|ABCDEFGHIJKL|KANTOR|2020-08-14 04:58:41|2021-08-14 04:58:41|T
F97AF411385E77B3|2O02|2O02||U|2001|DEPO GEDANGAN|ABCDEFGHIJKL|TROY MAIRAWAN ADIYON|2020-08-14 04:58:41|2021-08-14 04:58:41|T
F97AF411385E77B3|2O03|2O03||U|2001|DEPO GEDANGAN|ABCDEFGHIJKL|EKO LUKAS YULIANTO|2020-08-14 04:58:41|2021-08-14 04:58:41|T
F97AF411385E77B3|2O04|2O04||U|2001|DEPO GEDANGAN|ABCDEFGHIJKL|ARI|2020-08-14 04:58:41|2021-08-14 04:58:41|T
F97AF411385E77B3|2O05|2O05||U|2001|DEPO GEDANGAN|ABCDEFGHIJKL|WIDODO|2020-08-14 04:58:41|2021-08-14 04:58:41|T
F97AF411385E77B3|2O06|2O06||U|2001|DEPO GEDANGAN|ABCDEFGHIJKL|JOKO SUDARYANTO|2020-08-14 04:58:41|2021-08-14 04:58:41|T
F97AF411385E77B3|2O07|2O07||U|2001|DEPO GEDANGAN|ABCDEFGHIJKL|M. SOFIANFARIZ ADI|2020-08-14 04:58:41|2021-08-14 04:58:41|T
F97AF411385E77B3|2O08|2O08||U|2001|DEPO GEDANGAN|ABCDEFGHIJKL|DWI HARYANTO|2020-08-14 04:58:41|2021-08-14 04:58:41|T
F97AF411385E77B3|2O09|2O09||U|2001|DEPO GEDANGAN|ABCDEFGHIJKL|ZAZAN PRESTIANTORO|2020-08-14 04:58:41|2021-08-14 04:58:41|T
F97AF411385E77B3|2O10|2O10||U|2001|DEPO GEDANGAN|ABCDEFGHIJKL|ANDY GUNAWAN|2020-08-14 04:58:41|2021-08-14 04:58:41|T
F97AF411385E77B3|2O11|2O11||U|2001|DEPO GEDANGAN|ABCDEFGHIJKL|NANANG INDARTO|2020-08-14 04:58:41|2021-08-14 04:58:41|T
F97AF411385E77B3|2O12|2O12||U|2001|DEPO GEDANGAN|ABCDEFGHIJKL|WAHYUDI|2020-08-14 04:58:41|2021-08-14 04:58:41|T
F97AF411385E77B3|3001|3001||U|2001|DEPO GEDANGAN|ABCDEFGHIJKL|YONO|2020-08-14 04:58:41|2021-08-14 04:58:41|T
F97AF411385E77B3|3002|3002||U|2001|DEPO GEDANGAN|ABCDEFGHIJKL|DWI|2020-08-14 04:58:41|2021-08-14 04:58:41|T
F97AF411385E77B3|3003|3003||U|2001|DEPO GEDANGAN|ABCDEFGHIJKL|BACHTIAR|2020-08-14 04:58:41|2021-08-14 04:58:41|T
F97AF411385E77B3|3004|3004||U|2001|DEPO GEDANGAN|ABCDEFGHIJKL|KANTOR|2020-08-14 04:58:41|2021-08-14 04:58:41|T
F97AF411385E77B3|3005|3005||U|2001|DEPO GEDANGAN|ABCDEFGHIJKL|DENNY|2020-08-14 04:58:41|2021-08-14 04:58:41|T
F97AF411385E77B3|3006|3006||U|2001|DEPO GEDANGAN|ABCDEFGHIJKL|FACHRUDIN|2020-08-14 04:58:41|2021-08-14 04:58:41|T
F97AF411385E77B3|3007|3007||U|2001|DEPO GEDANGAN|ABCDEFGHIJKL|BAGUS|2020-08-14 04:58:41|2021-08-14 04:58:41|T
F97AF411385E77B3|3008|3008||U|2001|DEPO GEDANGAN|ABCDEFGHIJKL|HENDRA|2020-08-14 04:58:41|2021-08-14 04:58:41|T
F97AF411385E77B3|3009|3009||U|2001|DEPO GEDANGAN|ABCDEFGHIJKL|RAHMAN|2020-08-14 04:58:41|2021-08-14 04:58:41|T
F97AF411385E77B3|3010|3010||U|2001|DEPO GEDANGAN|ABCDEFGHIJKL|DADANG|2020-08-14 04:58:41|2021-08-14 04:58:41|T
F97AF411385E77B3|3011|3011||U|2001|DEPO GEDANGAN|ABCDEFGHIJKL|ISMAIL|2020-08-14 04:58:41|2021-08-14 04:58:41|T
F97AF411385E77B3|3101|3101||U|2001|DEPO GEDANGAN|ABCDEFGHIJKL|MOH.SAKUR|2020-08-14 04:58:41|2021-08-14 04:58:41|T
F97AF411385E77B3|3102|3102||U|2001|DEPO GEDANGAN|ABCDEFGHIJKL|MALIK|2020-08-14 04:58:41|2021-08-14 04:58:41|T
F97AF411385E77B3|3103|3103||U|2001|DEPO GEDANGAN|ABCDEFGHIJKL|ALEN|2020-08-14 04:58:41|2021-08-14 04:58:41|T
F97AF411385E77B3|3201|3201||U|2001|DEPO GEDANGAN|ABCDEFGHIJKL|KANTOR KUDUS|2020-08-14 04:58:41|2021-08-14 04:58:41|T
F97AF411385E77B3|3202|3202||U|2001|DEPO GEDANGAN|ABCDEFGHIJKL|PRIYO|2020-08-14 04:58:41|2021-08-14 04:58:41|T
F97AF411385E77B3|3203|3203||U|2001|DEPO GEDANGAN|ABCDEFGHIJKL|ARIEF RACHMAN|2020-08-14 04:58:41|2021-08-14 04:58:41|T
F97AF411385E77B3|3204|3204||U|2001|DEPO GEDANGAN|ABCDEFGHIJKL|TASLIM|2020-08-14 04:58:41|2021-08-14 04:58:41|T
F97AF411385E77B3|3205|3205||U|2001|DEPO GEDANGAN|ABCDEFGHIJKL|BUDI ARIYANTO|2020-08-14 04:58:41|2021-08-14 04:58:41|T
F97AF411385E77B3|3301|3301||U|2001|DEPO GEDANGAN|ABCDEFGHIJKL|SAUDIN|2020-08-14 04:58:41|2021-08-14 04:58:41|T
F97AF411385E77B3|3302|3302||U|2001|DEPO GEDANGAN|ABCDEFGHIJKL|FAJAR|2020-08-14 04:58:41|2021-08-14 04:58:41|T
F97AF411385E77B3|3303|3303||U|2001|DEPO GEDANGAN|ABCDEFGHIJKL|IWAN|2020-08-14 04:58:41|2021-08-14 04:58:41|T
F97AF411385E77B3|3304|3304||U|2001|DEPO GEDANGAN|ABCDEFGHIJKL|JIGAR|2020-08-14 04:58:41|2021-08-14 04:58:41|T
F97AF411385E77B3|3305|3305||U|2001|DEPO GEDANGAN|ABCDEFGHIJKL|AGUS RAHMAT|2020-08-14 04:58:41|2021-08-14 04:58:41|T
F97AF411385E77B3|3306|3306||U|2001|DEPO GEDANGAN|ABCDEFGHIJKL|DEDY KUSWANDONO|2020-08-14 04:58:41|2021-08-14 04:58:41|T
F97AF411385E77B3|3307|3307||U|2001|DEPO GEDANGAN|ABCDEFGHIJKL|DEDI SURANTO|2020-08-14 04:58:41|2021-08-14 04:58:41|T
F97AF411385E77B3|3308|3308||U|2001|DEPO GEDANGAN|ABCDEFGHIJKL|DAMIRI|2020-08-14 04:58:41|2021-08-14 04:58:41|T
F97AF411385E77B3|3309|3309||U|2001|DEPO GEDANGAN|ABCDEFGHIJKL|SOMAD|2020-08-14 04:58:41|2021-08-14 04:58:41|T
F97AF411385E77B3|3310|3310||U|2001|DEPO GEDANGAN|ABCDEFGHIJKL|RUSTONI|2020-08-14 04:58:41|2021-08-14 04:58:41|T
F97AF411385E77B3|3311|3311||U|2001|DEPO GEDANGAN|ABCDEFGHIJKL|ADE|2020-08-14 04:58:41|2021-08-14 04:58:41|T
F97AF411385E77B3|3401|3401||U|2001|DEPO GEDANGAN|ABCDEFGHIJKL|NANDI|2020-08-14 04:58:41|2021-08-14 04:58:41|T
F97AF411385E77B3|3402|3402||U|2001|DEPO GEDANGAN|ABCDEFGHIJKL|GERY|2020-08-14 04:58:41|2021-08-14 04:58:41|T
F97AF411385E77B3|3403|3403||U|2001|DEPO GEDANGAN|ABCDEFGHIJKL|MULYONO|2020-08-14 04:58:41|2021-08-14 04:58:41|T
F97AF411385E77B3|3404|3404||U|2001|DEPO GEDANGAN|ABCDEFGHIJKL|KANTOR DEPO CIREBON|2020-08-14 04:58:41|2021-08-14 04:58:41|T
F97AF411385E77B3|3405|3405||U|2001|DEPO GEDANGAN|ABCDEFGHIJKL|BUDI LEKSONO|2020-08-14 04:58:41|2021-08-14 04:58:41|T
F97AF411385E77B3|3406|3406||U|2001|DEPO GEDANGAN|ABCDEFGHIJKL|HASAN|2020-08-14 04:58:41|2021-08-14 04:58:41|T
F97AF411385E77B3|3407|3407||U|2001|DEPO GEDANGAN|ABCDEFGHIJKL|SUPARNO|2020-08-14 04:58:41|2021-08-14 04:58:41|T
F97AF411385E77B3|3408|3408||U|2001|DEPO GEDANGAN|ABCDEFGHIJKL|YAYAN|2020-08-14 04:58:41|2021-08-14 04:58:41|T
F97AF411385E77B3|3409|3409||U|2001|DEPO GEDANGAN|ABCDEFGHIJKL|SYAJI|2020-08-14 04:58:41|2021-08-14 04:58:41|T
F97AF411385E77B3|3410|3410||U|2001|DEPO GEDANGAN|ABCDEFGHIJKL|YANTO|2020-08-14 04:58:41|2021-08-14 04:58:41|T
F97AF411385E77B3|3411|3411||U|2001|DEPO GEDANGAN|ABCDEFGHIJKL|SARIP|2020-08-14 04:58:41|2021-08-14 04:58:41|T
F97AF411385E77B3|3412|3412||U|2001|DEPO GEDANGAN|ABCDEFGHIJKL|NANANG|2020-08-14 04:58:41|2021-08-14 04:58:41|T
F97AF411385E77B3|3413|3413||U|2001|DEPO GEDANGAN|ABCDEFGHIJKL|BAGUS|2020-08-14 04:58:41|2021-08-14 04:58:41|T
F97AF411385E77B3|3414|3414||U|2001|DEPO GEDANGAN|ABCDEFGHIJKL|SUBROTO|2020-08-14 04:58:41|2021-08-14 04:58:41|T
F97AF411385E77B3|3415|3415||U|2001|DEPO GEDANGAN|ABCDEFGHIJKL|SUGENG|2020-08-14 04:58:41|2021-08-14 04:58:41|T
F97AF411385E77B3|3416|3416||U|2001|DEPO GEDANGAN|ABCDEFGHIJKL|HERI|2020-08-14 04:58:41|2021-08-14 04:58:41|T
F97AF411385E77B3|3417|3417|Canvassing Cash|U|2001|DEPO GEDANGAN|ABCDEFGHIJKL|WAHYU|2020-08-14 04:58:41|2021-08-14 04:58:41|T
F97AF411385E77B3|3418|3418||U|2001|DEPO GEDANGAN|ABCDEFGHIJKL|ARIS|2020-08-14 04:58:41|2021-08-14 04:58:41|T
F97AF411385E77B3|3419|3419||U|2001|DEPO GEDANGAN|ABCDEFGHIJKL|ASEP|2020-08-14 04:58:41|2021-08-14 04:58:41|T
F97AF411385E77B3|3420|3420||U|2001|DEPO GEDANGAN|ABCDEFGHIJKL|HERYANTO|2020-08-14 04:58:41|2021-08-14 04:58:41|T
F97AF411385E77B3|3501|3501||U|2001|DEPO GEDANGAN|ABCDEFGHIJKL|KANTOR DEPO MAKASSAR|2020-08-14 04:58:41|2021-08-14 04:58:41|T
F97AF411385E77B3|3502|3502||U|2001|DEPO GEDANGAN|ABCDEFGHIJKL|ASRUL|2020-08-14 04:58:41|2021-08-14 04:58:41|T
F97AF411385E77B3|3503|3503||U|2001|DEPO GEDANGAN|ABCDEFGHIJKL|SAID|2020-08-14 04:58:41|2021-08-14 04:58:41|T
F97AF411385E77B3|3504|3504||U|2001|DEPO GEDANGAN|ABCDEFGHIJKL|AJI|2020-08-14 04:58:41|2021-08-14 04:58:41|T
F97AF411385E77B3|3505|3505||U|2001|DEPO GEDANGAN|ABCDEFGHIJKL|NURHIDAYAT|2020-08-14 04:58:41|2021-08-14 04:58:41|T
F97AF411385E77B3|3506|3506||U|2001|DEPO GEDANGAN|ABCDEFGHIJKL|YUSHAR|2020-08-14 04:58:41|2021-08-14 04:58:41|T
F97AF411385E77B3|3601|3601||U|2001|DEPO GEDANGAN|ABCDEFGHIJKL|KANTOR DEPO TASIKMAL|2020-08-14 04:58:41|2021-08-14 04:58:41|T
F97AF411385E77B3|3602|3602||U|2001|DEPO GEDANGAN|ABCDEFGHIJKL|YAYAT|2020-08-14 04:58:41|2021-08-14 04:58:41|T
F97AF411385E77B3|3603|3603||U|2001|DEPO GEDANGAN|ABCDEFGHIJKL|ROSI|2020-08-14 04:58:41|2021-08-14 04:58:41|T
F97AF411385E77B3|3604|3604||U|2001|DEPO GEDANGAN|ABCDEFGHIJKL|YANA|2020-08-14 04:58:41|2021-08-14 04:58:41|T
F97AF411385E77B3|3605|3605||U|2001|DEPO GEDANGAN|ABCDEFGHIJKL|NONO|2020-08-14 04:58:41|2021-08-14 04:58:41|T
F97AF411385E77B3|3606|3606||U|2001|DEPO GEDANGAN|ABCDEFGHIJKL|DADI|2020-08-14 04:58:41|2021-08-14 04:58:41|T
F97AF411385E77B3|3607|3607||U|2001|DEPO GEDANGAN|ABCDEFGHIJKL|SUPARLAN|2020-08-14 04:58:41|2021-08-14 04:58:41|T
F97AF411385E77B3|3608|3608||U|2001|DEPO GEDANGAN|ABCDEFGHIJKL|ILAL|2020-08-14 04:58:41|2021-08-14 04:58:41|T
F97AF411385E77B3|3609|3609||U|2001|DEPO GEDANGAN|ABCDEFGHIJKL|ARIE|2020-08-14 04:58:41|2021-08-14 04:58:41|T
F97AF411385E77B3|3610|3610||U|2001|DEPO GEDANGAN|ABCDEFGHIJKL|ARI|2020-08-14 04:58:41|2021-08-14 04:58:41|T
F97AF411385E77B3|3611|3611||U|2001|DEPO GEDANGAN|ABCDEFGHIJKL|ARIF|2020-08-14 04:58:41|2021-08-14 04:58:41|T
F97AF411385E77B3|3612|3612||U|2001|DEPO GEDANGAN|ABCDEFGHIJKL|Aji|2020-08-14 04:58:41|2021-08-14 04:58:41|T
F97AF411385E77B3|3613|3613||U|2001|DEPO GEDANGAN|ABCDEFGHIJKL|DIKDOYO ZAINUDIN|2020-08-14 04:58:41|2021-08-14 04:58:41|T
F97AF411385E77B3|3614|3614|Canvassing Cash|U|2001|DEPO GEDANGAN|ABCDEFGHIJKL|SUBIN HARIANTO|2020-08-14 04:58:41|2021-08-14 04:58:41|T
F97AF411385E77B3|3615|3615||U|2001|DEPO GEDANGAN|ABCDEFGHIJKL|ANDRE|2020-08-14 04:58:41|2021-08-14 04:58:41|T
F97AF411385E77B3|3616|3616||U|2001|DEPO GEDANGAN|ABCDEFGHIJKL|TEDY|2020-08-14 04:58:41|2021-08-14 04:58:41|T
F97AF411385E77B3|3617|3617|Canvassing Cash|U|2001|DEPO GEDANGAN|ABCDEFGHIJKL|DANANG|2020-08-14 04:58:41|2021-08-14 04:58:41|T
F97AF411385E77B3|3618|3618|Canvassing Credit|U|2001|DEPO GEDANGAN|ABCDEFGHIJKL|EKO PURWANTO|2020-08-14 04:58:41|2021-08-14 04:58:41|T
F97AF411385E77B3|3619|3619|Canvassing Credit|U|2001|DEPO GEDANGAN|ABCDEFGHIJKL|YENIF|2020-08-14 04:58:41|2021-08-14 04:58:41|T
F97AF411385E77B3|3620|3620|Canvassing Credit|U|2001|DEPO GEDANGAN|ABCDEFGHIJKL|DIDIN|2020-08-14 04:58:41|2021-08-14 04:58:41|T
F97AF411385E77B3|3621|3621||U|2001|DEPO GEDANGAN|ABCDEFGHIJKL|HARIS|2020-08-14 04:58:41|2021-08-14 04:58:41|T
F97AF411385E77B3|3622|3622|Canvassing Credit|U|2001|DEPO GEDANGAN|ABCDEFGHIJKL|HUDA|2020-08-14 04:58:41|2021-08-14 04:58:41|T
F97AF411385E77B3|3623|3623||U|2001|DEPO GEDANGAN|ABCDEFGHIJKL|SUTRIS|2020-08-14 04:58:41|2021-08-14 04:58:41|T
F97AF411385E77B3|3624|3624||U|2001|DEPO GEDANGAN|ABCDEFGHIJKL|CHABIBI|2020-08-14 04:58:41|2021-08-14 04:58:41|T
F97AF411385E77B3|3625|3625|Canvassing Credit|U|2001|DEPO GEDANGAN|ABCDEFGHIJKL|HANIF|2020-08-14 04:58:41|2021-08-14 04:58:41|T
F97AF411385E77B3|3626|3626|Dropping All|U|2001|DEPO GEDANGAN|ABCDEFGHIJKL|GOZALI|2020-08-14 04:58:41|2021-08-14 04:58:41|T
F97AF411385E77B3|3627|3627||U|2001|DEPO GEDANGAN|ABCDEFGHIJKL|DONI AKBAR|2020-08-14 04:58:41|2021-08-14 04:58:41|T
F97AF411385E77B3|3628|3628||U|2001|DEPO GEDANGAN|ABCDEFGHIJKL|FANDY SUDIRMAN|2020-08-14 04:58:41|2021-08-14 04:58:41|T
F97AF411385E77B3|3629|3629||U|2001|DEPO GEDANGAN|ABCDEFGHIJKL|WAHYU|2020-08-14 04:58:41|2021-08-14 04:58:41|T
F97AF411385E77B3|3630|3630||U|2001|DEPO GEDANGAN|ABCDEFGHIJKL|TOMMI|2020-08-14 04:58:41|2021-08-14 04:58:41|T
F97AF411385E77B3|3631|3631||U|2001|DEPO GEDANGAN|ABCDEFGHIJKL|ARIF RAHMAN|2020-08-14 04:58:41|2021-08-14 04:58:41|T
F97AF411385E77B3|3632|3632||U|2001|DEPO GEDANGAN|ABCDEFGHIJKL|LUTFI HENDRA|2020-08-14 04:58:41|2021-08-14 04:58:41|T
F97AF411385E77B3|3633|3633||U|2001|DEPO GEDANGAN|ABCDEFGHIJKL|DWI NAFIK|2020-08-14 04:58:41|2021-08-14 04:58:41|T
F97AF411385E77B3|3634|3634||U|2001|DEPO GEDANGAN|ABCDEFGHIJKL|ANDRE OBAYA|2020-08-14 04:58:41|2021-08-14 04:58:41|T
F97AF411385E77B3|3635|3635|Canvassing Cash|U|2001|DEPO GEDANGAN|ABCDEFGHIJKL|YOGA|2020-08-14 04:58:41|2021-08-14 04:58:41|T
F97AF411385E77B3|3636|3636||U|2001|DEPO GEDANGAN|ABCDEFGHIJKL|ANDIK|2020-08-14 04:58:41|2021-08-14 04:58:41|T
F97AF411385E77B3|3637|3637||U|2001|DEPO GEDANGAN|ABCDEFGHIJKL|CAHYO WIBI|2020-08-14 04:58:41|2021-08-14 04:58:41|T
F97AF411385E77B3|3638|3638|Dropping All|U|2001|DEPO GEDANGAN|ABCDEFGHIJKL|HELMI|2020-08-14 04:58:41|2021-08-14 04:58:41|T
F97AF411385E77B3|3639|3639||U|2001|DEPO GEDANGAN|ABCDEFGHIJKL|FACHRUDI|2020-08-14 04:58:41|2021-08-14 04:58:41|T
F97AF411385E77B3|3640|3640||U|2001|DEPO GEDANGAN|ABCDEFGHIJKL|BEPY TSN|2020-08-14 04:58:41|2021-08-14 04:58:41|T
F97AF411385E77B3|3641|3641||U|2001|DEPO GEDANGAN|ABCDEFGHIJKL|RICKY TSN|2020-08-14 04:58:41|2021-08-14 04:58:41|T
F97AF411385E77B3|3642|3642||U|2001|DEPO GEDANGAN|ABCDEFGHIJKL|SEPTIAN TSN|2020-08-14 04:58:41|2021-08-14 04:58:41|T
F97AF411385E77B3|3643|3643||U|2001|DEPO GEDANGAN|ABCDEFGHIJKL|MARIA TSN|2020-08-14 04:58:41|2021-08-14 04:58:41|T
F97AF411385E77B3|3644|3644||U|2001|DEPO GEDANGAN|ABCDEFGHIJKL|HENDRA TSN|2020-08-14 04:58:41|2021-08-14 04:58:41|T
F97AF411385E77B3|3645|3645||U|2001|DEPO GEDANGAN|ABCDEFGHIJKL|FAHRUDDIN FANANI|2020-08-14 04:58:41|2021-08-14 04:58:41|T
F97AF411385E77B3|3646|3646|Canvassing Credit|U|2001|DEPO GEDANGAN|ABCDEFGHIJKL|DARWIN|2020-08-14 04:58:41|2021-08-14 04:58:41|T
F97AF411385E77B3|3647|3647||U|2001|DEPO GEDANGAN|ABCDEFGHIJKL|RIKY|2020-08-14 04:58:41|2021-08-14 04:58:41|T
F97AF411385E77B3|3648|3648|Canvassing Cash|U|2001|DEPO GEDANGAN|ABCDEFGHIJKL|ARIF MUSTOFA|2020-08-14 04:58:41|2021-08-14 04:58:41|T
F97AF411385E77B3|3649|3649||U|2001|DEPO GEDANGAN|ABCDEFGHIJKL|SAPTA|2020-08-14 04:58:41|2021-08-14 04:58:41|T
F97AF411385E77B3|3650|3650||U|2001|DEPO GEDANGAN|ABCDEFGHIJKL|WIRO KANU MALIK|2020-08-14 04:58:41|2021-08-14 04:58:41|T
F97AF411385E77B3|3651|3651|Canvassing Cash|U|2001|DEPO GEDANGAN|ABCDEFGHIJKL|ARIS KURNIAWAN|2020-08-14 04:58:41|2021-08-14 04:58:41|T
F97AF411385E77B3|3652|3652||U|2001|DEPO GEDANGAN|ABCDEFGHIJKL|HENGKY ARIFIN|2020-08-14 04:58:41|2021-08-14 04:58:41|T
F97AF411385E77B3|B001|B001|Canvassing Credit|U|2001|DEPO GEDANGAN|ABCDEFGHIJKL|DODIK IRAWAN|2020-08-14 04:58:41|2021-08-14 04:58:41|T
F97AF411385E77B3|B002|B002|Dropping All|U|2001|DEPO GEDANGAN|ABCDEFGHIJKL|ARIF CAHYONO|2020-08-14 04:58:41|2021-08-14 04:58:41|T
F97AF411385E77B3|B003|B003||U|2001|DEPO GEDANGAN|ABCDEFGHIJKL|LUKMAN HAKIM|2020-08-14 04:58:41|2021-08-14 04:58:41|T
F97AF411385E77B3|B004|B004|Canvassing Cash|U|2001|DEPO GEDANGAN|ABCDEFGHIJKL|AHMAD SUBAIRI|2020-08-14 04:58:41|2021-08-14 04:58:41|T
F97AF411385E77B3|B005|B005|Canvassing Cash|U|2001|DEPO GEDANGAN|ABCDEFGHIJKL|KURNIAWAN URIP SEMBO|2020-08-14 04:58:41|2021-08-14 04:58:41|T
F97AF411385E77B3|B006|B006|Canvassing Cash|U|2001|DEPO GEDANGAN|ABCDEFGHIJKL|RIO AMANDA|2020-08-14 04:58:41|2021-08-14 04:58:41|T
F97AF411385E77B3|B007|B007||U|2001|DEPO GEDANGAN|ABCDEFGHIJKL|DEDDY SATRIAWAN JAYA|2020-08-14 04:58:41|2021-08-14 04:58:41|T
F97AF411385E77B3|B008|B008|Canvassing Cash|U|2001|DEPO GEDANGAN|ABCDEFGHIJKL|SUHENDRO WISASONGKO|2020-08-14 04:58:41|2021-08-14 04:58:41|T
F97AF411385E77B3|B009|B009|Dropping All|U|2001|DEPO GEDANGAN|ABCDEFGHIJKL|MOHAMAD SAIFUL|2020-08-14 04:58:41|2021-08-14 04:58:41|T
F97AF411385E77B3|B010|B010|Dropping All|U|2001|DEPO GEDANGAN|ABCDEFGHIJKL|KUSWANDI|2020-08-14 04:58:41|2021-08-14 04:58:41|T
F97AF411385E77B3|B011|B011|Canvassing Credit|U|2001|DEPO GEDANGAN|ABCDEFGHIJKL|CHODERI|2020-08-14 04:58:41|2021-08-14 04:58:41|T
F97AF411385E77B3|B012|B012|Canvassing Cash|U|2001|DEPO GEDANGAN|ABCDEFGHIJKL|WIRO KANU MALIK|2020-08-14 04:58:41|2021-08-14 04:58:41|T
F97AF411385E77B3|B013|B013|Dropping All|U|2001|DEPO GEDANGAN|ABCDEFGHIJKL|ACHMAD FIRMANSYAH|2020-08-14 04:58:41|2021-08-14 04:58:41|T
F97AF411385E77B3|B014|B014||U|2001|DEPO GEDANGAN|ABCDEFGHIJKL|SEPTIAN NUR CHOLIS|2020-08-14 04:58:41|2021-08-14 04:58:41|T
F97AF411385E77B3|B015|B015|Dropping All|U|2001|DEPO GEDANGAN|ABCDEFGHIJKL|IMAM GHOZALI|2020-08-13 17:13:27|2021-08-13 17:13:27|T
F97AF411385E77B3|B016|B016|Dropping All|U|2001|DEPO GEDANGAN|ABCDEFGHIJKL|FIRMAN MAULANA|2020-08-14 04:58:41|2021-08-14 04:58:41|T
F97AF411385E77B3|B017|B017|Dropping All|U|2001|DEPO GEDANGAN|ABCDEFGHIJKL|FADELI IRAWAN|2020-08-14 04:58:41|2021-08-14 04:58:41|T
F97AF411385E77B3|B018|B018||U|2001|DEPO GEDANGAN|ABCDEFGHIJKL|PURWANTO|2020-08-14 04:58:41|2021-08-14 04:58:41|T
F97AF411385E77B3|B019|B019|Canvassing Cash|U|2001|DEPO GEDANGAN|ABCDEFGHIJKL|MOHAMMED CHOIRUN NIZ|2020-08-14 04:58:41|2021-08-14 04:58:41|T
F97AF411385E77B3|B020|B020|Canvassing Cash|U|2001|DEPO GEDANGAN|ABCDEFGHIJKL|UNTUNG WIYONO|2020-08-14 04:58:41|2021-08-14 04:58:41|T
F97AF411385E77B3|B021|B021|Dropping All|U|2001|DEPO GEDANGAN|ABCDEFGHIJKL|HASANURDIN|2020-08-14 04:58:41|2021-08-14 04:58:41|T
F97AF411385E77B3|B022|B022|Canvassing Credit|U|2001|DEPO GEDANGAN|ABCDEFGHIJKL|EKO PURWANTO|2020-08-14 04:58:41|2021-08-14 04:58:41|T
F97AF411385E77B3|B023|B023|Branch Office|U|2001|DEPO GEDANGAN|ABCDEFGHIJKL|SO Kantor|2020-08-14 04:58:41|2021-08-14 04:58:41|T
F97AF411385E77B3|B024|B024||U|2001|DEPO GEDANGAN|ABCDEFGHIJKL|FERRY BAYU PAMUNGKAS|2020-08-14 04:58:41|2021-08-14 04:58:41|T
F97AF411385E77B3|B025|B025||U|2001|DEPO GEDANGAN|ABCDEFGHIJKL|PUMA FAUSI|2020-08-14 04:58:41|2021-08-14 04:58:41|T
F97AF411385E77B3|B026|B026|Canvassing Cash|U|2001|DEPO GEDANGAN|ABCDEFGHIJKL|BAMBANG SUHARTONO|2020-08-14 04:58:41|2021-08-14 04:58:41|T
F97AF411385E77B3|B027|B027|Dropping All|U|2001|DEPO GEDANGAN|ABCDEFGHIJKL|RIZKI WAHYU PRIYONO|2020-08-14 04:58:41|2021-08-14 04:58:41|T
F97AF411385E77B3|B028|B028|Canvassing Cash|U|2001|DEPO GEDANGAN|ABCDEFGHIJKL|RENDI SEPTAGEDI|2020-08-14 04:58:41|2021-08-14 04:58:41|T
F97AF411385E77B3|B029|B029|Canvassing Cash|U|2001|DEPO GEDANGAN|ABCDEFGHIJKL|BEPI DWI SUSANTI|2020-08-14 04:58:41|2021-08-14 04:58:41|T
F97AF411385E77B3|B030|B030|Canvassing Cash|U|2001|DEPO GEDANGAN|ABCDEFGHIJKL|OKA RINTIS JAYANTO|2020-08-14 04:58:41|2021-08-14 04:58:41|T
F97AF411385E77B3|B031|B031|Dropping All|U|2001|DEPO GEDANGAN|ABCDEFGHIJKL|LUCKY DWI|2020-08-14 04:58:41|2021-08-14 04:58:41|T
F97AF411385E77B3|B032|B032||U|2001|DEPO GEDANGAN|ABCDEFGHIJKL|TOMY PERWIRA|2020-08-14 04:58:41|2021-08-14 04:58:41|T
