B286810942B4CC2E|0001|0001|Canvassing Cash|U|2001|DEPO GEDANGAN|ABCDEFGHIJKL|IT CORNER|2020-10-06 22:13:46|2021-10-06 22:13:46|T
B286810942B4CC2E|2001|2001||U|2001|DEPO GEDANGAN|ABCDEFGHIJKL|KANTOR PUSAT|2020-10-06 22:13:46|2021-10-06 22:13:46|T
B286810942B4CC2E|2022|2022|Branch Office|U|2001|DEPO GEDANGAN|ABCDEFGHIJKL|KANTOR|2020-10-06 22:13:46|2021-10-06 22:13:46|T
B286810942B4CC2E|2177|2177|Canvassing Credit|U|2001|DEPO GEDANGAN|ABCDEFGHIJKL|HAKIM|2020-10-06 22:13:46|2021-10-06 22:13:46|T
B286810942B4CC2E|3614|3614|Canvassing Cash|U|2001|DEPO GEDANGAN|ABCDEFGHIJKL|SUBIN HARIANTO|2020-10-06 22:13:46|2021-10-06 22:13:46|T
B286810942B4CC2E|3617|3617|Canvassing Cash|U|2001|DEPO GEDANGAN|ABCDEFGHIJKL|DANANG|2020-10-06 22:13:46|2021-10-06 22:13:46|T
B286810942B4CC2E|3618|3618|Canvassing Credit|U|2001|DEPO GEDANGAN|ABCDEFGHIJKL|EKO PURWANTO|2020-10-06 22:13:46|2021-10-06 22:13:46|T
B286810942B4CC2E|3619|3619|Canvassing Credit|U|2001|DEPO GEDANGAN|ABCDEFGHIJKL|YENIF SETYA BUDI|2020-10-06 22:13:46|2021-10-06 22:13:46|T
B286810942B4CC2E|3620|3620|Canvassing Credit|U|2001|DEPO GEDANGAN|ABCDEFGHIJKL|DIDIN APRILIANTO|2020-10-06 22:13:46|2021-10-06 22:13:46|T
B286810942B4CC2E|3622|3622|Canvassing Credit|U|2001|DEPO GEDANGAN|ABCDEFGHIJKL|M NUR HUDA|2020-10-06 22:13:46|2021-10-06 22:13:46|T
B286810942B4CC2E|3625|3625|Canvassing Credit|U|2001|DEPO GEDANGAN|ABCDEFGHIJKL|HANIF|2020-10-06 22:13:46|2021-10-06 22:13:46|T
B286810942B4CC2E|3638|3638|Canvassing Credit|U|2001|DEPO GEDANGAN|ABCDEFGHIJKL|HELMI|2020-10-06 22:13:46|2021-10-06 22:13:46|T
B286810942B4CC2E|3648|3648|Canvassing Cash|U|2001|DEPO GEDANGAN|ABCDEFGHIJKL|ARIF MUSTOFA|2020-10-06 22:13:46|2021-10-06 22:13:46|T
B286810942B4CC2E|B001|B001|Canvassing Credit|U|2001|DEPO GEDANGAN|ABCDEFGHIJKL|DODIK IRAWAN|2020-10-06 22:13:46|2021-10-06 22:13:46|T
B286810942B4CC2E|B002|B002|Canvassing Credit|U|2001|DEPO GEDANGAN|ABCDEFGHIJKL|ARIF CAHYONO|2020-10-06 22:13:46|2021-10-06 22:13:46|T
B286810942B4CC2E|B004|B004|Canvassing Cash|U|2001|DEPO GEDANGAN|ABCDEFGHIJKL|AHMAD SUBAIRI|2020-10-06 22:13:46|2021-10-06 22:13:46|T
B286810942B4CC2E|B005|B005|Canvassing Cash|U|2001|DEPO GEDANGAN|ABCDEFGHIJKL|KURNIAWAN URIP SEMBO|2020-10-06 22:13:46|2021-10-06 22:13:46|T
B286810942B4CC2E|B006|B006|Canvassing Cash|U|2001|DEPO GEDANGAN|ABCDEFGHIJKL|RIO AMANDA|2020-10-06 22:13:46|2021-10-06 22:13:46|T
B286810942B4CC2E|B008|B008|Canvassing Cash|U|2001|DEPO GEDANGAN|ABCDEFGHIJKL|SUHENDRO WISASONGKO|2020-10-06 22:13:46|2021-10-06 22:13:46|T
B286810942B4CC2E|B009|B009|Canvassing Credit|U|2001|DEPO GEDANGAN|ABCDEFGHIJKL|MOHAMAD SAIFUL|2020-10-06 22:13:46|2021-10-06 22:13:46|T
B286810942B4CC2E|B010|B010|Canvassing Credit|U|2001|DEPO GEDANGAN|ABCDEFGHIJKL|KUSWANDI|2020-10-06 22:13:46|2021-10-06 22:13:46|T
B286810942B4CC2E|B011|B011|Canvassing Credit|U|2001|DEPO GEDANGAN|ABCDEFGHIJKL|CHODERI|2020-10-06 22:13:46|2021-10-06 22:13:46|T
B286810942B4CC2E|B013|B013|Canvassing Credit|U|2001|DEPO GEDANGAN|ABCDEFGHIJKL|ACHMAD FIRMANSYAH|2020-10-06 22:13:46|2021-10-06 22:13:46|T
B286810942B4CC2E|B015|B015|Canvassing Credit|U|2001|DEPO GEDANGAN|ABCDEFGHIJKL|IMAM GHOZALI|2020-10-06 22:13:46|2021-10-06 22:13:46|T
B286810942B4CC2E|B016|B016|Canvassing Credit|U|2001|DEPO GEDANGAN|ABCDEFGHIJKL|FIRMAN MAULANA|2020-10-06 22:13:46|2021-10-06 22:13:46|T
B286810942B4CC2E|B017|B017|Canvassing Credit|U|2001|DEPO GEDANGAN|ABCDEFGHIJKL|FADELI IRAWAN|2020-10-06 22:13:46|2021-10-06 22:13:46|T
B286810942B4CC2E|B020|B020|Canvassing Cash|U|2001|DEPO GEDANGAN|ABCDEFGHIJKL|UNTUNG WIYONO|2020-10-06 22:13:46|2021-10-06 22:13:46|T
B286810942B4CC2E|B021|B021|Canvassing Credit|U|2001|DEPO GEDANGAN|ABCDEFGHIJKL|HASANURDIN|2020-10-06 22:13:46|2021-10-06 22:13:46|T
B286810942B4CC2E|B023|B023|Branch Office|U|2001|DEPO GEDANGAN|ABCDEFGHIJKL|SO Kantor|2020-10-06 22:13:46|2021-10-06 22:13:46|T
B286810942B4CC2E|B026|B026|Canvassing Cash|U|2001|DEPO GEDANGAN|ABCDEFGHIJKL|BAMBANG SUHARTONO|2020-10-06 22:13:46|2021-10-06 22:13:46|T
B286810942B4CC2E|B027|B027|Canvassing Credit|U|2001|DEPO GEDANGAN|ABCDEFGHIJKL|RIZKI WAHYU PRIYONO|2020-10-06 22:13:46|2021-10-06 22:13:46|T
B286810942B4CC2E|B028|B028|Canvassing Cash|U|2001|DEPO GEDANGAN|ABCDEFGHIJKL|RENDI SEPTAGEDI|2020-10-06 22:13:46|2021-10-06 22:13:46|T
B286810942B4CC2E|B029|B029|Canvassing Cash|U|2001|DEPO GEDANGAN|ABCDEFGHIJKL|BEPI DWI SUSANTI|2020-10-06 22:13:46|2021-10-06 22:13:46|T
B286810942B4CC2E|B030|B030|Canvassing Cash|U|2001|DEPO GEDANGAN|ABCDEFGHIJKL|OKA RINTIS JAYANTO|2020-10-06 22:13:46|2021-10-06 22:13:46|T
B286810942B4CC2E|B031|B031|Canvassing Credit|U|2001|DEPO GEDANGAN|ABCDEFGHIJKL|LUCKY DWI|2020-10-06 22:13:46|2021-10-06 22:13:46|T
B286810942B4CC2E|B032|B032||U|2001|DEPO GEDANGAN|ABCDEFGHIJKL|TOMY PERWIRA|2020-10-06 22:13:46|2021-10-06 22:13:46|T
B286810942B4CC2E|B033|B033||U|2001|DEPO GEDANGAN|ABCDEFGHIJKL|FANDY SUDIRMAN|2020-10-06 22:13:46|2021-10-06 22:13:46|T
B286810942B4CC2E|B035|B035||U|2001|DEPO GEDANGAN|ABCDEFGHIJKL|HABIB HABIBIE|2020-10-06 22:13:46|2021-10-06 22:13:46|T
B286810942B4CC2E|B036|B036||U|2001|DEPO GEDANGAN|ABCDEFGHIJKL|BAGUS ARMADANA|2020-10-06 22:13:46|2021-10-06 22:13:46|T
