C624C9377B27FAE9|2001|2001||U|2001|DEPO GEDANGAN|ABCDEFGHIJKLMNO|KANTOR PUSAT|2020-08-14 05:22:04|2021-08-14 05:22:04|T
C624C9377B27FAE9|2002|2002||U|2001|DEPO GEDANGAN|ABCDEFGHIJKLMNO|DELTA FORCE|2020-08-14 05:22:04|2021-08-14 05:22:04|T
C624C9377B27FAE9|2013|2013||U|2001|DEPO GEDANGAN|ABCDEFGHIJKLMNO|PURWANTA|2020-08-14 05:22:04|2021-08-14 05:22:04|T
C624C9377B27FAE9|2014|2014||U|2001|DEPO GEDANGAN|ABCDEFGHIJKLMNO|SATRIYA|2020-08-14 05:22:04|2021-08-14 05:22:04|T
C624C9377B27FAE9|2015|2015||U|2001|DEPO GEDANGAN|ABCDEFGHIJKLMNO|LILIK|2020-08-14 05:22:04|2021-08-14 05:22:04|T
C624C9377B27FAE9|2016|2016||U|2001|DEPO GEDANGAN|ABCDEFGHIJKLMNO|AWAN SUBIYAKTO|2020-08-14 05:22:04|2021-08-14 05:22:04|T
C624C9377B27FAE9|2017|2017||U|2001|DEPO GEDANGAN|ABCDEFGHIJKLMNO|SIGIT WIWOHO|2020-08-14 05:22:04|2021-08-14 05:22:04|T
C624C9377B27FAE9|2021|2021||U|2001|DEPO GEDANGAN|ABCDEFGHIJKLMNO|SINGGIH|2020-08-14 05:22:04|2021-08-14 05:22:04|T
C624C9377B27FAE9|2022|2022|Branch Office|U|2001|DEPO GEDANGAN|ABCDEFGHIJKLMNO|KANTOR|2020-08-14 05:22:04|2021-08-14 05:22:04|T
C624C9377B27FAE9|2023|2023||U|2001|DEPO GEDANGAN|ABCDEFGHIJKLMNO|ROCHMAD|2020-08-14 05:22:04|2021-08-14 05:22:04|T
C624C9377B27FAE9|2024|2024||U|2001|DEPO GEDANGAN|ABCDEFGHIJKLMNO|SAMSUL|2020-08-14 05:22:04|2021-08-14 05:22:04|T
C624C9377B27FAE9|2025|2025||U|2001|DEPO GEDANGAN|ABCDEFGHIJKLMNO|BAMBANG|2020-08-14 05:22:04|2021-08-14 05:22:04|T
C624C9377B27FAE9|2026|2026||U|2001|DEPO GEDANGAN|ABCDEFGHIJKLMNO|BUDI|2020-08-14 05:22:04|2021-08-14 05:22:04|T
C624C9377B27FAE9|2027|2027||U|2001|DEPO GEDANGAN|ABCDEFGHIJKLMNO|NASIR|2020-08-14 05:22:04|2021-08-14 05:22:04|T
C624C9377B27FAE9|2028|2028||U|2001|DEPO GEDANGAN|ABCDEFGHIJKLMNO|YULI|2020-08-14 05:22:04|2021-08-14 05:22:04|T
C624C9377B27FAE9|2029|2029||U|2001|DEPO GEDANGAN|ABCDEFGHIJKLMNO|JOKO|2020-08-14 05:22:04|2021-08-14 05:22:04|T
C624C9377B27FAE9|2030|2030||U|2001|DEPO GEDANGAN|ABCDEFGHIJKLMNO|RINI|2020-08-14 05:22:04|2021-08-14 05:22:04|T
C624C9377B27FAE9|2101|2101||U|2001|DEPO GEDANGAN|ABCDEFGHIJKLMNO|ARMAN|2020-08-14 05:22:04|2021-08-14 05:22:04|T
C624C9377B27FAE9|2102|2102||U|2001|DEPO GEDANGAN|ABCDEFGHIJKLMNO|KANTOR|2020-08-14 05:22:04|2021-08-14 05:22:04|T
C624C9377B27FAE9|2103|2103||U|2001|DEPO GEDANGAN|ABCDEFGHIJKLMNO|LEGIMAN|2020-08-14 05:22:04|2021-08-14 05:22:04|T
C624C9377B27FAE9|2104|2104||U|2001|DEPO GEDANGAN|ABCDEFGHIJKLMNO|MAMAN|2020-08-14 05:22:04|2021-08-14 05:22:04|T
C624C9377B27FAE9|2105|2105||U|2001|DEPO GEDANGAN|ABCDEFGHIJKLMNO|ANTOK|2020-08-14 05:22:04|2021-08-14 05:22:04|T
C624C9377B27FAE9|2106|2106||U|2001|DEPO GEDANGAN|ABCDEFGHIJKLMNO|SUWARJI|2020-08-14 05:22:04|2021-08-14 05:22:04|T
C624C9377B27FAE9|2107|2107||U|2001|DEPO GEDANGAN|ABCDEFGHIJKLMNO|TOHA|2020-08-14 05:22:04|2021-08-14 05:22:04|T
C624C9377B27FAE9|2108|2108||U|2001|DEPO GEDANGAN|ABCDEFGHIJKLMNO|DEFI|2020-08-14 05:22:04|2021-08-14 05:22:04|T
C624C9377B27FAE9|2109|2109||U|2001|DEPO GEDANGAN|ABCDEFGHIJKLMNO|MUJI|2020-08-14 05:22:04|2021-08-14 05:22:04|T
C624C9377B27FAE9|2110|2110||U|2001|DEPO GEDANGAN|ABCDEFGHIJKLMNO|RAHMAN|2020-08-14 05:22:04|2021-08-14 05:22:04|T
C624C9377B27FAE9|2111|2111||U|2001|DEPO GEDANGAN|ABCDEFGHIJKLMNO|SISWANTO|2020-08-14 05:22:04|2021-08-14 05:22:04|T
C624C9377B27FAE9|2112|2112||U|2001|DEPO GEDANGAN|ABCDEFGHIJKLMNO|IMAM|2020-08-14 05:22:04|2021-08-14 05:22:04|T
C624C9377B27FAE9|2113|2113||U|2001|DEPO GEDANGAN|ABCDEFGHIJKLMNO|JUNIANTO|2020-08-14 05:22:04|2021-08-14 05:22:04|T
C624C9377B27FAE9|2115|2115|Canvassing Cash|U|2001|DEPO GEDANGAN|ABCDEFGHIJKLMNO|EDI SANTOSO|2020-08-14 05:22:04|2021-08-14 05:22:04|T
C624C9377B27FAE9|2116|2116||U|2001|DEPO GEDANGAN|ABCDEFGHIJKLMNO|TRIYONO|2020-08-14 05:22:04|2021-08-14 05:22:04|T
C624C9377B27FAE9|2117|2117||U|2001|DEPO GEDANGAN|ABCDEFGHIJKLMNO|HARTONO|2020-08-14 05:22:04|2021-08-14 05:22:04|T
C624C9377B27FAE9|2118|2118||U|2001|DEPO GEDANGAN|ABCDEFGHIJKLMNO|JONY|2020-08-14 05:22:04|2021-08-14 05:22:04|T
C624C9377B27FAE9|2119|2119||U|2001|DEPO GEDANGAN|ABCDEFGHIJKLMNO|ARIS|2020-08-14 05:22:04|2021-08-14 05:22:04|T
C624C9377B27FAE9|2120|2120||U|2001|DEPO GEDANGAN|ABCDEFGHIJKLMNO|BUDI|2020-08-14 05:22:04|2021-08-14 05:22:04|T
C624C9377B27FAE9|2121|2121||U|2001|DEPO GEDANGAN|ABCDEFGHIJKLMNO|RONI|2020-08-14 05:22:04|2021-08-14 05:22:04|T
C624C9377B27FAE9|2122|2122||U|2001|DEPO GEDANGAN|ABCDEFGHIJKLMNO|EKO|2020-08-14 05:22:04|2021-08-14 05:22:04|T
C624C9377B27FAE9|2123|2123||U|2001|DEPO GEDANGAN|ABCDEFGHIJKLMNO|FIRMAN|2020-08-14 05:22:04|2021-08-14 05:22:04|T
C624C9377B27FAE9|2124|2124||U|2001|DEPO GEDANGAN|ABCDEFGHIJKLMNO|SAMSUL|2020-08-14 05:22:04|2021-08-14 05:22:04|T
C624C9377B27FAE9|2125|2125||U|2001|DEPO GEDANGAN|ABCDEFGHIJKLMNO|MONIC|2020-08-14 05:22:04|2021-08-14 05:22:04|T
C624C9377B27FAE9|2126|2126||U|2001|DEPO GEDANGAN|ABCDEFGHIJKLMNO|HARI|2020-08-14 05:22:04|2021-08-14 05:22:04|T
C624C9377B27FAE9|2127|2127||U|2001|DEPO GEDANGAN|ABCDEFGHIJKLMNO|SINDU|2020-08-14 05:22:04|2021-08-14 05:22:04|T
C624C9377B27FAE9|2128|2128||U|2001|DEPO GEDANGAN|ABCDEFGHIJKLMNO|ARIFIN|2020-08-14 05:22:04|2021-08-14 05:22:04|T
C624C9377B27FAE9|2129|2129||U|2001|DEPO GEDANGAN|ABCDEFGHIJKLMNO|OKI|2020-08-14 05:22:04|2021-08-14 05:22:04|T
C624C9377B27FAE9|2130|2130||U|2001|DEPO GEDANGAN|ABCDEFGHIJKLMNO|SUPRIYONO|2020-08-14 05:22:04|2021-08-14 05:22:04|T
C624C9377B27FAE9|2131|2131||U|2001|DEPO GEDANGAN|ABCDEFGHIJKLMNO|SUNGSANG|2020-08-14 05:22:04|2021-08-14 05:22:04|T
C624C9377B27FAE9|2132|2132||U|2001|DEPO GEDANGAN|ABCDEFGHIJKLMNO|AFIF|2020-08-14 05:22:04|2021-08-14 05:22:04|T
C624C9377B27FAE9|2133|2133||U|2001|DEPO GEDANGAN|ABCDEFGHIJKLMNO|ILHAM|2020-08-14 05:22:04|2021-08-14 05:22:04|T
C624C9377B27FAE9|2134|2134||U|2001|DEPO GEDANGAN|ABCDEFGHIJKLMNO|KUSWANDI|2020-08-14 05:22:04|2021-08-14 05:22:04|T
C624C9377B27FAE9|2135|2135||U|2001|DEPO GEDANGAN|ABCDEFGHIJKLMNO|YOYOK|2020-08-14 05:22:04|2021-08-14 05:22:04|T
C624C9377B27FAE9|2136|2136||U|2001|DEPO GEDANGAN|ABCDEFGHIJKLMNO|HUSNI|2020-08-14 05:22:04|2021-08-14 05:22:04|T
C624C9377B27FAE9|2137|2137||U|2001|DEPO GEDANGAN|ABCDEFGHIJKLMNO|JATMIKO|2020-08-14 05:22:04|2021-08-14 05:22:04|T
C624C9377B27FAE9|2138|2138||U|2001|DEPO GEDANGAN|ABCDEFGHIJKLMNO|BIMO|2020-08-14 05:22:04|2021-08-14 05:22:04|T
C624C9377B27FAE9|2139|2139||U|2001|DEPO GEDANGAN|ABCDEFGHIJKLMNO|SUGENG|2020-08-14 05:22:04|2021-08-14 05:22:04|T
C624C9377B27FAE9|2140|2140||U|2001|DEPO GEDANGAN|ABCDEFGHIJKLMNO|AYIS|2020-08-14 05:22:04|2021-08-14 05:22:04|T
C624C9377B27FAE9|2141|2141||U|2001|DEPO GEDANGAN|ABCDEFGHIJKLMNO|ARIK SAIFUDIN|2020-08-14 05:22:04|2021-08-14 05:22:04|T
C624C9377B27FAE9|2142|2142||U|2001|DEPO GEDANGAN|ABCDEFGHIJKLMNO|YUDHA|2020-08-14 05:22:04|2021-08-14 05:22:04|T
C624C9377B27FAE9|2143|2143||U|2001|DEPO GEDANGAN|ABCDEFGHIJKLMNO|IRWAN|2020-08-14 05:22:04|2021-08-14 05:22:04|T
C624C9377B27FAE9|2144|2144||U|2001|DEPO GEDANGAN|ABCDEFGHIJKLMNO|ARIF CAHYONO|2020-08-14 05:22:04|2021-08-14 05:22:04|T
C624C9377B27FAE9|2145|2145||U|2001|DEPO GEDANGAN|ABCDEFGHIJKLMNO|ANDI PRAMANA|2020-08-14 05:22:04|2021-08-14 05:22:04|T
C624C9377B27FAE9|2146|2146||U|2001|DEPO GEDANGAN|ABCDEFGHIJKLMNO|DAVID|2020-08-14 05:22:04|2021-08-14 05:22:04|T
C624C9377B27FAE9|2147|2147||U|2001|DEPO GEDANGAN|ABCDEFGHIJKLMNO|IWAN|2020-08-14 05:22:04|2021-08-14 05:22:04|T
C624C9377B27FAE9|2148|2148||U|2001|DEPO GEDANGAN|ABCDEFGHIJKLMNO|GOFUR|2020-08-14 05:22:04|2021-08-14 05:22:04|T
C624C9377B27FAE9|2149|2149||U|2001|DEPO GEDANGAN|ABCDEFGHIJKLMNO|KHOIRUL ANAM|2020-08-14 05:22:04|2021-08-14 05:22:04|T
C624C9377B27FAE9|2150|2150||U|2001|DEPO GEDANGAN|ABCDEFGHIJKLMNO|OMAN|2020-08-14 05:22:04|2021-08-14 05:22:04|T
C624C9377B27FAE9|2151|2151||U|2001|DEPO GEDANGAN|ABCDEFGHIJKLMNO|ARIF|2020-08-14 05:22:04|2021-08-14 05:22:04|T
C624C9377B27FAE9|2152|2152||U|2001|DEPO GEDANGAN|ABCDEFGHIJKLMNO|HAMID|2020-08-14 05:22:04|2021-08-14 05:22:04|T
C624C9377B27FAE9|2153|2153||U|2001|DEPO GEDANGAN|ABCDEFGHIJKLMNO|UJANG SOLEH|2020-08-14 05:22:04|2021-08-14 05:22:04|T
C624C9377B27FAE9|2154|2154||U|2001|DEPO GEDANGAN|ABCDEFGHIJKLMNO|SARWOTO|2020-08-14 05:22:04|2021-08-14 05:22:04|T
C624C9377B27FAE9|2155|2155||U|2001|DEPO GEDANGAN|ABCDEFGHIJKLMNO|SAMINGUN|2020-08-14 05:22:04|2021-08-14 05:22:04|T
C624C9377B27FAE9|2156|2156||U|2001|DEPO GEDANGAN|ABCDEFGHIJKLMNO|AKMAL|2020-08-14 05:22:04|2021-08-14 05:22:04|T
C624C9377B27FAE9|2157|2157||U|2001|DEPO GEDANGAN|ABCDEFGHIJKLMNO|MUITO|2020-08-14 05:22:04|2021-08-14 05:22:04|T
C624C9377B27FAE9|2158|2158||U|2001|DEPO GEDANGAN|ABCDEFGHIJKLMNO|NUR EFFENDI|2020-08-14 05:22:04|2021-08-14 05:22:04|T
C624C9377B27FAE9|2159|2159||U|2001|DEPO GEDANGAN|ABCDEFGHIJKLMNO|Bachtiar|2020-08-14 05:22:04|2021-08-14 05:22:04|T
C624C9377B27FAE9|215D|215D||U|2001|DEPO GEDANGAN|ABCDEFGHIJKLMNO|ANTOK (TO2)|2020-08-14 05:22:04|2021-08-14 05:22:04|T
C624C9377B27FAE9|215P|215P||U|2001|DEPO GEDANGAN|ABCDEFGHIJKLMNO|ANTOK (TO1)|2020-08-14 05:22:04|2021-08-14 05:22:04|T
C624C9377B27FAE9|215R|215R||U|2001|DEPO GEDANGAN|ABCDEFGHIJKLMNO|SUGIA FERI|2020-08-14 05:22:04|2021-08-14 05:22:04|T
C624C9377B27FAE9|215S|215S||U|2001|DEPO GEDANGAN|ABCDEFGHIJKLMNO|AIDIL HAMSYAH SIHOTA|2020-08-14 05:22:04|2021-08-14 05:22:04|T
C624C9377B27FAE9|2160|2160||U|2001|DEPO GEDANGAN|ABCDEFGHIJKLMNO|Deny|2020-08-14 05:22:04|2021-08-14 05:22:04|T
C624C9377B27FAE9|2161|2161||U|2001|DEPO GEDANGAN|ABCDEFGHIJKLMNO|Siman|2020-08-14 05:22:04|2021-08-14 05:22:04|T
C624C9377B27FAE9|2162|2162||U|2001|DEPO GEDANGAN|ABCDEFGHIJKLMNO|Edo|2020-08-14 05:22:04|2021-08-14 05:22:04|T
C624C9377B27FAE9|2163|2163||U|2001|DEPO GEDANGAN|ABCDEFGHIJKLMNO|Cherdiek Arie K|2020-08-14 05:22:04|2021-08-14 05:22:04|T
C624C9377B27FAE9|2164|2164||U|2001|DEPO GEDANGAN|ABCDEFGHIJKLMNO|DMC|2020-08-14 05:22:04|2021-08-14 05:22:04|T
C624C9377B27FAE9|2165|2165||U|2001|DEPO GEDANGAN|ABCDEFGHIJKLMNO|Tommi|2020-08-14 05:22:04|2021-08-14 05:22:04|T
C624C9377B27FAE9|2166|2166||U|2001|DEPO GEDANGAN|ABCDEFGHIJKLMNO|Fahruddin|2020-08-14 05:22:04|2021-08-14 05:22:04|T
C624C9377B27FAE9|2167|2167||U|2001|DEPO GEDANGAN|ABCDEFGHIJKLMNO|CITO|2020-08-14 05:22:04|2021-08-14 05:22:04|T
C624C9377B27FAE9|2168|2168||U|2001|DEPO GEDANGAN|ABCDEFGHIJKLMNO|RONALDO|2020-08-14 05:22:04|2021-08-14 05:22:04|T
C624C9377B27FAE9|2169|2169||U|2001|DEPO GEDANGAN|ABCDEFGHIJKLMNO|RINI|2020-08-14 05:22:04|2021-08-14 05:22:04|T
C624C9377B27FAE9|216D|216D||U|2001|DEPO GEDANGAN|ABCDEFGHIJKLMNO|TRIYONO (TO2)|2020-08-14 05:22:04|2021-08-14 05:22:04|T
C624C9377B27FAE9|216P|216P||U|2001|DEPO GEDANGAN|ABCDEFGHIJKLMNO|TRIYONO (TO1)|2020-08-14 05:22:04|2021-08-14 05:22:04|T
C624C9377B27FAE9|2170|2170||U|2001|DEPO GEDANGAN|ABCDEFGHIJKLMNO|KURNIAWAN|2020-08-14 05:22:04|2021-08-14 05:22:04|T
C624C9377B27FAE9|2171|2171||U|2001|DEPO GEDANGAN|ABCDEFGHIJKLMNO|FERI|2020-08-14 05:22:04|2021-08-14 05:22:04|T
C624C9377B27FAE9|2172|2172||U|2001|DEPO GEDANGAN|ABCDEFGHIJKLMNO|SANDI|2020-08-14 05:22:04|2021-08-14 05:22:04|T
C624C9377B27FAE9|2173|2173||U|2001|DEPO GEDANGAN|ABCDEFGHIJKLMNO|FERRY|2020-08-14 05:22:04|2021-08-14 05:22:04|T
C624C9377B27FAE9|2174|2174||U|2001|DEPO GEDANGAN|ABCDEFGHIJKLMNO|LUKMAN HAKIM|2020-08-14 05:22:04|2021-08-14 05:22:04|T
C624C9377B27FAE9|2175|2175||U|2001|DEPO GEDANGAN|ABCDEFGHIJKLMNO|AMIR|2020-08-14 05:22:04|2021-08-14 05:22:04|T
C624C9377B27FAE9|2176|2176||U|2001|DEPO GEDANGAN|ABCDEFGHIJKLMNO|SAIFUL|2020-08-14 05:22:04|2021-08-14 05:22:04|T
C624C9377B27FAE9|2177|2177|Canvassing Credit|U|2001|DEPO GEDANGAN|ABCDEFGHIJKLMNO|HAKIM|2020-08-14 05:22:04|2021-08-14 05:22:04|T
C624C9377B27FAE9|2178|2178||U|2001|DEPO GEDANGAN|ABCDEFGHIJKLMNO|SANDI|2020-08-14 05:22:04|2021-08-14 05:22:04|T
C624C9377B27FAE9|2179|2179||U|2001|DEPO GEDANGAN|ABCDEFGHIJKLMNO|KADIT|2020-08-14 05:22:04|2021-08-14 05:22:04|T
C624C9377B27FAE9|217D|217D||U|2001|DEPO GEDANGAN|ABCDEFGHIJKLMNO|HARTONO (TO2)|2020-08-14 05:22:04|2021-08-14 05:22:04|T
C624C9377B27FAE9|217P|217P||U|2001|DEPO GEDANGAN|ABCDEFGHIJKLMNO|HARTONO (TO1)|2020-08-14 05:22:04|2021-08-14 05:22:04|T
C624C9377B27FAE9|2201|2201||U|2001|DEPO GEDANGAN|ABCDEFGHIJKLMNO|ARMAN|2020-08-14 05:22:04|2021-08-14 05:22:04|T
C624C9377B27FAE9|2202|2202||U|2001|DEPO GEDANGAN|ABCDEFGHIJKLMNO|MULYADI|2020-08-14 05:22:04|2021-08-14 05:22:04|T
C624C9377B27FAE9|2203|2203||U|2001|DEPO GEDANGAN|ABCDEFGHIJKLMNO|ANDIK|2020-08-14 05:22:04|2021-08-14 05:22:04|T
C624C9377B27FAE9|2204|2204||U|2001|DEPO GEDANGAN|ABCDEFGHIJKLMNO|YUNIANTO|2020-08-14 05:22:04|2021-08-14 05:22:04|T
C624C9377B27FAE9|2205|2205||U|2001|DEPO GEDANGAN|ABCDEFGHIJKLMNO|MULYONO|2020-08-14 05:22:04|2021-08-14 05:22:04|T
C624C9377B27FAE9|2206|2206||U|2001|DEPO GEDANGAN|ABCDEFGHIJKLMNO|MUHID|2020-08-14 05:22:04|2021-08-14 05:22:04|T
C624C9377B27FAE9|2207|2207||U|2001|DEPO GEDANGAN|ABCDEFGHIJKLMNO|HERMANUS|2020-08-14 05:22:04|2021-08-14 05:22:04|T
C624C9377B27FAE9|2208|2208||U|2001|DEPO GEDANGAN|ABCDEFGHIJKLMNO|HARI|2020-08-14 05:22:04|2021-08-14 05:22:04|T
C624C9377B27FAE9|2209|2209||U|2001|DEPO GEDANGAN|ABCDEFGHIJKLMNO|ANTOK/HARI|2020-08-14 05:22:04|2021-08-14 05:22:04|T
C624C9377B27FAE9|2210|2210||U|2001|DEPO GEDANGAN|ABCDEFGHIJKLMNO|ANTOK/BAMBANG|2020-08-14 05:22:04|2021-08-14 05:22:04|T
C624C9377B27FAE9|2211|2211||U|2001|DEPO GEDANGAN|ABCDEFGHIJKLMNO|ANTOK/MUHID|2020-08-14 05:22:04|2021-08-14 05:22:04|T
C624C9377B27FAE9|2212|2212||U|2001|DEPO GEDANGAN|ABCDEFGHIJKLMNO|ANTOK/ROHMAD|2020-08-14 05:22:04|2021-08-14 05:22:04|T
C624C9377B27FAE9|2213|2213||U|2001|DEPO GEDANGAN|ABCDEFGHIJKLMNO|FIRMAN|2020-08-14 05:22:04|2021-08-14 05:22:04|T
C624C9377B27FAE9|2214|2214||U|2001|DEPO GEDANGAN|ABCDEFGHIJKLMNO|SAMSUL DF|2020-08-14 05:22:04|2021-08-14 05:22:04|T
C624C9377B27FAE9|2215|2215||U|2001|DEPO GEDANGAN|ABCDEFGHIJKLMNO|HARI DF|2020-08-14 05:22:04|2021-08-14 05:22:04|T
C624C9377B27FAE9|2216|2216||U|2001|DEPO GEDANGAN|ABCDEFGHIJKLMNO|MONIC|2020-08-14 05:22:04|2021-08-14 05:22:04|T
C624C9377B27FAE9|2217|2217||U|2001|DEPO GEDANGAN|ABCDEFGHIJKLMNO|SAPTA|2020-08-14 05:22:04|2021-08-14 05:22:04|T
C624C9377B27FAE9|2218|2218||U|2001|DEPO GEDANGAN|ABCDEFGHIJKLMNO|DIAN|2020-08-14 05:22:04|2021-08-14 05:22:04|T
C624C9377B27FAE9|2219|2219||U|2001|DEPO GEDANGAN|ABCDEFGHIJKLMNO|RONI|2020-08-14 05:22:04|2021-08-14 05:22:04|T
C624C9377B27FAE9|221D|221D||U|2001|DEPO GEDANGAN|ABCDEFGHIJKLMNO|ARMAN (TO2)|2020-08-14 05:22:04|2021-08-14 05:22:04|T
C624C9377B27FAE9|221P|221P||U|2001|DEPO GEDANGAN|ABCDEFGHIJKLMNO|ARMAN (TO1)|2020-08-14 05:22:04|2021-08-14 05:22:04|T
C624C9377B27FAE9|2220|2220||U|2001|DEPO GEDANGAN|ABCDEFGHIJKLMNO|BUDI SISWANTO|2020-08-14 05:22:04|2021-08-14 05:22:04|T
C624C9377B27FAE9|2221|2221||U|2001|DEPO GEDANGAN|ABCDEFGHIJKLMNO|IRVAN|2020-08-14 05:22:04|2021-08-14 05:22:04|T
C624C9377B27FAE9|2222|2222||U|2001|DEPO GEDANGAN|ABCDEFGHIJKLMNO|ARIFIN|2020-08-14 05:22:04|2021-08-14 05:22:04|T
C624C9377B27FAE9|2223|2223||U|2001|DEPO GEDANGAN|ABCDEFGHIJKLMNO|SINDU|2020-08-14 05:22:04|2021-08-14 05:22:04|T
C624C9377B27FAE9|2224|2224||U|2001|DEPO GEDANGAN|ABCDEFGHIJKLMNO|AFIF|2020-08-14 05:22:04|2021-08-14 05:22:04|T
C624C9377B27FAE9|2225|2225||U|2001|DEPO GEDANGAN|ABCDEFGHIJKLMNO|EKO|2020-08-14 05:22:04|2021-08-14 05:22:04|T
C624C9377B27FAE9|2226|2226||U|2001|DEPO GEDANGAN|ABCDEFGHIJKLMNO|DWI WINARKO|2020-08-14 05:22:04|2021-08-14 05:22:04|T
C624C9377B27FAE9|2227|2227||U|2001|DEPO GEDANGAN|ABCDEFGHIJKLMNO|FANDY BAGUS|2020-08-14 05:22:04|2021-08-14 05:22:04|T
C624C9377B27FAE9|2228|2228||U|2001|DEPO GEDANGAN|ABCDEFGHIJKLMNO|NURHADI|2020-08-14 05:22:04|2021-08-14 05:22:04|T
C624C9377B27FAE9|2229|2229||U|2001|DEPO GEDANGAN|ABCDEFGHIJKLMNO|HAMDAN SANI|2020-08-14 05:22:04|2021-08-14 05:22:04|T
C624C9377B27FAE9|2230|2230||U|2001|DEPO GEDANGAN|ABCDEFGHIJKLMNO|YULIA MELFA|2020-08-14 05:22:04|2021-08-14 05:22:04|T
C624C9377B27FAE9|2231|2231||U|2001|DEPO GEDANGAN|ABCDEFGHIJKLMNO|TRI WALUYO|2020-08-14 05:22:04|2021-08-14 05:22:04|T
C624C9377B27FAE9|2232|2232||U|2001|DEPO GEDANGAN|ABCDEFGHIJKLMNO|HARRIS|2020-08-14 05:22:04|2021-08-14 05:22:04|T
C624C9377B27FAE9|2233|2233||U|2001|DEPO GEDANGAN|ABCDEFGHIJKLMNO|ANDRY MARDENI|2020-08-14 05:22:04|2021-08-14 05:22:04|T
C624C9377B27FAE9|2234|2234||U|2001|DEPO GEDANGAN|ABCDEFGHIJKLMNO|KHOIRUL ANAM|2020-08-14 05:22:04|2021-08-14 05:22:04|T
C624C9377B27FAE9|2235|2235||U|2001|DEPO GEDANGAN|ABCDEFGHIJKLMNO|HADI BAHAGIA|2020-08-14 05:22:04|2021-08-14 05:22:04|T
C624C9377B27FAE9|2236|2236||U|2001|DEPO GEDANGAN|ABCDEFGHIJKLMNO|KAHARUDIN|2020-08-14 05:22:04|2021-08-14 05:22:04|T
C624C9377B27FAE9|2237|2237||U|2001|DEPO GEDANGAN|ABCDEFGHIJKLMNO|TEDDY TUHUMENA|2020-08-14 05:22:04|2021-08-14 05:22:04|T
C624C9377B27FAE9|2238|2238||U|2001|DEPO GEDANGAN|ABCDEFGHIJKLMNO|BAMBANG SRIYONO|2020-08-14 05:22:04|2021-08-14 05:22:04|T
C624C9377B27FAE9|2239|2239||U|2001|DEPO GEDANGAN|ABCDEFGHIJKLMNO|EDDY SOET|2020-08-14 05:22:04|2021-08-14 05:22:04|T
C624C9377B27FAE9|223D|223D||U|2001|DEPO GEDANGAN|ABCDEFGHIJKLMNO|YUNIANTO (DEPO)|2020-08-14 05:22:04|2021-08-14 05:22:04|T
C624C9377B27FAE9|223P|223P||U|2001|DEPO GEDANGAN|ABCDEFGHIJKLMNO|YUNIANTO (PABRIK)|2020-08-14 05:22:04|2021-08-14 05:22:04|T
C624C9377B27FAE9|2240|2240||U|2001|DEPO GEDANGAN|ABCDEFGHIJKLMNO|RUDIONO|2020-08-14 05:22:04|2021-08-14 05:22:04|T
C624C9377B27FAE9|2241|2241||U|2001|DEPO GEDANGAN|ABCDEFGHIJKLMNO|DWI ANDRIAWAN|2020-08-14 05:22:04|2021-08-14 05:22:04|T
C624C9377B27FAE9|2242|2242||U|2001|DEPO GEDANGAN|ABCDEFGHIJKLMNO|ANDY WIRANA|2020-08-14 05:22:04|2021-08-14 05:22:04|T
C624C9377B27FAE9|2243|2243||U|2001|DEPO GEDANGAN|ABCDEFGHIJKLMNO|ARIS VINDIAWAN|2020-08-14 05:22:04|2021-08-14 05:22:04|T
C624C9377B27FAE9|2244|2244||U|2001|DEPO GEDANGAN|ABCDEFGHIJKLMNO|PUGUH PRASETYO|2020-08-14 05:22:04|2021-08-14 05:22:04|T
C624C9377B27FAE9|2245|2245||U|2001|DEPO GEDANGAN|ABCDEFGHIJKLMNO|DEDY HERMAWAN|2020-08-14 05:22:04|2021-08-14 05:22:04|T
C624C9377B27FAE9|2246|2246||U|2001|DEPO GEDANGAN|ABCDEFGHIJKLMNO|MOH SAFII|2020-08-14 05:22:04|2021-08-14 05:22:04|T
C624C9377B27FAE9|2247|2247||U|2001|DEPO GEDANGAN|ABCDEFGHIJKLMNO|PRISTIONO|2020-08-14 05:22:04|2021-08-14 05:22:04|T
C624C9377B27FAE9|2248|2248||U|2001|DEPO GEDANGAN|ABCDEFGHIJKLMNO|MOCH ABDUL ARIS|2020-08-14 05:22:04|2021-08-14 05:22:04|T
C624C9377B27FAE9|2249|2249||U|2001|DEPO GEDANGAN|ABCDEFGHIJKLMNO|ANTON SUJARWO|2020-08-14 05:22:04|2021-08-14 05:22:04|T
C624C9377B27FAE9|2250|2250||U|2001|DEPO GEDANGAN|ABCDEFGHIJKLMNO|PRIYA TIMUR|2020-08-14 05:22:04|2021-08-14 05:22:04|T
C624C9377B27FAE9|2251|2251||U|2001|DEPO GEDANGAN|ABCDEFGHIJKLMNO|DENI JEMUR|2020-08-14 05:22:04|2021-08-14 05:22:04|T
C624C9377B27FAE9|2252|2252||U|2001|DEPO GEDANGAN|ABCDEFGHIJKLMNO|SUBHAN|2020-08-14 05:22:04|2021-08-14 05:22:04|T
C624C9377B27FAE9|2253|2253||U|2001|DEPO GEDANGAN|ABCDEFGHIJKLMNO|DMC SALSA|2020-08-14 05:22:04|2021-08-14 05:22:04|T
C624C9377B27FAE9|2254|2254||U|2001|DEPO GEDANGAN|ABCDEFGHIJKLMNO|MARTIN ROYAS|2020-08-14 05:22:04|2021-08-14 05:22:04|T
C624C9377B27FAE9|2255|2255||U|2001|DEPO GEDANGAN|ABCDEFGHIJKLMNO|ATOM|2020-08-14 05:22:04|2021-08-14 05:22:04|T
C624C9377B27FAE9|2256|2256||U|2001|DEPO GEDANGAN|ABCDEFGHIJKLMNO|HERU|2020-08-14 05:22:04|2021-08-14 05:22:04|T
C624C9377B27FAE9|2257|2257|Branch Office|U|2001|DEPO GEDANGAN|ABCDEFGHIJKLMNO|FACHRUDDIN|2020-08-14 05:22:04|2021-08-14 05:22:04|T
C624C9377B27FAE9|2258|2258||U|2001|DEPO GEDANGAN|ABCDEFGHIJKLMNO|SAMSUL EFFENDY|2020-08-14 05:22:04|2021-08-14 05:22:04|T
C624C9377B27FAE9|226D|226D||U|2001|DEPO GEDANGAN|ABCDEFGHIJKLMNO|BUDI (TO2)|2020-08-14 05:22:04|2021-08-14 05:22:04|T
C624C9377B27FAE9|226P|226P||U|2001|DEPO GEDANGAN|ABCDEFGHIJKLMNO|BUDI (TO1)|2020-08-14 05:22:04|2021-08-14 05:22:04|T
C624C9377B27FAE9|2301|2301||U|2001|DEPO GEDANGAN|ABCDEFGHIJKLMNO|AGUS|2020-08-14 05:22:04|2021-08-14 05:22:04|T
C624C9377B27FAE9|2302|2302||U|2001|DEPO GEDANGAN|ABCDEFGHIJKLMNO|KANTOR|2020-08-14 05:22:04|2021-08-14 05:22:04|T
C624C9377B27FAE9|2303|2303||U|2001|DEPO GEDANGAN|ABCDEFGHIJKLMNO|SANTOSO|2020-08-14 05:22:04|2021-08-14 05:22:04|T
C624C9377B27FAE9|2304|2304||U|2001|DEPO GEDANGAN|ABCDEFGHIJKLMNO|YONGKI|2020-08-14 05:22:04|2021-08-14 05:22:04|T
C624C9377B27FAE9|2305|2305||U|2001|DEPO GEDANGAN|ABCDEFGHIJKLMNO|INDRA|2020-08-14 05:22:04|2021-08-14 05:22:04|T
C624C9377B27FAE9|2306|2306||U|2001|DEPO GEDANGAN|ABCDEFGHIJKLMNO|EKO|2020-08-14 05:22:04|2021-08-14 05:22:04|T
C624C9377B27FAE9|2307|2307||U|2001|DEPO GEDANGAN|ABCDEFGHIJKLMNO|TRI WIBOWO|2020-08-14 05:22:04|2021-08-14 05:22:04|T
C624C9377B27FAE9|2308|2308||U|2001|DEPO GEDANGAN|ABCDEFGHIJKLMNO|PURNOMO|2020-08-14 05:22:04|2021-08-14 05:22:04|T
C624C9377B27FAE9|2309|2309||U|2001|DEPO GEDANGAN|ABCDEFGHIJKLMNO|BUDIONO|2020-08-14 05:22:04|2021-08-14 05:22:04|T
C624C9377B27FAE9|2310|2310||U|2001|DEPO GEDANGAN|ABCDEFGHIJKLMNO|FARID|2020-08-14 05:22:04|2021-08-14 05:22:04|T
C624C9377B27FAE9|2311|2311||U|2001|DEPO GEDANGAN|ABCDEFGHIJKLMNO|BAYU|2020-08-14 05:22:04|2021-08-14 05:22:04|T
C624C9377B27FAE9|2312|2312||U|2001|DEPO GEDANGAN|ABCDEFGHIJKLMNO|GALIH|2020-08-14 05:22:04|2021-08-14 05:22:04|T
C624C9377B27FAE9|2313|2313||U|2001|DEPO GEDANGAN|ABCDEFGHIJKLMNO|AHMAD|2020-08-14 05:22:04|2021-08-14 05:22:04|T
C624C9377B27FAE9|2314|2314||U|2001|DEPO GEDANGAN|ABCDEFGHIJKLMNO|AGUS S|2020-08-14 05:22:04|2021-08-14 05:22:04|T
C624C9377B27FAE9|2315|2315||U|2001|DEPO GEDANGAN|ABCDEFGHIJKLMNO|ANDRY|2020-08-14 05:22:04|2021-08-14 05:22:04|T
C624C9377B27FAE9|2316|2316||U|2001|DEPO GEDANGAN|ABCDEFGHIJKLMNO|HADI DF|2020-08-14 05:22:04|2021-08-14 05:22:04|T
C624C9377B27FAE9|2317|2317||U|2001|DEPO GEDANGAN|ABCDEFGHIJKLMNO|RONI DF|2020-08-14 05:22:04|2021-08-14 05:22:04|T
C624C9377B27FAE9|2318|2318||U|2001|DEPO GEDANGAN|ABCDEFGHIJKLMNO|BUDI DF|2020-08-14 05:22:04|2021-08-14 05:22:04|T
C624C9377B27FAE9|2319|2319||U|2001|DEPO GEDANGAN|ABCDEFGHIJKLMNO|MONIC DF|2020-08-14 05:22:04|2021-08-14 05:22:04|T
C624C9377B27FAE9|231D|231D||U|2001|DEPO GEDANGAN|ABCDEFGHIJKLMNO|AGUS (TO2)|2020-08-14 05:22:04|2021-08-14 05:22:04|T
C624C9377B27FAE9|231P|231P||U|2001|DEPO GEDANGAN|ABCDEFGHIJKLMNO|AGUS (TO1)|2020-08-14 05:22:04|2021-08-14 05:22:04|T
C624C9377B27FAE9|2320|2320||U|2001|DEPO GEDANGAN|ABCDEFGHIJKLMNO|FIRMAN DF|2020-08-14 05:22:04|2021-08-14 05:22:04|T
C624C9377B27FAE9|2321|2321||U|2001|DEPO GEDANGAN|ABCDEFGHIJKLMNO|SAMSUL DF|2020-08-14 05:22:04|2021-08-14 05:22:04|T
C624C9377B27FAE9|2322|2322||U|2001|DEPO GEDANGAN|ABCDEFGHIJKLMNO|ADI|2020-08-14 05:22:04|2021-08-14 05:22:04|T
C624C9377B27FAE9|2323|2323||U|2001|DEPO GEDANGAN|ABCDEFGHIJKLMNO|ARIS|2020-08-14 05:22:04|2021-08-14 05:22:04|T
C624C9377B27FAE9|2324|2324||U|2001|DEPO GEDANGAN|ABCDEFGHIJKLMNO|YOGI|2020-08-14 05:22:04|2021-08-14 05:22:04|T
C624C9377B27FAE9|2325|2325||U|2001|DEPO GEDANGAN|ABCDEFGHIJKLMNO|MOH.EKO|2020-08-14 05:22:04|2021-08-14 05:22:04|T
C624C9377B27FAE9|2326|2326||U|2001|DEPO GEDANGAN|ABCDEFGHIJKLMNO|EKO S|2020-08-14 05:22:04|2021-08-14 05:22:04|T
C624C9377B27FAE9|2327|2327||U|2001|DEPO GEDANGAN|ABCDEFGHIJKLMNO|RENDRA|2020-08-14 05:22:04|2021-08-14 05:22:04|T
C624C9377B27FAE9|2328|2328||U|2001|DEPO GEDANGAN|ABCDEFGHIJKLMNO|TRI WALUYO|2020-08-14 05:22:04|2021-08-14 05:22:04|T
C624C9377B27FAE9|2329|2329||U|2001|DEPO GEDANGAN|ABCDEFGHIJKLMNO|DIAS|2020-08-14 05:22:04|2021-08-14 05:22:04|T
C624C9377B27FAE9|2330|2330||U|2001|DEPO GEDANGAN|ABCDEFGHIJKLMNO|DIDIK WAHYONO|2020-08-14 05:22:04|2021-08-14 05:22:04|T
C624C9377B27FAE9|2331|2331||U|2001|DEPO GEDANGAN|ABCDEFGHIJKLMNO|HERNAWAN|2020-08-14 05:22:04|2021-08-14 05:22:04|T
C624C9377B27FAE9|2332|2332||U|2001|DEPO GEDANGAN|ABCDEFGHIJKLMNO|SIGIT|2020-08-14 05:22:04|2021-08-14 05:22:04|T
C624C9377B27FAE9|2333|2333||U|2001|DEPO GEDANGAN|ABCDEFGHIJKLMNO|WAHYU PRASETYO|2020-08-14 05:22:04|2021-08-14 05:22:04|T
C624C9377B27FAE9|2334|2334||U|2001|DEPO GEDANGAN|ABCDEFGHIJKLMNO|EDI PURNOMO|2020-08-14 05:22:04|2021-08-14 05:22:04|T
C624C9377B27FAE9|2335|2335||U|2001|DEPO GEDANGAN|ABCDEFGHIJKLMNO|DWI WIRA (HR)|2020-08-14 05:22:04|2021-08-14 05:22:04|T
C624C9377B27FAE9|2336|2336||U|2001|DEPO GEDANGAN|ABCDEFGHIJKLMNO|ALIP SUSANTO|2020-08-14 05:22:04|2021-08-14 05:22:04|T
C624C9377B27FAE9|2337|2337||U|2001|DEPO GEDANGAN|ABCDEFGHIJKLMNO|TEGUH WAHYU|2020-08-14 05:22:04|2021-08-14 05:22:04|T
C624C9377B27FAE9|2338|2338||U|2001|DEPO GEDANGAN|ABCDEFGHIJKLMNO|USMAN|2020-08-14 05:22:04|2021-08-14 05:22:04|T
C624C9377B27FAE9|2339|2339||U|2001|DEPO GEDANGAN|ABCDEFGHIJKLMNO|AKBAR|2020-08-14 05:22:04|2021-08-14 05:22:04|T
C624C9377B27FAE9|2340|2340||U|2001|DEPO GEDANGAN|ABCDEFGHIJKLMNO|RONI WIJAYA|2020-08-14 05:22:04|2021-08-14 05:22:04|T
C624C9377B27FAE9|2341|2341||U|2001|DEPO GEDANGAN|ABCDEFGHIJKLMNO|YONO|2020-08-14 05:22:04|2021-08-14 05:22:04|T
C624C9377B27FAE9|2342|2342||U|2001|DEPO GEDANGAN|ABCDEFGHIJKLMNO|AJI|2020-08-14 05:22:04|2021-08-14 05:22:04|T
C624C9377B27FAE9|2343|2343||U|2001|DEPO GEDANGAN|ABCDEFGHIJKLMNO|HARIYADI|2020-08-14 05:22:04|2021-08-14 05:22:04|T
C624C9377B27FAE9|2344|2344||U|2001|DEPO GEDANGAN|ABCDEFGHIJKLMNO|PUTRA|2020-08-14 05:22:04|2021-08-14 05:22:04|T
C624C9377B27FAE9|2345|2345||U|2001|DEPO GEDANGAN|ABCDEFGHIJKLMNO|AINUL MUIS|2020-08-14 05:22:04|2021-08-14 05:22:04|T
C624C9377B27FAE9|2346|2346||U|2001|DEPO GEDANGAN|ABCDEFGHIJKLMNO|BIYANTORO|2020-08-14 05:22:04|2021-08-14 05:22:04|T
C624C9377B27FAE9|2347|2347||U|2001|DEPO GEDANGAN|ABCDEFGHIJKLMNO|IRAWAN|2020-08-14 05:22:04|2021-08-14 05:22:04|T
C624C9377B27FAE9|2401|2401||U|2001|DEPO GEDANGAN|ABCDEFGHIJKLMNO|JONI EFFENDI|2020-08-14 05:22:04|2021-08-14 05:22:04|T
C624C9377B27FAE9|2402|2402||U|2001|DEPO GEDANGAN|ABCDEFGHIJKLMNO|KANTOR|2020-08-14 05:22:04|2021-08-14 05:22:04|T
C624C9377B27FAE9|2403|2403||U|2001|DEPO GEDANGAN|ABCDEFGHIJKLMNO|SAIKUDIN|2020-08-14 05:22:04|2021-08-14 05:22:04|T
C624C9377B27FAE9|2404|2404||U|2001|DEPO GEDANGAN|ABCDEFGHIJKLMNO|JOKO PURNOMO|2020-08-14 05:22:04|2021-08-14 05:22:04|T
C624C9377B27FAE9|2405|2405||U|2001|DEPO GEDANGAN|ABCDEFGHIJKLMNO|KADARUSMAN|2020-08-14 05:22:04|2021-08-14 05:22:04|T
C624C9377B27FAE9|2406|2406||U|2001|DEPO GEDANGAN|ABCDEFGHIJKLMNO|PRAMONO|2020-08-14 05:22:04|2021-08-14 05:22:04|T
C624C9377B27FAE9|2407|2407||U|2001|DEPO GEDANGAN|ABCDEFGHIJKLMNO|NONO|2020-08-14 05:22:04|2021-08-14 05:22:04|T
C624C9377B27FAE9|2408|2408||U|2001|DEPO GEDANGAN|ABCDEFGHIJKLMNO|IRWAN PRASETYO|2020-08-14 05:22:04|2021-08-14 05:22:04|T
C624C9377B27FAE9|2409|2409||U|2001|DEPO GEDANGAN|ABCDEFGHIJKLMNO|YUNIANTO (MJK)|2020-08-14 05:22:04|2021-08-14 05:22:04|T
C624C9377B27FAE9|2410|2410||U|2001|DEPO GEDANGAN|ABCDEFGHIJKLMNO|FARID|2020-08-14 05:22:04|2021-08-14 05:22:04|T
C624C9377B27FAE9|2411|2411||U|2001|DEPO GEDANGAN|ABCDEFGHIJKLMNO|EKO|2020-08-14 05:22:04|2021-08-14 05:22:04|T
C624C9377B27FAE9|2412|2412||U|2001|DEPO GEDANGAN|ABCDEFGHIJKLMNO|LINDHU YANNUGRAH|2020-08-14 05:22:04|2021-08-14 05:22:04|T
C624C9377B27FAE9|2413|2413||U|2001|DEPO GEDANGAN|ABCDEFGHIJKLMNO|INDRA ERDIANTO|2020-08-14 05:22:04|2021-08-14 05:22:04|T
C624C9377B27FAE9|2414|2414||U|2001|DEPO GEDANGAN|ABCDEFGHIJKLMNO|FIRDAUS|2020-08-14 05:22:04|2021-08-14 05:22:04|T
C624C9377B27FAE9|2415|2415||U|2001|DEPO GEDANGAN|ABCDEFGHIJKLMNO|SAIFUDIN|2020-08-14 05:22:04|2021-08-14 05:22:04|T
C624C9377B27FAE9|2416|2416||U|2001|DEPO GEDANGAN|ABCDEFGHIJKLMNO|Yoyok|2020-08-14 05:22:04|2021-08-14 05:22:04|T
C624C9377B27FAE9|2417|2417||U|2001|DEPO GEDANGAN|ABCDEFGHIJKLMNO|JATMIKO|2020-08-14 05:22:04|2021-08-14 05:22:04|T
C624C9377B27FAE9|2418|2418||U|2001|DEPO GEDANGAN|ABCDEFGHIJKLMNO|ERWIN|2020-08-14 05:22:04|2021-08-14 05:22:04|T
C624C9377B27FAE9|2419|2419||U|2001|DEPO GEDANGAN|ABCDEFGHIJKLMNO|ANDY|2020-08-14 05:22:04|2021-08-14 05:22:04|T
C624C9377B27FAE9|2501|2501||U|2001|DEPO GEDANGAN|ABCDEFGHIJKLMNO|KANTOR|2020-08-14 05:22:04|2021-08-14 05:22:04|T
C624C9377B27FAE9|2502|2502||U|2001|DEPO GEDANGAN|ABCDEFGHIJKLMNO|JHONY|2020-08-14 05:22:04|2021-08-14 05:22:04|T
C624C9377B27FAE9|2503|2503||U|2001|DEPO GEDANGAN|ABCDEFGHIJKLMNO|SUKRON|2020-08-14 05:22:04|2021-08-14 05:22:04|T
C624C9377B27FAE9|2504|2504||U|2001|DEPO GEDANGAN|ABCDEFGHIJKLMNO|UNTUNG|2020-08-14 05:22:04|2021-08-14 05:22:04|T
C624C9377B27FAE9|2505|2505||U|2001|DEPO GEDANGAN|ABCDEFGHIJKLMNO|RONI|2020-08-14 05:22:04|2021-08-14 05:22:04|T
C624C9377B27FAE9|2506|2506||U|2001|DEPO GEDANGAN|ABCDEFGHIJKLMNO|ALDI|2020-08-14 05:22:04|2021-08-14 05:22:04|T
C624C9377B27FAE9|2507|2507||U|2001|DEPO GEDANGAN|ABCDEFGHIJKLMNO|AGUS|2020-08-14 05:22:04|2021-08-14 05:22:04|T
C624C9377B27FAE9|2508|2508||U|2001|DEPO GEDANGAN|ABCDEFGHIJKLMNO|JOKO|2020-08-14 05:22:04|2021-08-14 05:22:04|T
C624C9377B27FAE9|2509|2509||U|2001|DEPO GEDANGAN|ABCDEFGHIJKLMNO|ISMIATI|2020-08-14 05:22:04|2021-08-14 05:22:04|T
C624C9377B27FAE9|2510|2510||U|2001|DEPO GEDANGAN|ABCDEFGHIJKLMNO|KASAN|2020-08-14 05:22:04|2021-08-14 05:22:04|T
C624C9377B27FAE9|2511|2511||U|2001|DEPO GEDANGAN|ABCDEFGHIJKLMNO|EDI|2020-08-14 05:22:04|2021-08-14 05:22:04|T
C624C9377B27FAE9|2512|2512||U|2001|DEPO GEDANGAN|ABCDEFGHIJKLMNO|SAIFUL|2020-08-14 05:22:04|2021-08-14 05:22:04|T
C624C9377B27FAE9|2513|2513||U|2001|DEPO GEDANGAN|ABCDEFGHIJKLMNO|NITA|2020-08-14 05:22:04|2021-08-14 05:22:04|T
C624C9377B27FAE9|2514|2514||U|2001|DEPO GEDANGAN|ABCDEFGHIJKLMNO|ARIES|2020-08-14 05:22:04|2021-08-14 05:22:04|T
C624C9377B27FAE9|2515|2515||U|2001|DEPO GEDANGAN|ABCDEFGHIJKLMNO|ARDIAN|2020-08-14 05:22:04|2021-08-14 05:22:04|T
C624C9377B27FAE9|2516|2516||U|2001|DEPO GEDANGAN|ABCDEFGHIJKLMNO|BAMBANG|2020-08-14 05:22:04|2021-08-14 05:22:04|T
C624C9377B27FAE9|2517|2517||U|2001|DEPO GEDANGAN|ABCDEFGHIJKLMNO|DWI|2020-08-14 05:22:04|2021-08-14 05:22:04|T
C624C9377B27FAE9|2518|2518||U|2001|DEPO GEDANGAN|ABCDEFGHIJKLMNO|OPI|2020-08-14 05:22:04|2021-08-14 05:22:04|T
C624C9377B27FAE9|2519|2519||U|2001|DEPO GEDANGAN|ABCDEFGHIJKLMNO|DIDIT|2020-08-14 05:22:04|2021-08-14 05:22:04|T
C624C9377B27FAE9|2601|2601||U|2001|DEPO GEDANGAN|ABCDEFGHIJKLMNO|KANTOR|2020-08-14 05:22:04|2021-08-14 05:22:04|T
C624C9377B27FAE9|2602|2602||U|2001|DEPO GEDANGAN|ABCDEFGHIJKLMNO|ISWANDI|2020-08-14 05:22:04|2021-08-14 05:22:04|T
C624C9377B27FAE9|2603|2603||U|2001|DEPO GEDANGAN|ABCDEFGHIJKLMNO|AFIF|2020-08-14 05:22:04|2021-08-14 05:22:04|T
C624C9377B27FAE9|2604|2604||U|2001|DEPO GEDANGAN|ABCDEFGHIJKLMNO|PRIYONO|2020-08-14 05:22:04|2021-08-14 05:22:04|T
C624C9377B27FAE9|2605|2605||U|2001|DEPO GEDANGAN|ABCDEFGHIJKLMNO|FERRY|2020-08-14 05:22:04|2021-08-14 05:22:04|T
C624C9377B27FAE9|2606|2606||U|2001|DEPO GEDANGAN|ABCDEFGHIJKLMNO|JAROT AGUS NURCAHYO|2020-08-14 05:22:04|2021-08-14 05:22:04|T
C624C9377B27FAE9|2607|2607||U|2001|DEPO GEDANGAN|ABCDEFGHIJKLMNO|HARRY WIBISONO|2020-08-14 05:22:04|2021-08-14 05:22:04|T
C624C9377B27FAE9|2608|2608||U|2001|DEPO GEDANGAN|ABCDEFGHIJKLMNO|SIGID WITJAKSONO|2020-08-14 05:22:04|2021-08-14 05:22:04|T
C624C9377B27FAE9|2609|2609||U|2001|DEPO GEDANGAN|ABCDEFGHIJKLMNO|CESWAR|2020-08-14 05:22:04|2021-08-14 05:22:04|T
C624C9377B27FAE9|260D|260D||U|2001|DEPO GEDANGAN|ABCDEFGHIJKLMNO|PONGKI (TO2)|2020-08-14 05:22:04|2021-08-14 05:22:04|T
C624C9377B27FAE9|260P|260P||U|2001|DEPO GEDANGAN|ABCDEFGHIJKLMNO|PONGKI (TO1)|2020-08-14 05:22:04|2021-08-14 05:22:04|T
C624C9377B27FAE9|2610|2610||U|2001|DEPO GEDANGAN|ABCDEFGHIJKLMNO|PONGKI|2020-08-14 05:22:04|2021-08-14 05:22:04|T
C624C9377B27FAE9|2611|2611||U|2001|DEPO GEDANGAN|ABCDEFGHIJKLMNO|AMIR|2020-08-14 05:22:04|2021-08-14 05:22:04|T
C624C9377B27FAE9|2612|2612||U|2001|DEPO GEDANGAN|ABCDEFGHIJKLMNO|SINTUK|2020-08-14 05:22:04|2021-08-14 05:22:04|T
C624C9377B27FAE9|2613|2613||U|2001|DEPO GEDANGAN|ABCDEFGHIJKLMNO|ANDIK|2020-08-14 05:22:04|2021-08-14 05:22:04|T
C624C9377B27FAE9|2615|2615||U|2001|DEPO GEDANGAN|ABCDEFGHIJKLMNO|BENNY|2020-08-14 05:22:04|2021-08-14 05:22:04|T
C624C9377B27FAE9|2616|2616||U|2001|DEPO GEDANGAN|ABCDEFGHIJKLMNO|HERDI|2020-08-14 05:22:04|2021-08-14 05:22:04|T
C624C9377B27FAE9|2617|2617||U|2001|DEPO GEDANGAN|ABCDEFGHIJKLMNO|AGUNG|2020-08-14 05:22:04|2021-08-14 05:22:04|T
C624C9377B27FAE9|2618|2618||U|2001|DEPO GEDANGAN|ABCDEFGHIJKLMNO|MIFTAH|2020-08-14 05:22:04|2021-08-14 05:22:04|T
C624C9377B27FAE9|2619|2619||U|2001|DEPO GEDANGAN|ABCDEFGHIJKLMNO|SUMARDI|2020-08-14 05:22:04|2021-08-14 05:22:04|T
C624C9377B27FAE9|2620|2620||U|2001|DEPO GEDANGAN|ABCDEFGHIJKLMNO|ARIF WAHYUDI|2020-08-14 05:22:04|2021-08-14 05:22:04|T
C624C9377B27FAE9|2621|2621||U|2001|DEPO GEDANGAN|ABCDEFGHIJKLMNO|PUTRO|2020-08-14 05:22:04|2021-08-14 05:22:04|T
C624C9377B27FAE9|263D|263D||U|2001|DEPO GEDANGAN|ABCDEFGHIJKLMNO|AFIF (TO2)|2020-08-14 05:22:04|2021-08-14 05:22:04|T
C624C9377B27FAE9|263P|263P||U|2001|DEPO GEDANGAN|ABCDEFGHIJKLMNO|AFIF (TO1)|2020-08-14 05:22:04|2021-08-14 05:22:04|T
C624C9377B27FAE9|266D|266D||U|2001|DEPO GEDANGAN|ABCDEFGHIJKLMNO|JAROT AGUS (TO2)|2020-08-14 05:22:04|2021-08-14 05:22:04|T
C624C9377B27FAE9|267D|267D||U|2001|DEPO GEDANGAN|ABCDEFGHIJKLMNO|HARRY WIBISONO (TO2)|2020-08-14 05:22:04|2021-08-14 05:22:04|T
C624C9377B27FAE9|267P|267P||U|2001|DEPO GEDANGAN|ABCDEFGHIJKLMNO|HARRY WIBISONO (TO1)|2020-08-14 05:22:04|2021-08-14 05:22:04|T
C624C9377B27FAE9|268D|268D||U|2001|DEPO GEDANGAN|ABCDEFGHIJKLMNO|SIGID WITJAKSONO (TO|2020-08-14 05:22:04|2021-08-14 05:22:04|T
C624C9377B27FAE9|269D|269D||U|2001|DEPO GEDANGAN|ABCDEFGHIJKLMNO|CESWAR (TO2)|2020-08-14 05:22:04|2021-08-14 05:22:04|T
C624C9377B27FAE9|269P|269P||U|2001|DEPO GEDANGAN|ABCDEFGHIJKLMNO|CESWAR (TO1)|2020-08-14 05:22:04|2021-08-14 05:22:04|T
C624C9377B27FAE9|2701|2701||U|2001|DEPO GEDANGAN|ABCDEFGHIJKLMNO|KANTOR DEPO JEMBER|2020-08-14 05:22:04|2021-08-14 05:22:04|T
C624C9377B27FAE9|2702|2702||U|2001|DEPO GEDANGAN|ABCDEFGHIJKLMNO|ROBI|2020-08-14 05:22:04|2021-08-14 05:22:04|T
C624C9377B27FAE9|2703|2703||U|2001|DEPO GEDANGAN|ABCDEFGHIJKLMNO|TRI ZAENAUL|2020-08-14 05:22:04|2021-08-14 05:22:04|T
C624C9377B27FAE9|2704|2704||U|2001|DEPO GEDANGAN|ABCDEFGHIJKLMNO|WASIAH|2020-08-14 05:22:04|2021-08-14 05:22:04|T
C624C9377B27FAE9|2705|2705||U|2001|DEPO GEDANGAN|ABCDEFGHIJKLMNO|BAGUS|2020-08-14 05:22:04|2021-08-14 05:22:04|T
C624C9377B27FAE9|2706|2706||U|2001|DEPO GEDANGAN|ABCDEFGHIJKLMNO|ARIK BARGOWO|2020-08-14 05:22:04|2021-08-14 05:22:04|T
C624C9377B27FAE9|2707|2707||U|2001|DEPO GEDANGAN|ABCDEFGHIJKLMNO|SUYOTO|2020-08-14 05:22:04|2021-08-14 05:22:04|T
C624C9377B27FAE9|2708|2708||U|2001|DEPO GEDANGAN|ABCDEFGHIJKLMNO|IMRON FAHRIZAL|2020-08-14 05:22:04|2021-08-14 05:22:04|T
C624C9377B27FAE9|2709|2709||U|2001|DEPO GEDANGAN|ABCDEFGHIJKLMNO|PERU BUDI|2020-08-14 05:22:04|2021-08-14 05:22:04|T
C624C9377B27FAE9|2710|2710||U|2001|DEPO GEDANGAN|ABCDEFGHIJKLMNO|WAKIK|2020-08-14 05:22:04|2021-08-14 05:22:04|T
C624C9377B27FAE9|2711|2711||U|2001|DEPO GEDANGAN|ABCDEFGHIJKLMNO|BAGUS CAHYONO|2020-08-14 05:22:04|2021-08-14 05:22:04|T
C624C9377B27FAE9|2712|2712||U|2001|DEPO GEDANGAN|ABCDEFGHIJKLMNO|DEDI WAHYONO|2020-08-14 05:22:04|2021-08-14 05:22:04|T
C624C9377B27FAE9|2713|2713||U|2001|DEPO GEDANGAN|ABCDEFGHIJKLMNO|MUKLIS|2020-08-14 05:22:04|2021-08-14 05:22:04|T
C624C9377B27FAE9|2714|2714||U|2001|DEPO GEDANGAN|ABCDEFGHIJKLMNO|SULISTIYO|2020-08-14 05:22:04|2021-08-14 05:22:04|T
C624C9377B27FAE9|2715|2715||U|2001|DEPO GEDANGAN|ABCDEFGHIJKLMNO|SUJARI|2020-08-14 05:22:04|2021-08-14 05:22:04|T
C624C9377B27FAE9|2801|2801||U|2001|DEPO GEDANGAN|ABCDEFGHIJKLMNO|KANTOR|2020-08-14 05:22:04|2021-08-14 05:22:04|T
C624C9377B27FAE9|2802|2802||U|2001|DEPO GEDANGAN|ABCDEFGHIJKLMNO|SLAMET WIDODO|2020-08-14 05:22:04|2021-08-14 05:22:04|T
C624C9377B27FAE9|2803|2803||U|2001|DEPO GEDANGAN|ABCDEFGHIJKLMNO|RICKY |2020-08-14 05:22:04|2021-08-14 05:22:04|T
C624C9377B27FAE9|2804|2804||U|2001|DEPO GEDANGAN|ABCDEFGHIJKLMNO|SUPARTO|2020-08-14 05:22:04|2021-08-14 05:22:04|T
C624C9377B27FAE9|2805|2805||U|2001|DEPO GEDANGAN|ABCDEFGHIJKLMNO|DEDDY |2020-08-14 05:22:04|2021-08-14 05:22:04|T
C624C9377B27FAE9|2806|2806||U|2001|DEPO GEDANGAN|ABCDEFGHIJKLMNO|INDRA|2020-08-14 05:22:04|2021-08-14 05:22:04|T
C624C9377B27FAE9|2807|2807||U|2001|DEPO GEDANGAN|ABCDEFGHIJKLMNO|DWI JOKO|2020-08-14 05:22:04|2021-08-14 05:22:04|T
C624C9377B27FAE9|2808|2808||U|2001|DEPO GEDANGAN|ABCDEFGHIJKLMNO|AGUS YULIANTO|2020-08-14 05:22:04|2021-08-14 05:22:04|T
C624C9377B27FAE9|2809|2809||U|2001|DEPO GEDANGAN|ABCDEFGHIJKLMNO|ROSYANTO|2020-08-14 05:22:04|2021-08-14 05:22:04|T
C624C9377B27FAE9|2810|2810||U|2001|DEPO GEDANGAN|ABCDEFGHIJKLMNO|BAYU NOVIANTO|2020-08-14 05:22:04|2021-08-14 05:22:04|T
C624C9377B27FAE9|2811|2811||U|2001|DEPO GEDANGAN|ABCDEFGHIJKLMNO|SYAIFUL ANWAR|2020-08-14 05:22:04|2021-08-14 05:22:04|T
C624C9377B27FAE9|2812|2812||U|2001|DEPO GEDANGAN|ABCDEFGHIJKLMNO|PURNOMOSIDI|2020-08-14 05:22:04|2021-08-14 05:22:04|T
C624C9377B27FAE9|2813|2813||U|2001|DEPO GEDANGAN|ABCDEFGHIJKLMNO|JOHAN KURNIAWAN|2020-08-14 05:22:04|2021-08-14 05:22:04|T
C624C9377B27FAE9|2814|2814||U|2001|DEPO GEDANGAN|ABCDEFGHIJKLMNO|ANDHY RASYD|2020-08-14 05:22:04|2021-08-14 05:22:04|T
C624C9377B27FAE9|2815|2815||U|2001|DEPO GEDANGAN|ABCDEFGHIJKLMNO|KELIK AGUS|2020-08-14 05:22:04|2021-08-14 05:22:04|T
C624C9377B27FAE9|2816|2816||U|2001|DEPO GEDANGAN|ABCDEFGHIJKLMNO|DWI JOKO|2020-08-14 05:22:04|2021-08-14 05:22:04|T
C624C9377B27FAE9|2817|2817||U|2001|DEPO GEDANGAN|ABCDEFGHIJKLMNO|PRISMA ARIF SUGANDA|2020-08-14 05:22:04|2021-08-14 05:22:04|T
C624C9377B27FAE9|2818|2818||U|2001|DEPO GEDANGAN|ABCDEFGHIJKLMNO|DONI ANDRIYANTO|2020-08-14 05:22:04|2021-08-14 05:22:04|T
C624C9377B27FAE9|2819|2819||U|2001|DEPO GEDANGAN|ABCDEFGHIJKLMNO|HENDRO SUSILO|2020-08-14 05:22:04|2021-08-14 05:22:04|T
C624C9377B27FAE9|2901|2901||U|2001|DEPO GEDANGAN|ABCDEFGHIJKLMNO|KANTOR|2020-08-14 05:22:04|2021-08-14 05:22:04|T
C624C9377B27FAE9|2902|2902||U|2001|DEPO GEDANGAN|ABCDEFGHIJKLMNO|ISWANTO|2020-08-14 05:22:04|2021-08-14 05:22:04|T
C624C9377B27FAE9|2903|2903||U|2001|DEPO GEDANGAN|ABCDEFGHIJKLMNO|SUTARDI|2020-08-14 05:22:04|2021-08-14 05:22:04|T
C624C9377B27FAE9|2904|2904||U|2001|DEPO GEDANGAN|ABCDEFGHIJKLMNO|DIDIT|2020-08-14 05:22:04|2021-08-14 05:22:04|T
C624C9377B27FAE9|2905|2905||U|2001|DEPO GEDANGAN|ABCDEFGHIJKLMNO|RONI|2020-08-14 05:22:04|2021-08-14 05:22:04|T
C624C9377B27FAE9|2906|2906||U|2001|DEPO GEDANGAN|ABCDEFGHIJKLMNO|PAK HENDRA|2020-08-14 05:22:04|2021-08-14 05:22:04|T
C624C9377B27FAE9|2907|2907||U|2001|DEPO GEDANGAN|ABCDEFGHIJKLMNO|SUGENG|2020-08-14 05:22:04|2021-08-14 05:22:04|T
C624C9377B27FAE9|2908|2908||U|2001|DEPO GEDANGAN|ABCDEFGHIJKLMNO|TRIANTO|2020-08-14 05:22:04|2021-08-14 05:22:04|T
C624C9377B27FAE9|2909|2909||U|2001|DEPO GEDANGAN|ABCDEFGHIJKLMNO|BASUKI|2020-08-14 05:22:04|2021-08-14 05:22:04|T
C624C9377B27FAE9|2910|2910||U|2001|DEPO GEDANGAN|ABCDEFGHIJKLMNO|FAHRUDIN|2020-08-14 05:22:04|2021-08-14 05:22:04|T
C624C9377B27FAE9|2911|2911||U|2001|DEPO GEDANGAN|ABCDEFGHIJKLMNO|ADI|2020-08-14 05:22:04|2021-08-14 05:22:04|T
C624C9377B27FAE9|2912|2912||U|2001|DEPO GEDANGAN|ABCDEFGHIJKLMNO|KUDUS|2020-08-14 05:22:04|2021-08-14 05:22:04|T
C624C9377B27FAE9|2913|2913||U|2001|DEPO GEDANGAN|ABCDEFGHIJKLMNO|SAMIAJI PUJOHASTONO|2020-08-14 05:22:04|2021-08-14 05:22:04|T
C624C9377B27FAE9|2914|2914||U|2001|DEPO GEDANGAN|ABCDEFGHIJKLMNO|PARDI|2020-08-14 05:22:04|2021-08-14 05:22:04|T
C624C9377B27FAE9|2915|2915||U|2001|DEPO GEDANGAN|ABCDEFGHIJKLMNO|SUHERU|2020-08-14 05:22:04|2021-08-14 05:22:04|T
C624C9377B27FAE9|2916|2916||U|2001|DEPO GEDANGAN|ABCDEFGHIJKLMNO|GHANDI|2020-08-14 05:22:04|2021-08-14 05:22:04|T
C624C9377B27FAE9|2917|2917||U|2001|DEPO GEDANGAN|ABCDEFGHIJKLMNO|NURHIDAYAT|2020-08-14 05:22:04|2021-08-14 05:22:04|T
C624C9377B27FAE9|2918|2918||U|2001|DEPO GEDANGAN|ABCDEFGHIJKLMNO|DIAN|2020-08-14 05:22:04|2021-08-14 05:22:04|T
C624C9377B27FAE9|2919|2919||U|2001|DEPO GEDANGAN|ABCDEFGHIJKLMNO|HERU|2020-08-14 05:22:04|2021-08-14 05:22:04|T
C624C9377B27FAE9|2920|2920||U|2001|DEPO GEDANGAN|ABCDEFGHIJKLMNO|HERI|2020-08-14 05:22:04|2021-08-14 05:22:04|T
C624C9377B27FAE9|2921|2921||U|2001|DEPO GEDANGAN|ABCDEFGHIJKLMNO|DENY|2020-08-14 05:22:04|2021-08-14 05:22:04|T
C624C9377B27FAE9|2922|2922||U|2001|DEPO GEDANGAN|ABCDEFGHIJKLMNO|PARDI|2020-08-14 05:22:04|2021-08-14 05:22:04|T
C624C9377B27FAE9|2923|2923||U|2001|DEPO GEDANGAN|ABCDEFGHIJKLMNO|ANDRI|2020-08-14 05:22:04|2021-08-14 05:22:04|T
C624C9377B27FAE9|2924|2924||U|2001|DEPO GEDANGAN|ABCDEFGHIJKLMNO|BAMBANG|2020-08-14 05:22:04|2021-08-14 05:22:04|T
C624C9377B27FAE9|2925|2925||U|2001|DEPO GEDANGAN|ABCDEFGHIJKLMNO|UNTUNG|2020-08-14 05:22:04|2021-08-14 05:22:04|T
C624C9377B27FAE9|2926|2926||U|2001|DEPO GEDANGAN|ABCDEFGHIJKLMNO|TRIYONO|2020-08-14 05:22:04|2021-08-14 05:22:04|T
C624C9377B27FAE9|2927|2927||U|2001|DEPO GEDANGAN|ABCDEFGHIJKLMNO|UNTUNG TRI|2020-08-14 05:22:04|2021-08-14 05:22:04|T
C624C9377B27FAE9|2928|2928||U|2001|DEPO GEDANGAN|ABCDEFGHIJKLMNO|DENNY|2020-08-14 05:22:04|2021-08-14 05:22:04|T
C624C9377B27FAE9|2929|2929||U|2001|DEPO GEDANGAN|ABCDEFGHIJKLMNO|ANDY|2020-08-14 05:22:04|2021-08-14 05:22:04|T
C624C9377B27FAE9|2930|2930||U|2001|DEPO GEDANGAN|ABCDEFGHIJKLMNO|AGUNG SISWOYO|2020-08-14 05:22:04|2021-08-14 05:22:04|T
C624C9377B27FAE9|2931|2931||U|2001|DEPO GEDANGAN|ABCDEFGHIJKLMNO|TARDI|2020-08-14 05:22:04|2021-08-14 05:22:04|T
C624C9377B27FAE9|2932|2932||U|2001|DEPO GEDANGAN|ABCDEFGHIJKLMNO|YENNY|2020-08-14 05:22:04|2021-08-14 05:22:04|T
C624C9377B27FAE9|2933|2933||U|2001|DEPO GEDANGAN|ABCDEFGHIJKLMNO|HERI|2020-08-14 05:22:04|2021-08-14 05:22:04|T
C624C9377B27FAE9|2934|2934||U|2001|DEPO GEDANGAN|ABCDEFGHIJKLMNO|TITIN|2020-08-14 05:22:04|2021-08-14 05:22:04|T
C624C9377B27FAE9|2935|2935||U|2001|DEPO GEDANGAN|ABCDEFGHIJKLMNO|AGUNG|2020-08-14 05:22:04|2021-08-14 05:22:04|T
C624C9377B27FAE9|2936|2936||U|2001|DEPO GEDANGAN|ABCDEFGHIJKLMNO|Dyah|2020-08-14 05:22:04|2021-08-14 05:22:04|T
C624C9377B27FAE9|2B01|2B01||U|2001|DEPO GEDANGAN|ABCDEFGHIJKLMNO|KANTOR MAKASAR|2020-08-14 05:22:04|2021-08-14 05:22:04|T
C624C9377B27FAE9|2B02|2B02||U|2001|DEPO GEDANGAN|ABCDEFGHIJKLMNO|AGUS SUSANTO|2020-08-14 05:22:04|2021-08-14 05:22:04|T
C624C9377B27FAE9|2B03|2B03||U|2001|DEPO GEDANGAN|ABCDEFGHIJKLMNO|LATVENTIUS BENEDICTU|2020-08-14 05:22:04|2021-08-14 05:22:04|T
C624C9377B27FAE9|2B04|2B04||U|2001|DEPO GEDANGAN|ABCDEFGHIJKLMNO|SYAHRIL SYAM|2020-08-14 05:22:04|2021-08-14 05:22:04|T
C624C9377B27FAE9|2B05|2B05||U|2001|DEPO GEDANGAN|ABCDEFGHIJKLMNO|HENDRY|2020-08-14 05:22:04|2021-08-14 05:22:04|T
C624C9377B27FAE9|2B06|2B06||U|2001|DEPO GEDANGAN|ABCDEFGHIJKLMNO|M SAID|2020-08-14 05:22:04|2021-08-14 05:22:04|T
C624C9377B27FAE9|2B07|2B07||U|2001|DEPO GEDANGAN|ABCDEFGHIJKLMNO|ADE IRVAN SUNARYO|2020-08-14 05:22:04|2021-08-14 05:22:04|T
C624C9377B27FAE9|2B08|2B08||U|2001|DEPO GEDANGAN|ABCDEFGHIJKLMNO|SULKARNAIN IDRIS|2020-08-14 05:22:04|2021-08-14 05:22:04|T
C624C9377B27FAE9|2B09|2B09||U|2001|DEPO GEDANGAN|ABCDEFGHIJKLMNO|KHAIRUL A|2020-08-14 05:22:04|2021-08-14 05:22:04|T
C624C9377B27FAE9|2B10|2B10||U|2001|DEPO GEDANGAN|ABCDEFGHIJKLMNO|IRFAN|2020-08-14 05:22:04|2021-08-14 05:22:04|T
C624C9377B27FAE9|2B11|2B11||U|2001|DEPO GEDANGAN|ABCDEFGHIJKLMNO|MULYADI|2020-08-14 05:22:04|2021-08-14 05:22:04|T
C624C9377B27FAE9|2B12|2B12||U|2001|DEPO GEDANGAN|ABCDEFGHIJKLMNO|MUH. ARMAN ARHAS|2020-08-14 05:22:04|2021-08-14 05:22:04|T
C624C9377B27FAE9|2B13|2B13||U|2001|DEPO GEDANGAN|ABCDEFGHIJKLMNO|NUR HUSAIN|2020-08-14 05:22:04|2021-08-14 05:22:04|T
C624C9377B27FAE9|2B14|2B14||U|2001|DEPO GEDANGAN|ABCDEFGHIJKLMNO|SLAMET RIYADI|2020-08-14 05:22:04|2021-08-14 05:22:04|T
C624C9377B27FAE9|2B15|2B15||U|2001|DEPO GEDANGAN|ABCDEFGHIJKLMNO|SUDIRMAN|2020-08-14 05:22:04|2021-08-14 05:22:04|T
C624C9377B27FAE9|2B16|2B16||U|2001|DEPO GEDANGAN|ABCDEFGHIJKLMNO|SURYADI|2020-08-14 05:22:04|2021-08-14 05:22:04|T
C624C9377B27FAE9|2B17|2B17||U|2001|DEPO GEDANGAN|ABCDEFGHIJKLMNO|MUH. SYARIF WAHID|2020-08-14 05:22:04|2021-08-14 05:22:04|T
C624C9377B27FAE9|2B18|2B18||U|2001|DEPO GEDANGAN|ABCDEFGHIJKLMNO|HARUN HADIWIJONO|2020-08-14 05:22:04|2021-08-14 05:22:04|T
C624C9377B27FAE9|2B19|2B19||U|2001|DEPO GEDANGAN|ABCDEFGHIJKLMNO|MANSYUR SITABA|2020-08-14 05:22:04|2021-08-14 05:22:04|T
C624C9377B27FAE9|2B20|2B20||U|2001|DEPO GEDANGAN|ABCDEFGHIJKLMNO|AHMAD NUR|2020-08-14 05:22:04|2021-08-14 05:22:04|T
C624C9377B27FAE9|2B21|2B21||U|2001|DEPO GEDANGAN|ABCDEFGHIJKLMNO|ISWAN ABUBAKAR|2020-08-14 05:22:04|2021-08-14 05:22:04|T
C624C9377B27FAE9|2B22|2B22||U|2001|DEPO GEDANGAN|ABCDEFGHIJKLMNO|FREDERIK RIZAL MALLI|2020-08-14 05:22:04|2021-08-14 05:22:04|T
C624C9377B27FAE9|2B23|2B23||U|2001|DEPO GEDANGAN|ABCDEFGHIJKLMNO|BUDI HARTONO|2020-08-14 05:22:04|2021-08-14 05:22:04|T
C624C9377B27FAE9|2B24|2B24||U|2001|DEPO GEDANGAN|ABCDEFGHIJKLMNO|WIRAL|2020-08-14 05:22:04|2021-08-14 05:22:04|T
C624C9377B27FAE9|2B25|2B25||U|2001|DEPO GEDANGAN|ABCDEFGHIJKLMNO|ANDI MAPPATUNRU|2020-08-14 05:22:04|2021-08-14 05:22:04|T
C624C9377B27FAE9|2B26|2B26||U|2001|DEPO GEDANGAN|ABCDEFGHIJKLMNO|NURYADIN MULYADI|2020-08-14 05:22:04|2021-08-14 05:22:04|T
C624C9377B27FAE9|2B27|2B27||U|2001|DEPO GEDANGAN|ABCDEFGHIJKLMNO|AMIRUDDIN|2020-08-14 05:22:04|2021-08-14 05:22:04|T
C624C9377B27FAE9|2B28|2B28||U|2001|DEPO GEDANGAN|ABCDEFGHIJKLMNO|MUHADIR|2020-08-14 05:22:04|2021-08-14 05:22:04|T
C624C9377B27FAE9|2B29|2B29||U|2001|DEPO GEDANGAN|ABCDEFGHIJKLMNO|ZULFIKRI|2020-08-14 05:22:04|2021-08-14 05:22:04|T
C624C9377B27FAE9|2B30|2B30||U|2001|DEPO GEDANGAN|ABCDEFGHIJKLMNO|NAJAMUDDIN|2020-08-14 05:22:04|2021-08-14 05:22:04|T
C624C9377B27FAE9|2B31|2B31||U|2001|DEPO GEDANGAN|ABCDEFGHIJKLMNO|MUH ILHAM|2020-08-14 05:22:04|2021-08-14 05:22:04|T
C624C9377B27FAE9|2B32|2B32||U|2001|DEPO GEDANGAN|ABCDEFGHIJKLMNO|HAMID|2020-08-14 05:22:04|2021-08-14 05:22:04|T
C624C9377B27FAE9|2B33|2B33||U|2001|DEPO GEDANGAN|ABCDEFGHIJKLMNO|ANWAR|2020-08-14 05:22:04|2021-08-14 05:22:04|T
C624C9377B27FAE9|2B34|2B34||U|2001|DEPO GEDANGAN|ABCDEFGHIJKLMNO|LILIAWATI|2020-08-14 05:22:04|2021-08-14 05:22:04|T
C624C9377B27FAE9|2B35|2B35||U|2001|DEPO GEDANGAN|ABCDEFGHIJKLMNO|SYAMSUL BACHRI|2020-08-14 05:22:04|2021-08-14 05:22:04|T
C624C9377B27FAE9|2B36|2B36||U|2001|DEPO GEDANGAN|ABCDEFGHIJKLMNO|FITRIA JUSUF|2020-08-14 05:22:04|2021-08-14 05:22:04|T
C624C9377B27FAE9|2B37|2B37||U|2001|DEPO GEDANGAN|ABCDEFGHIJKLMNO|RUSTAM|2020-08-14 05:22:04|2021-08-14 05:22:04|T
C624C9377B27FAE9|2B6D|2B6D||U|2001|DEPO GEDANGAN|ABCDEFGHIJKLMNO|ADE IRVAN SUNARYO (T|2020-08-14 05:22:04|2021-08-14 05:22:04|T
C624C9377B27FAE9|2B6P|2B6P||U|2001|DEPO GEDANGAN|ABCDEFGHIJKLMNO|ADE IRVAN SUNARYO (T|2020-08-14 05:22:04|2021-08-14 05:22:04|T
C624C9377B27FAE9|2B7D|2B7D||U|2001|DEPO GEDANGAN|ABCDEFGHIJKLMNO|SULKARNAIN IDRIS (TO|2020-08-14 05:22:04|2021-08-14 05:22:04|T
C624C9377B27FAE9|2B7P|2B7P||U|2001|DEPO GEDANGAN|ABCDEFGHIJKLMNO|SULKARNAIN IDRIS (TO|2020-08-14 05:22:04|2021-08-14 05:22:04|T
C624C9377B27FAE9|2C01|2C01||U|2001|DEPO GEDANGAN|ABCDEFGHIJKLMNO|KANTOR CITEUREUP|2020-08-14 05:22:04|2021-08-14 05:22:04|T
C624C9377B27FAE9|2C02|2C02||U|2001|DEPO GEDANGAN|ABCDEFGHIJKLMNO|SANUSI CITEUREUP|2020-08-14 05:22:04|2021-08-14 05:22:04|T
C624C9377B27FAE9|2C03|2C03||U|2001|DEPO GEDANGAN|ABCDEFGHIJKLMNO|Sartimin|2020-08-14 05:22:04|2021-08-14 05:22:04|T
C624C9377B27FAE9|2C04|2C04||U|2001|DEPO GEDANGAN|ABCDEFGHIJKLMNO|Parjiyo|2020-08-14 05:22:04|2021-08-14 05:22:04|T
C624C9377B27FAE9|2C05|2C05||U|2001|DEPO GEDANGAN|ABCDEFGHIJKLMNO|Samto|2020-08-14 05:22:04|2021-08-14 05:22:04|T
C624C9377B27FAE9|2C06|2C06||U|2001|DEPO GEDANGAN|ABCDEFGHIJKLMNO|Widodo|2020-08-14 05:22:04|2021-08-14 05:22:04|T
C624C9377B27FAE9|2C07|2C07||U|2001|DEPO GEDANGAN|ABCDEFGHIJKLMNO|Ujang |2020-08-14 05:22:04|2021-08-14 05:22:04|T
C624C9377B27FAE9|2C08|2C08||U|2001|DEPO GEDANGAN|ABCDEFGHIJKLMNO|Panggih|2020-08-14 05:22:04|2021-08-14 05:22:04|T
C624C9377B27FAE9|2C09|2C09||U|2001|DEPO GEDANGAN|ABCDEFGHIJKLMNO|Sony|2020-08-14 05:22:04|2021-08-14 05:22:04|T
C624C9377B27FAE9|2C10|2C10||U|2001|DEPO GEDANGAN|ABCDEFGHIJKLMNO|Imron|2020-08-14 05:22:04|2021-08-14 05:22:04|T
C624C9377B27FAE9|2C11|2C11||U|2001|DEPO GEDANGAN|ABCDEFGHIJKLMNO|Fathur|2020-08-14 05:22:04|2021-08-14 05:22:04|T
C624C9377B27FAE9|2C12|2C12||U|2001|DEPO GEDANGAN|ABCDEFGHIJKLMNO|Suprapto|2020-08-14 05:22:04|2021-08-14 05:22:04|T
C624C9377B27FAE9|2C13|2C13||U|2001|DEPO GEDANGAN|ABCDEFGHIJKLMNO|Tajudin|2020-08-14 05:22:04|2021-08-14 05:22:04|T
C624C9377B27FAE9|2C14|2C14||U|2001|DEPO GEDANGAN|ABCDEFGHIJKLMNO|Yadi|2020-08-14 05:22:04|2021-08-14 05:22:04|T
C624C9377B27FAE9|2C15|2C15||U|2001|DEPO GEDANGAN|ABCDEFGHIJKLMNO|Enoh |2020-08-14 05:22:04|2021-08-14 05:22:04|T
C624C9377B27FAE9|2C16|2C16||U|2001|DEPO GEDANGAN|ABCDEFGHIJKLMNO|Nino|2020-08-14 05:22:04|2021-08-14 05:22:04|T
C624C9377B27FAE9|2C17|2C17||U|2001|DEPO GEDANGAN|ABCDEFGHIJKLMNO|Deni. A|2020-08-14 05:22:04|2021-08-14 05:22:04|T
C624C9377B27FAE9|2C18|2C18||U|2001|DEPO GEDANGAN|ABCDEFGHIJKLMNO|Deni.B|2020-08-14 05:22:04|2021-08-14 05:22:04|T
C624C9377B27FAE9|2C19|2C19||U|2001|DEPO GEDANGAN|ABCDEFGHIJKLMNO|IWAN|2020-08-14 05:22:04|2021-08-14 05:22:04|T
C624C9377B27FAE9|2C20|2C20||U|2001|DEPO GEDANGAN|ABCDEFGHIJKLMNO|DAVID|2020-08-14 05:22:04|2021-08-14 05:22:04|T
C624C9377B27FAE9|2C21|2C21||U|2001|DEPO GEDANGAN|ABCDEFGHIJKLMNO|RIDWAN|2020-08-14 05:22:04|2021-08-14 05:22:04|T
C624C9377B27FAE9|2C22|2C22||U|2001|DEPO GEDANGAN|ABCDEFGHIJKLMNO|ASMAN|2020-08-14 05:22:04|2021-08-14 05:22:04|T
C624C9377B27FAE9|2C23|2C23||U|2001|DEPO GEDANGAN|ABCDEFGHIJKLMNO|RAHMAT|2020-08-14 05:22:04|2021-08-14 05:22:04|T
C624C9377B27FAE9|2C24|2C24||U|2001|DEPO GEDANGAN|ABCDEFGHIJKLMNO|SENDI|2020-08-14 05:22:04|2021-08-14 05:22:04|T
C624C9377B27FAE9|2C25|2C25||U|2001|DEPO GEDANGAN|ABCDEFGHIJKLMNO|ENDANG|2020-08-14 05:22:04|2021-08-14 05:22:04|T
C624C9377B27FAE9|2C26|2C26||U|2001|DEPO GEDANGAN|ABCDEFGHIJKLMNO|KURDI|2020-08-14 05:22:04|2021-08-14 05:22:04|T
C624C9377B27FAE9|2C27|2C27||U|2001|DEPO GEDANGAN|ABCDEFGHIJKLMNO|PIDIN|2020-08-14 05:22:04|2021-08-14 05:22:04|T
C624C9377B27FAE9|2C28|2C28||U|2001|DEPO GEDANGAN|ABCDEFGHIJKLMNO|SUDRAJAT|2020-08-14 05:22:04|2021-08-14 05:22:04|T
C624C9377B27FAE9|2C29|2C29||U|2001|DEPO GEDANGAN|ABCDEFGHIJKLMNO|SANIN|2020-08-14 05:22:04|2021-08-14 05:22:04|T
C624C9377B27FAE9|2C30|2C30||U|2001|DEPO GEDANGAN|ABCDEFGHIJKLMNO|HERU|2020-08-14 05:22:04|2021-08-14 05:22:04|T
C624C9377B27FAE9|2C31|2C31||U|2001|DEPO GEDANGAN|ABCDEFGHIJKLMNO|SUMANTRI|2020-08-14 05:22:04|2021-08-14 05:22:04|T
C624C9377B27FAE9|2C32|2C32||U|2001|DEPO GEDANGAN|ABCDEFGHIJKLMNO|SUKARIADI|2020-08-14 05:22:04|2021-08-14 05:22:04|T
C624C9377B27FAE9|2C33|2C33||U|2001|DEPO GEDANGAN|ABCDEFGHIJKLMNO|YUDHA|2020-08-14 05:22:04|2021-08-14 05:22:04|T
C624C9377B27FAE9|2C34|2C34||U|2001|DEPO GEDANGAN|ABCDEFGHIJKLMNO|BUDI|2020-08-14 05:22:04|2021-08-14 05:22:04|T
C624C9377B27FAE9|2C35|2C35||U|2001|DEPO GEDANGAN|ABCDEFGHIJKLMNO|SAEFRUDIN|2020-08-14 05:22:04|2021-08-14 05:22:04|T
C624C9377B27FAE9|2C36|2C36||U|2001|DEPO GEDANGAN|ABCDEFGHIJKLMNO|IAN|2020-08-14 05:22:04|2021-08-14 05:22:04|T
C624C9377B27FAE9|2C37|2C37||U|2001|DEPO GEDANGAN|ABCDEFGHIJKLMNO|R.Sati|2020-08-14 05:22:04|2021-08-14 05:22:04|T
C624C9377B27FAE9|2C38|2C38||U|2001|DEPO GEDANGAN|ABCDEFGHIJKLMNO|DADAN|2020-08-14 05:22:04|2021-08-14 05:22:04|T
C624C9377B27FAE9|2C39|2C39||U|2001|DEPO GEDANGAN|ABCDEFGHIJKLMNO|DASEP|2020-08-14 05:22:04|2021-08-14 05:22:04|T
C624C9377B27FAE9|2C40|2C40||U|2001|DEPO GEDANGAN|ABCDEFGHIJKLMNO|DEDEN|2020-08-14 05:22:04|2021-08-14 05:22:04|T
C624C9377B27FAE9|2C41|2C41||U|2001|DEPO GEDANGAN|ABCDEFGHIJKLMNO|HENDAR|2020-08-14 05:22:04|2021-08-14 05:22:04|T
C624C9377B27FAE9|2C42|2C42||U|2001|DEPO GEDANGAN|ABCDEFGHIJKLMNO|DINA|2020-08-14 05:22:04|2021-08-14 05:22:04|T
C624C9377B27FAE9|2C43|2C43||U|2001|DEPO GEDANGAN|ABCDEFGHIJKLMNO|ANGEL|2020-08-14 05:22:04|2021-08-14 05:22:04|T
C624C9377B27FAE9|2C44|2C44||U|2001|DEPO GEDANGAN|ABCDEFGHIJKLMNO|BUDI|2020-08-14 05:22:04|2021-08-14 05:22:04|T
C624C9377B27FAE9|2C45|2C45||U|2001|DEPO GEDANGAN|ABCDEFGHIJKLMNO|Sandra|2020-08-14 05:22:04|2021-08-14 05:22:04|T
C624C9377B27FAE9|2C46|2C46||U|2001|DEPO GEDANGAN|ABCDEFGHIJKLMNO|DIDIK|2020-08-14 05:22:04|2021-08-14 05:22:04|T
C624C9377B27FAE9|2C47|2C47||U|2001|DEPO GEDANGAN|ABCDEFGHIJKLMNO|HARDIN|2020-08-14 05:22:04|2021-08-14 05:22:04|T
C624C9377B27FAE9|2C48|2C48||U|2001|DEPO GEDANGAN|ABCDEFGHIJKLMNO|PEPEN|2020-08-14 05:22:04|2021-08-14 05:22:04|T
C624C9377B27FAE9|2C49|2C49||U|2001|DEPO GEDANGAN|ABCDEFGHIJKLMNO|ADEN|2020-08-14 05:22:04|2021-08-14 05:22:04|T
C624C9377B27FAE9|2C50|2C50||U|2001|DEPO GEDANGAN|ABCDEFGHIJKLMNO|HARYADI|2020-08-14 05:22:04|2021-08-14 05:22:04|T
C624C9377B27FAE9|2C51|2C51||U|2001|DEPO GEDANGAN|ABCDEFGHIJKLMNO|NANDA|2020-08-14 05:22:04|2021-08-14 05:22:04|T
C624C9377B27FAE9|2C52|2C52||U|2001|DEPO GEDANGAN|ABCDEFGHIJKLMNO|YAMIN|2020-08-14 05:22:04|2021-08-14 05:22:04|T
C624C9377B27FAE9|2C53|2C53||U|2001|DEPO GEDANGAN|ABCDEFGHIJKLMNO|ENTIS|2020-08-14 05:22:04|2021-08-14 05:22:04|T
C624C9377B27FAE9|2C54|2C54||U|2001|DEPO GEDANGAN|ABCDEFGHIJKLMNO|EDI|2020-08-14 05:22:04|2021-08-14 05:22:04|T
C624C9377B27FAE9|2C55|2C55||U|2001|DEPO GEDANGAN|ABCDEFGHIJKLMNO|IYUS|2020-08-14 05:22:04|2021-08-14 05:22:04|T
C624C9377B27FAE9|2C56|2C56||U|2001|DEPO GEDANGAN|ABCDEFGHIJKLMNO|KUNCORO|2020-08-14 05:22:04|2021-08-14 05:22:04|T
C624C9377B27FAE9|2C57|2C57||U|2001|DEPO GEDANGAN|ABCDEFGHIJKLMNO|IWAN KUSWANTO|2020-08-14 05:22:04|2021-08-14 05:22:04|T
C624C9377B27FAE9|2C58|2C58||U|2001|DEPO GEDANGAN|ABCDEFGHIJKLMNO|D SUDRAJAT|2020-08-14 05:22:04|2021-08-14 05:22:04|T
C624C9377B27FAE9|2C59|2C59||U|2001|DEPO GEDANGAN|ABCDEFGHIJKLMNO|ALIFUDIN|2020-08-14 05:22:04|2021-08-14 05:22:04|T
C624C9377B27FAE9|2C60|2C60||U|2001|DEPO GEDANGAN|ABCDEFGHIJKLMNO|ADJIE S|2020-08-14 05:22:04|2021-08-14 05:22:04|T
C624C9377B27FAE9|2C61|2C61||U|2001|DEPO GEDANGAN|ABCDEFGHIJKLMNO|UKAR|2020-08-14 05:22:04|2021-08-14 05:22:04|T
C624C9377B27FAE9|2C62|2C62||U|2001|DEPO GEDANGAN|ABCDEFGHIJKLMNO|ACIM|2020-08-14 05:22:04|2021-08-14 05:22:04|T
C624C9377B27FAE9|2C63|2C63||U|2001|DEPO GEDANGAN|ABCDEFGHIJKLMNO|DOVI|2020-08-14 05:22:04|2021-08-14 05:22:04|T
C624C9377B27FAE9|2C64|2C64||U|2001|DEPO GEDANGAN|ABCDEFGHIJKLMNO|SAPTORI|2020-08-14 05:22:04|2021-08-14 05:22:04|T
C624C9377B27FAE9|2C65|2C65||U|2001|DEPO GEDANGAN|ABCDEFGHIJKLMNO|HAMID HIDAYAT|2020-08-14 05:22:04|2021-08-14 05:22:04|T
C624C9377B27FAE9|2C66|2C66||U|2001|DEPO GEDANGAN|ABCDEFGHIJKLMNO|SARMUJI|2020-08-14 05:22:04|2021-08-14 05:22:04|T
C624C9377B27FAE9|2C67|2C67||U|2001|DEPO GEDANGAN|ABCDEFGHIJKLMNO|AGUS PAMUNGKAS|2020-08-14 05:22:04|2021-08-14 05:22:04|T
C624C9377B27FAE9|2C68|2C68||U|2001|DEPO GEDANGAN|ABCDEFGHIJKLMNO|IMAM|2020-08-14 05:22:04|2021-08-14 05:22:04|T
C624C9377B27FAE9|2C69|2C69||U|2001|DEPO GEDANGAN|ABCDEFGHIJKLMNO|NURKHOLIS|2020-08-14 05:22:04|2021-08-14 05:22:04|T
C624C9377B27FAE9|2C70|2C70||U|2001|DEPO GEDANGAN|ABCDEFGHIJKLMNO|ARI|2020-08-14 05:22:04|2021-08-14 05:22:04|T
C624C9377B27FAE9|2C71|2C71||U|2001|DEPO GEDANGAN|ABCDEFGHIJKLMNO|DENI C|2020-08-14 05:22:04|2021-08-14 05:22:04|T
C624C9377B27FAE9|2C72|2C72||U|2001|DEPO GEDANGAN|ABCDEFGHIJKLMNO|SOBIRIN|2020-08-14 05:22:04|2021-08-14 05:22:04|T
C624C9377B27FAE9|2C73|2C73||U|2001|DEPO GEDANGAN|ABCDEFGHIJKLMNO|SUHENDRA|2020-08-14 05:22:04|2021-08-14 05:22:04|T
C624C9377B27FAE9|2C74|2C74||U|2001|DEPO GEDANGAN|ABCDEFGHIJKLMNO|TOHIRIN|2020-08-14 05:22:04|2021-08-14 05:22:04|T
C624C9377B27FAE9|2C75|2C75||U|2001|DEPO GEDANGAN|ABCDEFGHIJKLMNO|WAHYU NUGROHO|2020-08-14 05:22:04|2021-08-14 05:22:04|T
C624C9377B27FAE9|2C76|2C76||U|2001|DEPO GEDANGAN|ABCDEFGHIJKLMNO|MINTARYA|2020-08-14 05:22:04|2021-08-14 05:22:04|T
C624C9377B27FAE9|2C77|2C77||U|2001|DEPO GEDANGAN|ABCDEFGHIJKLMNO|ANDI|2020-08-14 05:22:04|2021-08-14 05:22:04|T
C624C9377B27FAE9|2C78|2C78||U|2001|DEPO GEDANGAN|ABCDEFGHIJKLMNO|RAJAMUDA|2020-08-14 05:22:04|2021-08-14 05:22:04|T
C624C9377B27FAE9|2C79|2C79||U|2001|DEPO GEDANGAN|ABCDEFGHIJKLMNO|DIDIT|2020-08-14 05:22:04|2021-08-14 05:22:04|T
C624C9377B27FAE9|2C80|2C80||U|2001|DEPO GEDANGAN|ABCDEFGHIJKLMNO|DIDIT BP|2020-08-14 05:22:04|2021-08-14 05:22:04|T
C624C9377B27FAE9|2C81|2C81||U|2001|DEPO GEDANGAN|ABCDEFGHIJKLMNO|BUDI DIAN|2020-08-14 05:22:04|2021-08-14 05:22:04|T
C624C9377B27FAE9|2C82|2C82||U|2001|DEPO GEDANGAN|ABCDEFGHIJKLMNO|TENI|2020-08-14 05:22:04|2021-08-14 05:22:04|T
C624C9377B27FAE9|2C83|2C83||U|2001|DEPO GEDANGAN|ABCDEFGHIJKLMNO|ADI SUNARDI|2020-08-14 05:22:04|2021-08-14 05:22:04|T
C624C9377B27FAE9|2C84|2C84||U|2001|DEPO GEDANGAN|ABCDEFGHIJKLMNO|ZIGAR|2020-08-14 05:22:04|2021-08-14 05:22:04|T
C624C9377B27FAE9|2C85|2C85||U|2001|DEPO GEDANGAN|ABCDEFGHIJKLMNO|HERI B|2020-08-14 05:22:04|2021-08-14 05:22:04|T
C624C9377B27FAE9|2C86|2C86||U|2001|DEPO GEDANGAN|ABCDEFGHIJKLMNO|HAMDANI|2020-08-14 05:22:04|2021-08-14 05:22:04|T
C624C9377B27FAE9|2C87|2C87||U|2001|DEPO GEDANGAN|ABCDEFGHIJKLMNO|ALI YUSUF|2020-08-14 05:22:04|2021-08-14 05:22:04|T
C624C9377B27FAE9|2C88|2C88||U|2001|DEPO GEDANGAN|ABCDEFGHIJKLMNO|AHMAD CTR|2020-08-14 05:22:04|2021-08-14 05:22:04|T
C624C9377B27FAE9|2C89|2C89||U|2001|DEPO GEDANGAN|ABCDEFGHIJKLMNO|HERMAN CTR|2020-08-14 05:22:04|2021-08-14 05:22:04|T
C624C9377B27FAE9|2C90|2C90||U|2001|DEPO GEDANGAN|ABCDEFGHIJKLMNO|HERI RUDHIONO|2020-08-14 05:22:04|2021-08-14 05:22:04|T
C624C9377B27FAE9|2C91|2C91||U|2001|DEPO GEDANGAN|ABCDEFGHIJKLMNO|ASEP SUDARAJAT|2020-08-14 05:22:04|2021-08-14 05:22:04|T
C624C9377B27FAE9|2C92|2C92||U|2001|DEPO GEDANGAN|ABCDEFGHIJKLMNO|ARDIANTO|2020-08-14 05:22:04|2021-08-14 05:22:04|T
C624C9377B27FAE9|2C93|2C93||U|2001|DEPO GEDANGAN|ABCDEFGHIJKLMNO|SYAHRIAL|2020-08-14 05:22:04|2021-08-14 05:22:04|T
C624C9377B27FAE9|2C94|2C94||U|2001|DEPO GEDANGAN|ABCDEFGHIJKLMNO|RONALD|2020-08-14 05:22:04|2021-08-14 05:22:04|T
C624C9377B27FAE9|2C95|2C95||U|2001|DEPO GEDANGAN|ABCDEFGHIJKLMNO|ALI SAID|2020-08-14 05:22:04|2021-08-14 05:22:04|T
C624C9377B27FAE9|2C96|2C96||U|2001|DEPO GEDANGAN|ABCDEFGHIJKLMNO|JACKSON|2020-08-14 05:22:04|2021-08-14 05:22:04|T
C624C9377B27FAE9|2C97|2C97||U|2001|DEPO GEDANGAN|ABCDEFGHIJKLMNO|DAYAT|2020-08-14 05:22:04|2021-08-14 05:22:04|T
C624C9377B27FAE9|2C98|2C98||U|2001|DEPO GEDANGAN|ABCDEFGHIJKLMNO|MISWANTO|2020-08-14 05:22:04|2021-08-14 05:22:04|T
C624C9377B27FAE9|2C99|2C99||U|2001|DEPO GEDANGAN|ABCDEFGHIJKLMNO|ANWAR ABDULLAH|2020-08-14 05:22:04|2021-08-14 05:22:04|T
C624C9377B27FAE9|2CA1|2CA1||U|2001|DEPO GEDANGAN|ABCDEFGHIJKLMNO|IBRAHIM|2020-08-14 05:22:04|2021-08-14 05:22:04|T
C624C9377B27FAE9|2CA2|2CA2||U|2001|DEPO GEDANGAN|ABCDEFGHIJKLMNO|TATANG SUHENDRA|2020-08-14 05:22:04|2021-08-14 05:22:04|T
C624C9377B27FAE9|2CA3|2CA3||U|2001|DEPO GEDANGAN|ABCDEFGHIJKLMNO|NOVIANTO|2020-08-14 05:22:04|2021-08-14 05:22:04|T
C624C9377B27FAE9|2CA4|2CA4||U|2001|DEPO GEDANGAN|ABCDEFGHIJKLMNO|ENTANG|2020-08-14 05:22:04|2021-08-14 05:22:04|T
C624C9377B27FAE9|2CA5|2CA5||U|2001|DEPO GEDANGAN|ABCDEFGHIJKLMNO|ARIS KURNIAWAN|2020-08-14 05:22:04|2021-08-14 05:22:04|T
C624C9377B27FAE9|2CA6|2CA6||U|2001|DEPO GEDANGAN|ABCDEFGHIJKLMNO|MASAN|2020-08-14 05:22:04|2021-08-14 05:22:04|T
C624C9377B27FAE9|2CA7|2CA7||U|2001|DEPO GEDANGAN|ABCDEFGHIJKLMNO|MINAN|2020-08-14 05:22:04|2021-08-14 05:22:04|T
C624C9377B27FAE9|2CA8|2CA8||U|2001|DEPO GEDANGAN|ABCDEFGHIJKLMNO|ASEP SP|2020-08-14 05:22:04|2021-08-14 05:22:04|T
C624C9377B27FAE9|2CA9|2CA9||U|2001|DEPO GEDANGAN|ABCDEFGHIJKLMNO|SANTOSO|2020-08-14 05:22:04|2021-08-14 05:22:04|T
C624C9377B27FAE9|2CB1|2CB1||U|2001|DEPO GEDANGAN|ABCDEFGHIJKLMNO|WAGIONO|2020-08-14 05:22:04|2021-08-14 05:22:04|T
C624C9377B27FAE9|2CB2|2CB2||U|2001|DEPO GEDANGAN|ABCDEFGHIJKLMNO|RUDY HARSONO|2020-08-14 05:22:04|2021-08-14 05:22:04|T
C624C9377B27FAE9|2CB3|2CB3||U|2001|DEPO GEDANGAN|ABCDEFGHIJKLMNO|IBRAHIM RH|2020-08-14 05:22:04|2021-08-14 05:22:04|T
C624C9377B27FAE9|2CB4|2CB4||U|2001|DEPO GEDANGAN|ABCDEFGHIJKLMNO|UJANG ACANG|2020-08-14 05:22:04|2021-08-14 05:22:04|T
C624C9377B27FAE9|2CB5|2CB5||U|2001|DEPO GEDANGAN|ABCDEFGHIJKLMNO|BARKAH BD|2020-08-14 05:22:04|2021-08-14 05:22:04|T
C624C9377B27FAE9|2CB6|2CB6||U|2001|DEPO GEDANGAN|ABCDEFGHIJKLMNO|KRISTIAWAN|2020-08-14 05:22:04|2021-08-14 05:22:04|T
C624C9377B27FAE9|2D01|2D01||U|2001|DEPO GEDANGAN|ABCDEFGHIJKLMNO|HERMAN|2020-08-14 05:22:04|2021-08-14 05:22:04|T
C624C9377B27FAE9|2D02|2D02||U|2001|DEPO GEDANGAN|ABCDEFGHIJKLMNO|DADANG|2020-08-14 05:22:04|2021-08-14 05:22:04|T
C624C9377B27FAE9|2D03|2D03||U|2001|DEPO GEDANGAN|ABCDEFGHIJKLMNO|ASEP|2020-08-14 05:22:04|2021-08-14 05:22:04|T
C624C9377B27FAE9|2D04|2D04||U|2001|DEPO GEDANGAN|ABCDEFGHIJKLMNO|AWAL TURYONO|2020-08-14 05:22:04|2021-08-14 05:22:04|T
C624C9377B27FAE9|2D05|2D05||U|2001|DEPO GEDANGAN|ABCDEFGHIJKLMNO|BUDIONO|2020-08-14 05:22:04|2021-08-14 05:22:04|T
C624C9377B27FAE9|2D06|2D06||U|2001|DEPO GEDANGAN|ABCDEFGHIJKLMNO|DODI HIMAWAN|2020-08-14 05:22:04|2021-08-14 05:22:04|T
C624C9377B27FAE9|2D07|2D07||U|2001|DEPO GEDANGAN|ABCDEFGHIJKLMNO|IRNANSYAH|2020-08-14 05:22:04|2021-08-14 05:22:04|T
C624C9377B27FAE9|2D08|2D08||U|2001|DEPO GEDANGAN|ABCDEFGHIJKLMNO|ROHMAN|2020-08-14 05:22:04|2021-08-14 05:22:04|T
C624C9377B27FAE9|2D09|2D09||U|2001|DEPO GEDANGAN|ABCDEFGHIJKLMNO|IDJAJI|2020-08-14 05:22:04|2021-08-14 05:22:04|T
C624C9377B27FAE9|2D10|2D10||U|2001|DEPO GEDANGAN|ABCDEFGHIJKLMNO|HERMANSYAH|2020-08-14 05:22:04|2021-08-14 05:22:04|T
C624C9377B27FAE9|2D11|2D11||U|2001|DEPO GEDANGAN|ABCDEFGHIJKLMNO|JAWAHIR|2020-08-14 05:22:04|2021-08-14 05:22:04|T
C624C9377B27FAE9|2D12|2D12||U|2001|DEPO GEDANGAN|ABCDEFGHIJKLMNO|MURTADO|2020-08-14 05:22:04|2021-08-14 05:22:04|T
C624C9377B27FAE9|2D13|2D13||U|2001|DEPO GEDANGAN|ABCDEFGHIJKLMNO|SAHIRIN|2020-08-14 05:22:04|2021-08-14 05:22:04|T
C624C9377B27FAE9|2D14|2D14||U|2001|DEPO GEDANGAN|ABCDEFGHIJKLMNO|EDI PUJIANTO|2020-08-14 05:22:04|2021-08-14 05:22:04|T
C624C9377B27FAE9|2D15|2D15||U|2001|DEPO GEDANGAN|ABCDEFGHIJKLMNO|ENDI SUHENDI|2020-08-14 05:22:04|2021-08-14 05:22:04|T
C624C9377B27FAE9|2D16|2D16||U|2001|DEPO GEDANGAN|ABCDEFGHIJKLMNO|THOMAS|2020-08-14 05:22:04|2021-08-14 05:22:04|T
C624C9377B27FAE9|2D17|2D17||U|2001|DEPO GEDANGAN|ABCDEFGHIJKLMNO|BAKRI|2020-08-14 05:22:04|2021-08-14 05:22:04|T
C624C9377B27FAE9|2D18|2D18||U|2001|DEPO GEDANGAN|ABCDEFGHIJKLMNO|ARIS KURNIAWAN|2020-08-14 05:22:04|2021-08-14 05:22:04|T
C624C9377B27FAE9|2D19|2D19||U|2001|DEPO GEDANGAN|ABCDEFGHIJKLMNO|NURDIN B|2020-08-14 05:22:04|2021-08-14 05:22:04|T
C624C9377B27FAE9|2D20|2D20||U|2001|DEPO GEDANGAN|ABCDEFGHIJKLMNO|MUKTAR UKAY|2020-08-14 05:22:04|2021-08-14 05:22:04|T
C624C9377B27FAE9|2D21|2D21||U|2001|DEPO GEDANGAN|ABCDEFGHIJKLMNO|SUHARYADI|2020-08-14 05:22:04|2021-08-14 05:22:04|T
C624C9377B27FAE9|2D22|2D22||U|2001|DEPO GEDANGAN|ABCDEFGHIJKLMNO|SANTOSO|2020-08-14 05:22:04|2021-08-14 05:22:04|T
C624C9377B27FAE9|2D23|2D23||U|2001|DEPO GEDANGAN|ABCDEFGHIJKLMNO|RUDY HARSONO|2020-08-14 05:22:04|2021-08-14 05:22:04|T
C624C9377B27FAE9|2D24|2D24||U|2001|DEPO GEDANGAN|ABCDEFGHIJKLMNO|UJANG KARDI|2020-08-14 05:22:04|2021-08-14 05:22:04|T
C624C9377B27FAE9|2D25|2D25||U|2001|DEPO GEDANGAN|ABCDEFGHIJKLMNO|MUHAMMAD|2020-08-14 05:22:04|2021-08-14 05:22:04|T
C624C9377B27FAE9|2D26|2D26||U|2001|DEPO GEDANGAN|ABCDEFGHIJKLMNO|FRANKY|2020-08-14 05:22:04|2021-08-14 05:22:04|T
C624C9377B27FAE9|2D27|2D27||U|2001|DEPO GEDANGAN|ABCDEFGHIJKLMNO|SUHARTONO|2020-08-14 05:22:04|2021-08-14 05:22:04|T
C624C9377B27FAE9|2D28|2D28||U|2001|DEPO GEDANGAN|ABCDEFGHIJKLMNO|RIANI|2020-08-14 05:22:04|2021-08-14 05:22:04|T
C624C9377B27FAE9|2D29|2D29||U|2001|DEPO GEDANGAN|ABCDEFGHIJKLMNO|SUNOYO|2020-08-14 05:22:04|2021-08-14 05:22:04|T
C624C9377B27FAE9|2D30|2D30||U|2001|DEPO GEDANGAN|ABCDEFGHIJKLMNO|DAYAT|2020-08-14 05:22:04|2021-08-14 05:22:04|T
C624C9377B27FAE9|2D31|2D31||U|2001|DEPO GEDANGAN|ABCDEFGHIJKLMNO|MUDIN|2020-08-14 05:22:04|2021-08-14 05:22:04|T
C624C9377B27FAE9|2D32|2D32||U|2001|DEPO GEDANGAN|ABCDEFGHIJKLMNO|WINDARDI|2020-08-14 05:22:04|2021-08-14 05:22:04|T
C624C9377B27FAE9|2D33|2D33||U|2001|DEPO GEDANGAN|ABCDEFGHIJKLMNO|RUSLAN|2020-08-14 05:22:04|2021-08-14 05:22:04|T
C624C9377B27FAE9|2D34|2D34||U|2001|DEPO GEDANGAN|ABCDEFGHIJKLMNO|ENTIK|2020-08-14 05:22:04|2021-08-14 05:22:04|T
C624C9377B27FAE9|2D35|2D35||U|2001|DEPO GEDANGAN|ABCDEFGHIJKLMNO|WIBIYANTO|2020-08-14 05:22:04|2021-08-14 05:22:04|T
C624C9377B27FAE9|2D36|2D36||U|2001|DEPO GEDANGAN|ABCDEFGHIJKLMNO|KWADIYONO|2020-08-14 05:22:04|2021-08-14 05:22:04|T
C624C9377B27FAE9|2D37|2D37||U|2001|DEPO GEDANGAN|ABCDEFGHIJKLMNO|GATOT|2020-08-14 05:22:04|2021-08-14 05:22:04|T
C624C9377B27FAE9|2E01|2E01||U|2001|DEPO GEDANGAN|ABCDEFGHIJKLMNO|KANTOR DEPO BANDUNG|2020-08-14 05:22:04|2021-08-14 05:22:04|T
C624C9377B27FAE9|2E02|2E02||U|2001|DEPO GEDANGAN|ABCDEFGHIJKLMNO|HERMAN|2020-08-14 05:22:04|2021-08-14 05:22:04|T
C624C9377B27FAE9|2E03|2E03||U|2001|DEPO GEDANGAN|ABCDEFGHIJKLMNO|DADANG|2020-08-14 05:22:04|2021-08-14 05:22:04|T
C624C9377B27FAE9|2E04|2E04||U|2001|DEPO GEDANGAN|ABCDEFGHIJKLMNO|ASEP|2020-08-14 05:22:04|2021-08-14 05:22:04|T
C624C9377B27FAE9|2E05|2E05||U|2001|DEPO GEDANGAN|ABCDEFGHIJKLMNO|Yayat|2020-08-14 05:22:04|2021-08-14 05:22:04|T
C624C9377B27FAE9|2E06|2E06||U|2001|DEPO GEDANGAN|ABCDEFGHIJKLMNO|IVAN|2020-08-14 05:22:04|2021-08-14 05:22:04|T
C624C9377B27FAE9|2E07|2E07||U|2001|DEPO GEDANGAN|ABCDEFGHIJKLMNO|GARNIDA|2020-08-14 05:22:04|2021-08-14 05:22:04|T
C624C9377B27FAE9|2E08|2E08||U|2001|DEPO GEDANGAN|ABCDEFGHIJKLMNO|YUS LUKMAN|2020-08-14 05:22:04|2021-08-14 05:22:04|T
C624C9377B27FAE9|2E09|2E09||U|2001|DEPO GEDANGAN|ABCDEFGHIJKLMNO|RIDWAN|2020-08-14 05:22:04|2021-08-14 05:22:04|T
C624C9377B27FAE9|2E10|2E10||U|2001|DEPO GEDANGAN|ABCDEFGHIJKLMNO|IMAM|2020-08-14 05:22:04|2021-08-14 05:22:04|T
C624C9377B27FAE9|2E11|2E11||U|2001|DEPO GEDANGAN|ABCDEFGHIJKLMNO|FERDINAND|2020-08-14 05:22:04|2021-08-14 05:22:04|T
C624C9377B27FAE9|2E12|2E12||U|2001|DEPO GEDANGAN|ABCDEFGHIJKLMNO|SAMSUDIN|2020-08-14 05:22:04|2021-08-14 05:22:04|T
C624C9377B27FAE9|2E13|2E13||U|2001|DEPO GEDANGAN|ABCDEFGHIJKLMNO|AGUS|2020-08-14 05:22:04|2021-08-14 05:22:04|T
C624C9377B27FAE9|2E14|2E14||U|2001|DEPO GEDANGAN|ABCDEFGHIJKLMNO|Asep Purwana|2020-08-14 05:22:04|2021-08-14 05:22:04|T
C624C9377B27FAE9|2E15|2E15||U|2001|DEPO GEDANGAN|ABCDEFGHIJKLMNO|Yoga Ariska|2020-08-14 05:22:04|2021-08-14 05:22:04|T
C624C9377B27FAE9|2E16|2E16||U|2001|DEPO GEDANGAN|ABCDEFGHIJKLMNO|Ade Sandi|2020-08-14 05:22:04|2021-08-14 05:22:04|T
C624C9377B27FAE9|2E17|2E17||U|2001|DEPO GEDANGAN|ABCDEFGHIJKLMNO|Mochamad Rustandi|2020-08-14 05:22:04|2021-08-14 05:22:04|T
C624C9377B27FAE9|2F01|2F01||U|2001|DEPO GEDANGAN|ABCDEFGHIJKLMNO|AFDIL|2020-08-14 05:22:04|2021-08-14 05:22:04|T
C624C9377B27FAE9|2F02|2F02||U|2001|DEPO GEDANGAN|ABCDEFGHIJKLMNO|IRAWADI|2020-08-14 05:22:04|2021-08-14 05:22:04|T
C624C9377B27FAE9|2F03|2F03||U|2001|DEPO GEDANGAN|ABCDEFGHIJKLMNO|HENDRIK|2020-08-14 05:22:04|2021-08-14 05:22:04|T
C624C9377B27FAE9|2F04|2F04||U|2001|DEPO GEDANGAN|ABCDEFGHIJKLMNO|KANTOR MEDAN|2020-08-14 05:22:04|2021-08-14 05:22:04|T
C624C9377B27FAE9|2F05|2F05||U|2001|DEPO GEDANGAN|ABCDEFGHIJKLMNO|AHOK|2020-08-14 05:22:04|2021-08-14 05:22:04|T
C624C9377B27FAE9|2F06|2F06||U|2001|DEPO GEDANGAN|ABCDEFGHIJKLMNO|ADI PRANOTO|2020-08-14 05:22:04|2021-08-14 05:22:04|T
C624C9377B27FAE9|2F07|2F07||U|2001|DEPO GEDANGAN|ABCDEFGHIJKLMNO|HENDRA WIJAYA|2020-08-14 05:22:04|2021-08-14 05:22:04|T
C624C9377B27FAE9|2F08|2F08||U|2001|DEPO GEDANGAN|ABCDEFGHIJKLMNO|AHMAD FACHRURROJI|2020-08-14 05:22:04|2021-08-14 05:22:04|T
C624C9377B27FAE9|2F09|2F09||U|2001|DEPO GEDANGAN|ABCDEFGHIJKLMNO|KHAIRUL ANWAR|2020-08-14 05:22:04|2021-08-14 05:22:04|T
C624C9377B27FAE9|2F10|2F10||U|2001|DEPO GEDANGAN|ABCDEFGHIJKLMNO|LANDO SIREGAR|2020-08-14 05:22:04|2021-08-14 05:22:04|T
C624C9377B27FAE9|2F11|2F11||U|2001|DEPO GEDANGAN|ABCDEFGHIJKLMNO|IRWANSYAH|2020-08-14 05:22:04|2021-08-14 05:22:04|T
C624C9377B27FAE9|2F12|2F12||U|2001|DEPO GEDANGAN|ABCDEFGHIJKLMNO|RICKY IRAWAN|2020-08-14 05:22:04|2021-08-14 05:22:04|T
C624C9377B27FAE9|2F13|2F13||U|2001|DEPO GEDANGAN|ABCDEFGHIJKLMNO|MAHYARUDDIN GULO|2020-08-14 05:22:04|2021-08-14 05:22:04|T
C624C9377B27FAE9|2F14|2F14||U|2001|DEPO GEDANGAN|ABCDEFGHIJKLMNO|ILHAM HUSADA|2020-08-14 05:22:04|2021-08-14 05:22:04|T
C624C9377B27FAE9|2F15|2F15||U|2001|DEPO GEDANGAN|ABCDEFGHIJKLMNO|ABDIANSYAH|2020-08-14 05:22:04|2021-08-14 05:22:04|T
C624C9377B27FAE9|2F16|2F16||U|2001|DEPO GEDANGAN|ABCDEFGHIJKLMNO|AHMAD DENI S|2020-08-14 05:22:04|2021-08-14 05:22:04|T
C624C9377B27FAE9|2F17|2F17||U|2001|DEPO GEDANGAN|ABCDEFGHIJKLMNO|BUCHAIRI DALIMUNTHE|2020-08-14 05:22:04|2021-08-14 05:22:04|T
C624C9377B27FAE9|2F18|2F18||U|2001|DEPO GEDANGAN|ABCDEFGHIJKLMNO|HERMIN|2020-08-14 05:22:04|2021-08-14 05:22:04|T
C624C9377B27FAE9|2F19|2F19||U|2001|DEPO GEDANGAN|ABCDEFGHIJKLMNO|ABEN|2020-08-14 05:22:04|2021-08-14 05:22:04|T
C624C9377B27FAE9|2F20|2F20||U|2001|DEPO GEDANGAN|ABCDEFGHIJKLMNO|DEPO MEDAN|2020-08-14 05:22:04|2021-08-14 05:22:04|T
C624C9377B27FAE9|2F21|2F21||U|2001|DEPO GEDANGAN|ABCDEFGHIJKLMNO|LIANTO|2020-08-14 05:22:04|2021-08-14 05:22:04|T
C624C9377B27FAE9|2F22|2F22||U|2001|DEPO GEDANGAN|ABCDEFGHIJKLMNO|YOGA MUSTAFA|2020-08-14 05:22:04|2021-08-14 05:22:04|T
C624C9377B27FAE9|2F23|2F23||U|2001|DEPO GEDANGAN|ABCDEFGHIJKLMNO|TUGIRAN|2020-08-14 05:22:04|2021-08-14 05:22:04|T
C624C9377B27FAE9|2F24|2F24||U|2001|DEPO GEDANGAN|ABCDEFGHIJKLMNO|IKHWAN|2020-08-14 05:22:04|2021-08-14 05:22:04|T
C624C9377B27FAE9|2F25|2F25||U|2001|DEPO GEDANGAN|ABCDEFGHIJKLMNO|JEFRI|2020-08-14 05:22:04|2021-08-14 05:22:04|T
C624C9377B27FAE9|2G01|2G01||U|2001|DEPO GEDANGAN|ABCDEFGHIJKLMNO|KANTOR DEPO BANJARMA|2020-08-14 05:22:04|2021-08-14 05:22:04|T
C624C9377B27FAE9|2G02|2G02||U|2001|DEPO GEDANGAN|ABCDEFGHIJKLMNO|MUKHLAS             |2020-08-14 05:22:04|2021-08-14 05:22:04|T
C624C9377B27FAE9|2G03|2G03||U|2001|DEPO GEDANGAN|ABCDEFGHIJKLMNO|DEVA R.A            |2020-08-14 05:22:04|2021-08-14 05:22:04|T
C624C9377B27FAE9|2G04|2G04||U|2001|DEPO GEDANGAN|ABCDEFGHIJKLMNO|RIZA FIRMANI        |2020-08-14 05:22:04|2021-08-14 05:22:04|T
C624C9377B27FAE9|2G05|2G05||U|2001|DEPO GEDANGAN|ABCDEFGHIJKLMNO|GT. RIZA GAZALI|2020-08-14 05:22:04|2021-08-14 05:22:04|T
C624C9377B27FAE9|2G06|2G06||U|2001|DEPO GEDANGAN|ABCDEFGHIJKLMNO|HELMI DARMAWAN|2020-08-14 05:22:04|2021-08-14 05:22:04|T
C624C9377B27FAE9|2G07|2G07||U|2001|DEPO GEDANGAN|ABCDEFGHIJKLMNO|MUSRIFANI|2020-08-14 05:22:04|2021-08-14 05:22:04|T
C624C9377B27FAE9|2G08|2G08||U|2001|DEPO GEDANGAN|ABCDEFGHIJKLMNO|HELDA|2020-08-14 05:22:04|2021-08-14 05:22:04|T
C624C9377B27FAE9|2G09|2G09||U|2001|DEPO GEDANGAN|ABCDEFGHIJKLMNO|AHMAD MARTADINATA|2020-08-14 05:22:04|2021-08-14 05:22:04|T
C624C9377B27FAE9|2G10|2G10||U|2001|DEPO GEDANGAN|ABCDEFGHIJKLMNO|RYAN|2020-08-14 05:22:04|2021-08-14 05:22:04|T
C624C9377B27FAE9|2G11|2G11||U|2001|DEPO GEDANGAN|ABCDEFGHIJKLMNO|EVA|2020-08-14 05:22:04|2021-08-14 05:22:04|T
C624C9377B27FAE9|2G12|2G12||U|2001|DEPO GEDANGAN|ABCDEFGHIJKLMNO|INDRA|2020-08-14 05:22:04|2021-08-14 05:22:04|T
C624C9377B27FAE9|2G13|2G13||U|2001|DEPO GEDANGAN|ABCDEFGHIJKLMNO|MULYADI|2020-08-14 05:22:04|2021-08-14 05:22:04|T
C624C9377B27FAE9|2G14|2G14||U|2001|DEPO GEDANGAN|ABCDEFGHIJKLMNO|OYI|2020-08-14 05:22:04|2021-08-14 05:22:04|T
C624C9377B27FAE9|2H01|2H01||U|2001|DEPO GEDANGAN|ABCDEFGHIJKLMNO|KANTOR DEPO RUNGKUT|2020-08-14 05:22:04|2021-08-14 05:22:04|T
C624C9377B27FAE9|2H02|2H02||U|2001|DEPO GEDANGAN|ABCDEFGHIJKLMNO|HANDIK|2020-08-14 05:22:04|2021-08-14 05:22:04|T
C624C9377B27FAE9|2H03|2H03||U|2001|DEPO GEDANGAN|ABCDEFGHIJKLMNO|ANDIKA|2020-08-14 05:22:04|2021-08-14 05:22:04|T
C624C9377B27FAE9|2H04|2H04||U|2001|DEPO GEDANGAN|ABCDEFGHIJKLMNO|AGUS|2020-08-14 05:22:04|2021-08-14 05:22:04|T
C624C9377B27FAE9|2H05|2H05||U|2001|DEPO GEDANGAN|ABCDEFGHIJKLMNO|YUDA|2020-08-14 05:22:04|2021-08-14 05:22:04|T
C624C9377B27FAE9|2H06|2H06||U|2001|DEPO GEDANGAN|ABCDEFGHIJKLMNO|DENNY|2020-08-14 05:22:04|2021-08-14 05:22:04|T
C624C9377B27FAE9|2H07|2H07||U|2001|DEPO GEDANGAN|ABCDEFGHIJKLMNO|LUKMAN|2020-08-14 05:22:04|2021-08-14 05:22:04|T
C624C9377B27FAE9|2H08|2H08||U|2001|DEPO GEDANGAN|ABCDEFGHIJKLMNO|DELTA FORCE|2020-08-14 05:22:04|2021-08-14 05:22:04|T
C624C9377B27FAE9|2H09|2H09||U|2001|DEPO GEDANGAN|ABCDEFGHIJKLMNO|AGUNG|2020-08-14 05:22:04|2021-08-14 05:22:04|T
C624C9377B27FAE9|2H10|2H10||U|2001|DEPO GEDANGAN|ABCDEFGHIJKLMNO|AGUNG/HANDIK|2020-08-14 05:22:04|2021-08-14 05:22:04|T
C624C9377B27FAE9|2H11|2H11||U|2001|DEPO GEDANGAN|ABCDEFGHIJKLMNO|AGUNG/DENNY|2020-08-14 05:22:04|2021-08-14 05:22:04|T
C624C9377B27FAE9|2H12|2H12||U|2001|DEPO GEDANGAN|ABCDEFGHIJKLMNO|ANAM|2020-08-14 05:22:04|2021-08-14 05:22:04|T
C624C9377B27FAE9|2H13|2H13||U|2001|DEPO GEDANGAN|ABCDEFGHIJKLMNO|ANTHONY|2020-08-14 05:22:04|2021-08-14 05:22:04|T
C624C9377B27FAE9|2H14|2H14||U|2001|DEPO GEDANGAN|ABCDEFGHIJKLMNO|HARI|2020-08-14 05:22:04|2021-08-14 05:22:04|T
C624C9377B27FAE9|2H15|2H15||U|2001|DEPO GEDANGAN|ABCDEFGHIJKLMNO|PURNOMO|2020-08-14 05:22:04|2021-08-14 05:22:04|T
C624C9377B27FAE9|2H16|2H16||U|2001|DEPO GEDANGAN|ABCDEFGHIJKLMNO|SIMAN|2020-08-14 05:22:04|2021-08-14 05:22:04|T
C624C9377B27FAE9|2H17|2H17||U|2001|DEPO GEDANGAN|ABCDEFGHIJKLMNO|YULIUS|2020-08-14 05:22:04|2021-08-14 05:22:04|T
C624C9377B27FAE9|2H18|2H18||U|2001|DEPO GEDANGAN|ABCDEFGHIJKLMNO|ADIT|2020-08-14 05:22:04|2021-08-14 05:22:04|T
C624C9377B27FAE9|2H19|2H19||U|2001|DEPO GEDANGAN|ABCDEFGHIJKLMNO|ANDY NOPIANSYAH|2020-08-14 05:22:04|2021-08-14 05:22:04|T
C624C9377B27FAE9|2H20|2H20||U|2001|DEPO GEDANGAN|ABCDEFGHIJKLMNO|BACHTIAR|2020-08-14 05:22:04|2021-08-14 05:22:04|T
C624C9377B27FAE9|2H21|2H21||U|2001|DEPO GEDANGAN|ABCDEFGHIJKLMNO|AKBAR|2020-08-14 05:22:04|2021-08-14 05:22:04|T
C624C9377B27FAE9|2H22|2H22||U|2001|DEPO GEDANGAN|ABCDEFGHIJKLMNO|YUNUS|2020-08-14 05:22:04|2021-08-14 05:22:04|T
C624C9377B27FAE9|2I01|2I01||U|2001|DEPO GEDANGAN|ABCDEFGHIJKLMNO|KANTOR TEGAL|2020-08-14 05:22:04|2021-08-14 05:22:04|T
C624C9377B27FAE9|2I02|2I02||U|2001|DEPO GEDANGAN|ABCDEFGHIJKLMNO|RISWANTORO|2020-08-14 05:22:04|2021-08-14 05:22:04|T
C624C9377B27FAE9|2I03|2I03||U|2001|DEPO GEDANGAN|ABCDEFGHIJKLMNO|AGUNG|2020-08-14 05:22:04|2021-08-14 05:22:04|T
C624C9377B27FAE9|2I04|2I04||U|2001|DEPO GEDANGAN|ABCDEFGHIJKLMNO|DEBI PURNOMO|2020-08-14 05:22:04|2021-08-14 05:22:04|T
C624C9377B27FAE9|2I05|2I05||U|2001|DEPO GEDANGAN|ABCDEFGHIJKLMNO|HANDJOKO|2020-08-14 05:22:04|2021-08-14 05:22:04|T
C624C9377B27FAE9|2I06|2I06||U|2001|DEPO GEDANGAN|ABCDEFGHIJKLMNO|HERI RIYADI|2020-08-14 05:22:04|2021-08-14 05:22:04|T
C624C9377B27FAE9|2I07|2I07||U|2001|DEPO GEDANGAN|ABCDEFGHIJKLMNO|SETO HANDOKO|2020-08-14 05:22:04|2021-08-14 05:22:04|T
C624C9377B27FAE9|2I08|2I08||U|2001|DEPO GEDANGAN|ABCDEFGHIJKLMNO|M.RIPAI|2020-08-14 05:22:04|2021-08-14 05:22:04|T
C624C9377B27FAE9|2J01|2J01||U|2001|DEPO GEDANGAN|ABCDEFGHIJKLMNO|DEDY S|2020-08-14 05:22:04|2021-08-14 05:22:04|T
C624C9377B27FAE9|2J02|2J02||U|2001|DEPO GEDANGAN|ABCDEFGHIJKLMNO|KANTOR|2020-08-14 05:22:04|2021-08-14 05:22:04|T
C624C9377B27FAE9|2J03|2J03||U|2001|DEPO GEDANGAN|ABCDEFGHIJKLMNO|EKO PURWITO|2020-08-14 05:22:04|2021-08-14 05:22:04|T
C624C9377B27FAE9|2J04|2J04||U|2001|DEPO GEDANGAN|ABCDEFGHIJKLMNO|TRI HARYANTO|2020-08-14 05:22:04|2021-08-14 05:22:04|T
C624C9377B27FAE9|2J05|2J05||U|2001|DEPO GEDANGAN|ABCDEFGHIJKLMNO|PUTRA EKO AGUNG|2020-08-14 05:22:04|2021-08-14 05:22:04|T
C624C9377B27FAE9|2J06|2J06||U|2001|DEPO GEDANGAN|ABCDEFGHIJKLMNO|KHOERUL ROJAB|2020-08-14 05:22:04|2021-08-14 05:22:04|T
C624C9377B27FAE9|2J07|2J07||U|2001|DEPO GEDANGAN|ABCDEFGHIJKLMNO|FAJAR HIDAYAT|2020-08-14 05:22:04|2021-08-14 05:22:04|T
C624C9377B27FAE9|2J08|2J08||U|2001|DEPO GEDANGAN|ABCDEFGHIJKLMNO|TOFIK ARIYANTO|2020-08-14 05:22:04|2021-08-14 05:22:04|T
C624C9377B27FAE9|2J09|2J09||U|2001|DEPO GEDANGAN|ABCDEFGHIJKLMNO|ENDANG PURWANINGSIH|2020-08-14 05:22:04|2021-08-14 05:22:04|T
C624C9377B27FAE9|2J10|2J10||U|2001|DEPO GEDANGAN|ABCDEFGHIJKLMNO|DINO EKO HARTANTO|2020-08-14 05:22:04|2021-08-14 05:22:04|T
C624C9377B27FAE9|2J11|2J11||U|2001|DEPO GEDANGAN|ABCDEFGHIJKLMNO|IRMA SRI RAHAYU|2020-08-14 05:22:04|2021-08-14 05:22:04|T
C624C9377B27FAE9|2J12|2J12||U|2001|DEPO GEDANGAN|ABCDEFGHIJKLMNO|RUDIYANTO|2020-08-14 05:22:04|2021-08-14 05:22:04|T
C624C9377B27FAE9|2J13|2J13||U|2001|DEPO GEDANGAN|ABCDEFGHIJKLMNO|WAHYU SUSANTI|2020-08-14 05:22:04|2021-08-14 05:22:04|T
C624C9377B27FAE9|2J14|2J14||U|2001|DEPO GEDANGAN|ABCDEFGHIJKLMNO|DIYAH RETNO UTAMI|2020-08-14 05:22:04|2021-08-14 05:22:04|T
C624C9377B27FAE9|2J15|2J15||U|2001|DEPO GEDANGAN|ABCDEFGHIJKLMNO|WIKE NURSIAMI|2020-08-14 05:22:04|2021-08-14 05:22:04|T
C624C9377B27FAE9|2K01|2K01||U|2001|DEPO GEDANGAN|ABCDEFGHIJKLMNO|Budi Kurniawan|2020-08-14 05:22:04|2021-08-14 05:22:04|T
C624C9377B27FAE9|2K02|2K02||U|2001|DEPO GEDANGAN|ABCDEFGHIJKLMNO|KANTOR JOGJA|2020-08-14 05:22:04|2021-08-14 05:22:04|T
C624C9377B27FAE9|2K03|2K03||U|2001|DEPO GEDANGAN|ABCDEFGHIJKLMNO|SANUSI|2020-08-14 05:22:04|2021-08-14 05:22:04|T
C624C9377B27FAE9|2K04|2K04||U|2001|DEPO GEDANGAN|ABCDEFGHIJKLMNO|RUDI|2020-08-14 05:22:04|2021-08-14 05:22:04|T
C624C9377B27FAE9|2K05|2K05||U|2001|DEPO GEDANGAN|ABCDEFGHIJKLMNO|SOFIAN|2020-08-14 05:22:04|2021-08-14 05:22:04|T
C624C9377B27FAE9|2K06|2K06||U|2001|DEPO GEDANGAN|ABCDEFGHIJKLMNO|ARIFIN|2020-08-14 05:22:04|2021-08-14 05:22:04|T
C624C9377B27FAE9|2L01|2L01||U|2001|DEPO GEDANGAN|ABCDEFGHIJKLMNO|KANTOR DENPASAR|2020-08-14 05:22:04|2021-08-14 05:22:04|T
C624C9377B27FAE9|2L02|2L02||U|2001|DEPO GEDANGAN|ABCDEFGHIJKLMNO|I MADE EKA LANTARA|2020-08-14 05:22:04|2021-08-14 05:22:04|T
C624C9377B27FAE9|2L03|2L03||U|2001|DEPO GEDANGAN|ABCDEFGHIJKLMNO|I MADE ARIANA|2020-08-14 05:22:04|2021-08-14 05:22:04|T
C624C9377B27FAE9|2L04|2L04||U|2001|DEPO GEDANGAN|ABCDEFGHIJKLMNO|MARIO INKIRIWANG|2020-08-14 05:22:04|2021-08-14 05:22:04|T
C624C9377B27FAE9|2L05|2L05||U|2001|DEPO GEDANGAN|ABCDEFGHIJKLMNO|AGUS ZAZ MERTA|2020-08-14 05:22:04|2021-08-14 05:22:04|T
C624C9377B27FAE9|2L06|2L06||U|2001|DEPO GEDANGAN|ABCDEFGHIJKLMNO|I KETUT SUGIANTARA|2020-08-14 05:22:04|2021-08-14 05:22:04|T
C624C9377B27FAE9|2L07|2L07||U|2001|DEPO GEDANGAN|ABCDEFGHIJKLMNO||2020-08-14 05:22:04|2021-08-14 05:22:04|T
C624C9377B27FAE9|2L08|2L08||U|2001|DEPO GEDANGAN|ABCDEFGHIJKLMNO|AGUS SASTRAWAN|2020-08-14 05:22:04|2021-08-14 05:22:04|T
C624C9377B27FAE9|2L09|2L09||U|2001|DEPO GEDANGAN|ABCDEFGHIJKLMNO|MADE PURNAWAN|2020-08-14 05:22:04|2021-08-14 05:22:04|T
C624C9377B27FAE9|2L10|2L10||U|2001|DEPO GEDANGAN|ABCDEFGHIJKLMNO|GESANG JUNI ARIF|2020-08-14 05:22:04|2021-08-14 05:22:04|T
C624C9377B27FAE9|2L11|2L11||U|2001|DEPO GEDANGAN|ABCDEFGHIJKLMNO|DOMINGGUS|2020-08-14 05:22:04|2021-08-14 05:22:04|T
C624C9377B27FAE9|2L12|2L12||U|2001|DEPO GEDANGAN|ABCDEFGHIJKLMNO|SUTRISNO|2020-08-14 05:22:04|2021-08-14 05:22:04|T
C624C9377B27FAE9|2L13|2L13||U|2001|DEPO GEDANGAN|ABCDEFGHIJKLMNO|DWI RAHARIYOKO|2020-08-14 05:22:04|2021-08-14 05:22:04|T
C624C9377B27FAE9|2L14|2L14||U|2001|DEPO GEDANGAN|ABCDEFGHIJKLMNO|AGUNG WICAKSONO|2020-08-14 05:22:04|2021-08-14 05:22:04|T
C624C9377B27FAE9|2L15|2L15||U|2001|DEPO GEDANGAN|ABCDEFGHIJKLMNO|I MADE YUDANA|2020-08-14 05:22:04|2021-08-14 05:22:04|T
C624C9377B27FAE9|2L16|2L16||U|2001|DEPO GEDANGAN|ABCDEFGHIJKLMNO|JONATHAN HENDRA|2020-08-14 05:22:04|2021-08-14 05:22:04|T
C624C9377B27FAE9|2L17|2L17||U|2001|DEPO GEDANGAN|ABCDEFGHIJKLMNO|HANTON|2020-08-14 05:22:04|2021-08-14 05:22:04|T
C624C9377B27FAE9|2M01|2M01||U|2001|DEPO GEDANGAN|ABCDEFGHIJKLMNO|ABDUL WAHID|2020-08-14 05:22:04|2021-08-14 05:22:04|T
C624C9377B27FAE9|2M02|2M02||U|2001|DEPO GEDANGAN|ABCDEFGHIJKLMNO|KANTOR GRESIK|2020-08-14 05:22:04|2021-08-14 05:22:04|T
C624C9377B27FAE9|2M03|2M03||U|2001|DEPO GEDANGAN|ABCDEFGHIJKLMNO|KANTOR GRESIK|2020-08-14 05:22:04|2021-08-14 05:22:04|T
C624C9377B27FAE9|2M04|2M04||U|2001|DEPO GEDANGAN|ABCDEFGHIJKLMNO|MUJI (PDN)|2020-08-14 05:22:04|2021-08-14 05:22:04|T
C624C9377B27FAE9|2M05|2M05||U|2001|DEPO GEDANGAN|ABCDEFGHIJKLMNO|DWI WIRA SETIAWAN|2020-08-14 05:22:04|2021-08-14 05:22:04|T
C624C9377B27FAE9|2M06|2M06||U|2001|DEPO GEDANGAN|ABCDEFGHIJKLMNO|GALIH ARIFIANTO|2020-08-14 05:22:04|2021-08-14 05:22:04|T
C624C9377B27FAE9|2M07|2M07||U|2001|DEPO GEDANGAN|ABCDEFGHIJKLMNO|RUDIANTO|2020-08-14 05:22:04|2021-08-14 05:22:04|T
C624C9377B27FAE9|2M08|2M08||U|2001|DEPO GEDANGAN|ABCDEFGHIJKLMNO|NAKHDIMURIZAL|2020-08-14 05:22:04|2021-08-14 05:22:04|T
C624C9377B27FAE9|2N01|2N01||U|2001|DEPO GEDANGAN|ABCDEFGHIJKLMNO|SUPRIYONO|2020-08-14 05:22:04|2021-08-14 05:22:04|T
C624C9377B27FAE9|2N02|2N02||U|2001|DEPO GEDANGAN|ABCDEFGHIJKLMNO|KANTOR PANDAAN|2020-08-14 05:22:04|2021-08-14 05:22:04|T
C624C9377B27FAE9|2N03|2N03||U|2001|DEPO GEDANGAN|ABCDEFGHIJKLMNO|FEBRI|2020-08-14 05:22:04|2021-08-14 05:22:04|T
C624C9377B27FAE9|2N04|2N04||U|2001|DEPO GEDANGAN|ABCDEFGHIJKLMNO|SUWITO|2020-08-14 05:22:04|2021-08-14 05:22:04|T
C624C9377B27FAE9|2N05|2N05||U|2001|DEPO GEDANGAN|ABCDEFGHIJKLMNO|ZAINUDIN|2020-08-14 05:22:04|2021-08-14 05:22:04|T
C624C9377B27FAE9|2N06|2N06||U|2001|DEPO GEDANGAN|ABCDEFGHIJKLMNO|EFFENDI|2020-08-14 05:22:04|2021-08-14 05:22:04|T
C624C9377B27FAE9|2N07|2N07||U|2001|DEPO GEDANGAN|ABCDEFGHIJKLMNO|WUJUD|2020-08-14 05:22:04|2021-08-14 05:22:04|T
C624C9377B27FAE9|2N08|2N08||U|2001|DEPO GEDANGAN|ABCDEFGHIJKLMNO|DANANG SETYADANI|2020-08-14 05:22:04|2021-08-14 05:22:04|T
C624C9377B27FAE9|2N09|2N09||U|2001|DEPO GEDANGAN|ABCDEFGHIJKLMNO|SUPAAT|2020-08-14 05:22:04|2021-08-14 05:22:04|T
C624C9377B27FAE9|2N10|2N10||U|2001|DEPO GEDANGAN|ABCDEFGHIJKLMNO|SUPRI|2020-08-14 05:22:04|2021-08-14 05:22:04|T
C624C9377B27FAE9|2N11|2N11||U|2001|DEPO GEDANGAN|ABCDEFGHIJKLMNO|KLANA|2020-08-14 05:22:04|2021-08-14 05:22:04|T
C624C9377B27FAE9|2N12|2N12||U|2001|DEPO GEDANGAN|ABCDEFGHIJKLMNO|AHMAD DIYAR RIFQI|2020-08-14 05:22:04|2021-08-14 05:22:04|T
C624C9377B27FAE9|2N13|2N13||U|2001|DEPO GEDANGAN|ABCDEFGHIJKLMNO|NAKHDIMURIZAL|2020-08-14 05:22:04|2021-08-14 05:22:04|T
C624C9377B27FAE9|2N14|2N14||U|2001|DEPO GEDANGAN|ABCDEFGHIJKLMNO|SUROSO|2020-08-14 05:22:04|2021-08-14 05:22:04|T
C624C9377B27FAE9|2N15|2N15||U|2001|DEPO GEDANGAN|ABCDEFGHIJKLMNO|STEVEN|2020-08-14 05:22:04|2021-08-14 05:22:04|T
C624C9377B27FAE9|2O01|2O01||U|2001|DEPO GEDANGAN|ABCDEFGHIJKLMNO|KANTOR|2020-08-14 05:22:04|2021-08-14 05:22:04|T
C624C9377B27FAE9|2O02|2O02||U|2001|DEPO GEDANGAN|ABCDEFGHIJKLMNO|TROY MAIRAWAN ADIYON|2020-08-14 05:22:04|2021-08-14 05:22:04|T
C624C9377B27FAE9|2O03|2O03||U|2001|DEPO GEDANGAN|ABCDEFGHIJKLMNO|EKO LUKAS YULIANTO|2020-08-14 05:22:04|2021-08-14 05:22:04|T
C624C9377B27FAE9|2O04|2O04||U|2001|DEPO GEDANGAN|ABCDEFGHIJKLMNO|ARI|2020-08-14 05:22:04|2021-08-14 05:22:04|T
C624C9377B27FAE9|2O05|2O05||U|2001|DEPO GEDANGAN|ABCDEFGHIJKLMNO|WIDODO|2020-08-14 05:22:04|2021-08-14 05:22:04|T
C624C9377B27FAE9|2O06|2O06||U|2001|DEPO GEDANGAN|ABCDEFGHIJKLMNO|JOKO SUDARYANTO|2020-08-14 05:22:04|2021-08-14 05:22:04|T
C624C9377B27FAE9|2O07|2O07||U|2001|DEPO GEDANGAN|ABCDEFGHIJKLMNO|M. SOFIANFARIZ ADI|2020-08-14 05:22:04|2021-08-14 05:22:04|T
C624C9377B27FAE9|2O08|2O08||U|2001|DEPO GEDANGAN|ABCDEFGHIJKLMNO|DWI HARYANTO|2020-08-14 05:22:04|2021-08-14 05:22:04|T
C624C9377B27FAE9|2O09|2O09||U|2001|DEPO GEDANGAN|ABCDEFGHIJKLMNO|ZAZAN PRESTIANTORO|2020-08-14 05:22:04|2021-08-14 05:22:04|T
C624C9377B27FAE9|2O10|2O10||U|2001|DEPO GEDANGAN|ABCDEFGHIJKLMNO|ANDY GUNAWAN|2020-08-14 05:22:04|2021-08-14 05:22:04|T
C624C9377B27FAE9|2O11|2O11||U|2001|DEPO GEDANGAN|ABCDEFGHIJKLMNO|NANANG INDARTO|2020-08-14 05:22:04|2021-08-14 05:22:04|T
C624C9377B27FAE9|2O12|2O12||U|2001|DEPO GEDANGAN|ABCDEFGHIJKLMNO|WAHYUDI|2020-08-14 05:22:04|2021-08-14 05:22:04|T
C624C9377B27FAE9|3001|3001||U|2001|DEPO GEDANGAN|ABCDEFGHIJKLMNO|YONO|2020-08-14 05:22:04|2021-08-14 05:22:04|T
C624C9377B27FAE9|3002|3002||U|2001|DEPO GEDANGAN|ABCDEFGHIJKLMNO|DWI|2020-08-14 05:22:04|2021-08-14 05:22:04|T
C624C9377B27FAE9|3003|3003||U|2001|DEPO GEDANGAN|ABCDEFGHIJKLMNO|BACHTIAR|2020-08-14 05:22:04|2021-08-14 05:22:04|T
C624C9377B27FAE9|3004|3004||U|2001|DEPO GEDANGAN|ABCDEFGHIJKLMNO|KANTOR|2020-08-14 05:22:04|2021-08-14 05:22:04|T
C624C9377B27FAE9|3005|3005||U|2001|DEPO GEDANGAN|ABCDEFGHIJKLMNO|DENNY|2020-08-14 05:22:04|2021-08-14 05:22:04|T
C624C9377B27FAE9|3006|3006||U|2001|DEPO GEDANGAN|ABCDEFGHIJKLMNO|FACHRUDIN|2020-08-14 05:22:04|2021-08-14 05:22:04|T
C624C9377B27FAE9|3007|3007||U|2001|DEPO GEDANGAN|ABCDEFGHIJKLMNO|BAGUS|2020-08-14 05:22:04|2021-08-14 05:22:04|T
C624C9377B27FAE9|3008|3008||U|2001|DEPO GEDANGAN|ABCDEFGHIJKLMNO|HENDRA|2020-08-14 05:22:04|2021-08-14 05:22:04|T
C624C9377B27FAE9|3009|3009||U|2001|DEPO GEDANGAN|ABCDEFGHIJKLMNO|RAHMAN|2020-08-14 05:22:04|2021-08-14 05:22:04|T
C624C9377B27FAE9|3010|3010||U|2001|DEPO GEDANGAN|ABCDEFGHIJKLMNO|DADANG|2020-08-14 05:22:04|2021-08-14 05:22:04|T
C624C9377B27FAE9|3011|3011||U|2001|DEPO GEDANGAN|ABCDEFGHIJKLMNO|ISMAIL|2020-08-14 05:22:04|2021-08-14 05:22:04|T
C624C9377B27FAE9|3101|3101||U|2001|DEPO GEDANGAN|ABCDEFGHIJKLMNO|MOH.SAKUR|2020-08-14 05:22:04|2021-08-14 05:22:04|T
C624C9377B27FAE9|3102|3102||U|2001|DEPO GEDANGAN|ABCDEFGHIJKLMNO|MALIK|2020-08-14 05:22:04|2021-08-14 05:22:04|T
C624C9377B27FAE9|3103|3103||U|2001|DEPO GEDANGAN|ABCDEFGHIJKLMNO|ALEN|2020-08-14 05:22:04|2021-08-14 05:22:04|T
C624C9377B27FAE9|3201|3201||U|2001|DEPO GEDANGAN|ABCDEFGHIJKLMNO|KANTOR KUDUS|2020-08-14 05:22:04|2021-08-14 05:22:04|T
C624C9377B27FAE9|3202|3202||U|2001|DEPO GEDANGAN|ABCDEFGHIJKLMNO|PRIYO|2020-08-14 05:22:04|2021-08-14 05:22:04|T
C624C9377B27FAE9|3203|3203||U|2001|DEPO GEDANGAN|ABCDEFGHIJKLMNO|ARIEF RACHMAN|2020-08-14 05:22:04|2021-08-14 05:22:04|T
C624C9377B27FAE9|3204|3204||U|2001|DEPO GEDANGAN|ABCDEFGHIJKLMNO|TASLIM|2020-08-14 05:22:04|2021-08-14 05:22:04|T
C624C9377B27FAE9|3205|3205||U|2001|DEPO GEDANGAN|ABCDEFGHIJKLMNO|BUDI ARIYANTO|2020-08-14 05:22:04|2021-08-14 05:22:04|T
C624C9377B27FAE9|3301|3301||U|2001|DEPO GEDANGAN|ABCDEFGHIJKLMNO|SAUDIN|2020-08-14 05:22:04|2021-08-14 05:22:04|T
C624C9377B27FAE9|3302|3302||U|2001|DEPO GEDANGAN|ABCDEFGHIJKLMNO|FAJAR|2020-08-14 05:22:04|2021-08-14 05:22:04|T
C624C9377B27FAE9|3303|3303||U|2001|DEPO GEDANGAN|ABCDEFGHIJKLMNO|IWAN|2020-08-14 05:22:04|2021-08-14 05:22:04|T
C624C9377B27FAE9|3304|3304||U|2001|DEPO GEDANGAN|ABCDEFGHIJKLMNO|JIGAR|2020-08-14 05:22:04|2021-08-14 05:22:04|T
C624C9377B27FAE9|3305|3305||U|2001|DEPO GEDANGAN|ABCDEFGHIJKLMNO|AGUS RAHMAT|2020-08-14 05:22:04|2021-08-14 05:22:04|T
C624C9377B27FAE9|3306|3306||U|2001|DEPO GEDANGAN|ABCDEFGHIJKLMNO|DEDY KUSWANDONO|2020-08-14 05:22:04|2021-08-14 05:22:04|T
C624C9377B27FAE9|3307|3307||U|2001|DEPO GEDANGAN|ABCDEFGHIJKLMNO|DEDI SURANTO|2020-08-14 05:22:04|2021-08-14 05:22:04|T
C624C9377B27FAE9|3308|3308||U|2001|DEPO GEDANGAN|ABCDEFGHIJKLMNO|DAMIRI|2020-08-14 05:22:04|2021-08-14 05:22:04|T
C624C9377B27FAE9|3309|3309||U|2001|DEPO GEDANGAN|ABCDEFGHIJKLMNO|SOMAD|2020-08-14 05:22:04|2021-08-14 05:22:04|T
C624C9377B27FAE9|3310|3310||U|2001|DEPO GEDANGAN|ABCDEFGHIJKLMNO|RUSTONI|2020-08-14 05:22:04|2021-08-14 05:22:04|T
C624C9377B27FAE9|3311|3311||U|2001|DEPO GEDANGAN|ABCDEFGHIJKLMNO|ADE|2020-08-14 05:22:04|2021-08-14 05:22:04|T
C624C9377B27FAE9|3401|3401||U|2001|DEPO GEDANGAN|ABCDEFGHIJKLMNO|NANDI|2020-08-14 05:22:04|2021-08-14 05:22:04|T
C624C9377B27FAE9|3402|3402||U|2001|DEPO GEDANGAN|ABCDEFGHIJKLMNO|GERY|2020-08-14 05:22:04|2021-08-14 05:22:04|T
C624C9377B27FAE9|3403|3403||U|2001|DEPO GEDANGAN|ABCDEFGHIJKLMNO|MULYONO|2020-08-14 05:22:04|2021-08-14 05:22:04|T
C624C9377B27FAE9|3404|3404||U|2001|DEPO GEDANGAN|ABCDEFGHIJKLMNO|KANTOR DEPO CIREBON|2020-08-14 05:22:04|2021-08-14 05:22:04|T
C624C9377B27FAE9|3405|3405||U|2001|DEPO GEDANGAN|ABCDEFGHIJKLMNO|BUDI LEKSONO|2020-08-14 05:22:04|2021-08-14 05:22:04|T
C624C9377B27FAE9|3406|3406||U|2001|DEPO GEDANGAN|ABCDEFGHIJKLMNO|HASAN|2020-08-14 05:22:04|2021-08-14 05:22:04|T
C624C9377B27FAE9|3407|3407||U|2001|DEPO GEDANGAN|ABCDEFGHIJKLMNO|SUPARNO|2020-08-14 05:22:04|2021-08-14 05:22:04|T
C624C9377B27FAE9|3408|3408||U|2001|DEPO GEDANGAN|ABCDEFGHIJKLMNO|YAYAN|2020-08-14 05:22:04|2021-08-14 05:22:04|T
C624C9377B27FAE9|3409|3409||U|2001|DEPO GEDANGAN|ABCDEFGHIJKLMNO|SYAJI|2020-08-14 05:22:04|2021-08-14 05:22:04|T
C624C9377B27FAE9|3410|3410||U|2001|DEPO GEDANGAN|ABCDEFGHIJKLMNO|YANTO|2020-08-14 05:22:04|2021-08-14 05:22:04|T
C624C9377B27FAE9|3411|3411||U|2001|DEPO GEDANGAN|ABCDEFGHIJKLMNO|SARIP|2020-08-14 05:22:04|2021-08-14 05:22:04|T
C624C9377B27FAE9|3412|3412||U|2001|DEPO GEDANGAN|ABCDEFGHIJKLMNO|NANANG|2020-08-14 05:22:04|2021-08-14 05:22:04|T
C624C9377B27FAE9|3413|3413||U|2001|DEPO GEDANGAN|ABCDEFGHIJKLMNO|BAGUS|2020-08-14 05:22:04|2021-08-14 05:22:04|T
C624C9377B27FAE9|3414|3414||U|2001|DEPO GEDANGAN|ABCDEFGHIJKLMNO|SUBROTO|2020-08-14 05:22:04|2021-08-14 05:22:04|T
C624C9377B27FAE9|3415|3415||U|2001|DEPO GEDANGAN|ABCDEFGHIJKLMNO|SUGENG|2020-08-14 05:22:04|2021-08-14 05:22:04|T
C624C9377B27FAE9|3416|3416||U|2001|DEPO GEDANGAN|ABCDEFGHIJKLMNO|HERI|2020-08-14 05:22:04|2021-08-14 05:22:04|T
C624C9377B27FAE9|3417|3417|Canvassing Cash|U|2001|DEPO GEDANGAN|ABCDEFGHIJKLMNO|WAHYU|2020-08-14 05:22:04|2021-08-14 05:22:04|T
C624C9377B27FAE9|3418|3418||U|2001|DEPO GEDANGAN|ABCDEFGHIJKLMNO|ARIS|2020-08-14 05:22:04|2021-08-14 05:22:04|T
C624C9377B27FAE9|3419|3419||U|2001|DEPO GEDANGAN|ABCDEFGHIJKLMNO|ASEP|2020-08-14 05:22:04|2021-08-14 05:22:04|T
C624C9377B27FAE9|3420|3420||U|2001|DEPO GEDANGAN|ABCDEFGHIJKLMNO|HERYANTO|2020-08-14 05:22:04|2021-08-14 05:22:04|T
C624C9377B27FAE9|3501|3501||U|2001|DEPO GEDANGAN|ABCDEFGHIJKLMNO|KANTOR DEPO MAKASSAR|2020-08-14 05:22:04|2021-08-14 05:22:04|T
C624C9377B27FAE9|3502|3502||U|2001|DEPO GEDANGAN|ABCDEFGHIJKLMNO|ASRUL|2020-08-14 05:22:04|2021-08-14 05:22:04|T
C624C9377B27FAE9|3503|3503||U|2001|DEPO GEDANGAN|ABCDEFGHIJKLMNO|SAID|2020-08-14 05:22:04|2021-08-14 05:22:04|T
C624C9377B27FAE9|3504|3504||U|2001|DEPO GEDANGAN|ABCDEFGHIJKLMNO|AJI|2020-08-14 05:22:04|2021-08-14 05:22:04|T
C624C9377B27FAE9|3505|3505||U|2001|DEPO GEDANGAN|ABCDEFGHIJKLMNO|NURHIDAYAT|2020-08-14 05:22:04|2021-08-14 05:22:04|T
C624C9377B27FAE9|3506|3506||U|2001|DEPO GEDANGAN|ABCDEFGHIJKLMNO|YUSHAR|2020-08-14 05:22:04|2021-08-14 05:22:04|T
C624C9377B27FAE9|3601|3601||U|2001|DEPO GEDANGAN|ABCDEFGHIJKLMNO|KANTOR DEPO TASIKMAL|2020-08-14 05:22:04|2021-08-14 05:22:04|T
C624C9377B27FAE9|3602|3602||U|2001|DEPO GEDANGAN|ABCDEFGHIJKLMNO|YAYAT|2020-08-14 05:22:04|2021-08-14 05:22:04|T
C624C9377B27FAE9|3603|3603||U|2001|DEPO GEDANGAN|ABCDEFGHIJKLMNO|ROSI|2020-08-14 05:22:04|2021-08-14 05:22:04|T
C624C9377B27FAE9|3604|3604||U|2001|DEPO GEDANGAN|ABCDEFGHIJKLMNO|YANA|2020-08-14 05:22:04|2021-08-14 05:22:04|T
C624C9377B27FAE9|3605|3605||U|2001|DEPO GEDANGAN|ABCDEFGHIJKLMNO|NONO|2020-08-14 05:22:04|2021-08-14 05:22:04|T
C624C9377B27FAE9|3606|3606||U|2001|DEPO GEDANGAN|ABCDEFGHIJKLMNO|DADI|2020-08-14 05:22:04|2021-08-14 05:22:04|T
C624C9377B27FAE9|3607|3607||U|2001|DEPO GEDANGAN|ABCDEFGHIJKLMNO|SUPARLAN|2020-08-14 05:22:04|2021-08-14 05:22:04|T
C624C9377B27FAE9|3608|3608||U|2001|DEPO GEDANGAN|ABCDEFGHIJKLMNO|ILAL|2020-08-14 05:22:04|2021-08-14 05:22:04|T
C624C9377B27FAE9|3609|3609||U|2001|DEPO GEDANGAN|ABCDEFGHIJKLMNO|ARIE|2020-08-14 05:22:04|2021-08-14 05:22:04|T
C624C9377B27FAE9|3610|3610||U|2001|DEPO GEDANGAN|ABCDEFGHIJKLMNO|ARI|2020-08-14 05:22:04|2021-08-14 05:22:04|T
C624C9377B27FAE9|3611|3611||U|2001|DEPO GEDANGAN|ABCDEFGHIJKLMNO|ARIF|2020-08-14 05:22:04|2021-08-14 05:22:04|T
C624C9377B27FAE9|3612|3612||U|2001|DEPO GEDANGAN|ABCDEFGHIJKLMNO|Aji|2020-08-14 05:22:04|2021-08-14 05:22:04|T
C624C9377B27FAE9|3613|3613||U|2001|DEPO GEDANGAN|ABCDEFGHIJKLMNO|DIKDOYO ZAINUDIN|2020-08-14 05:22:04|2021-08-14 05:22:04|T
C624C9377B27FAE9|3614|3614|Canvassing Cash|U|2001|DEPO GEDANGAN|ABCDEFGHIJKLMNO|SUBIN HARIANTO|2020-08-14 05:22:04|2021-08-14 05:22:04|T
C624C9377B27FAE9|3615|3615||U|2001|DEPO GEDANGAN|ABCDEFGHIJKLMNO|ANDRE|2020-08-14 05:22:04|2021-08-14 05:22:04|T
C624C9377B27FAE9|3616|3616||U|2001|DEPO GEDANGAN|ABCDEFGHIJKLMNO|TEDY|2020-08-14 05:22:04|2021-08-14 05:22:04|T
C624C9377B27FAE9|3617|3617|Canvassing Cash|U|2001|DEPO GEDANGAN|ABCDEFGHIJKLMNO|DANANG|2020-08-14 05:22:04|2021-08-14 05:22:04|T
C624C9377B27FAE9|3618|3618|Canvassing Credit|U|2001|DEPO GEDANGAN|ABCDEFGHIJKLMNO|EKO PURWANTO|2020-08-14 05:22:04|2021-08-14 05:22:04|T
C624C9377B27FAE9|3619|3619|Canvassing Credit|U|2001|DEPO GEDANGAN|ABCDEFGHIJKLMNO|YENIF|2020-08-14 05:22:04|2021-08-14 05:22:04|T
C624C9377B27FAE9|3620|3620|Canvassing Credit|U|2001|DEPO GEDANGAN|ABCDEFGHIJKLMNO|DIDIN|2020-08-14 05:22:04|2021-08-14 05:22:04|T
C624C9377B27FAE9|3621|3621||U|2001|DEPO GEDANGAN|ABCDEFGHIJKLMNO|HARIS|2020-08-14 05:22:04|2021-08-14 05:22:04|T
C624C9377B27FAE9|3622|3622|Canvassing Credit|U|2001|DEPO GEDANGAN|ABCDEFGHIJKLMNO|HUDA|2020-08-14 05:22:04|2021-08-14 05:22:04|T
C624C9377B27FAE9|3623|3623||U|2001|DEPO GEDANGAN|ABCDEFGHIJKLMNO|SUTRIS|2020-08-14 05:22:04|2021-08-14 05:22:04|T
C624C9377B27FAE9|3624|3624||U|2001|DEPO GEDANGAN|ABCDEFGHIJKLMNO|CHABIBI|2020-08-14 05:22:04|2021-08-14 05:22:04|T
C624C9377B27FAE9|3625|3625|Canvassing Credit|U|2001|DEPO GEDANGAN|ABCDEFGHIJKLMNO|HANIF|2020-08-14 05:22:04|2021-08-14 05:22:04|T
C624C9377B27FAE9|3626|3626|Dropping All|U|2001|DEPO GEDANGAN|ABCDEFGHIJKLMNO|GOZALI|2020-08-14 05:22:04|2021-08-14 05:22:04|T
C624C9377B27FAE9|3627|3627||U|2001|DEPO GEDANGAN|ABCDEFGHIJKLMNO|DONI AKBAR|2020-08-14 05:22:04|2021-08-14 05:22:04|T
C624C9377B27FAE9|3628|3628||U|2001|DEPO GEDANGAN|ABCDEFGHIJKLMNO|FANDY SUDIRMAN|2020-08-14 05:22:04|2021-08-14 05:22:04|T
C624C9377B27FAE9|3629|3629||U|2001|DEPO GEDANGAN|ABCDEFGHIJKLMNO|WAHYU|2020-08-14 05:22:04|2021-08-14 05:22:04|T
C624C9377B27FAE9|3630|3630||U|2001|DEPO GEDANGAN|ABCDEFGHIJKLMNO|TOMMI|2020-08-14 05:22:04|2021-08-14 05:22:04|T
C624C9377B27FAE9|3631|3631||U|2001|DEPO GEDANGAN|ABCDEFGHIJKLMNO|ARIF RAHMAN|2020-08-14 05:22:04|2021-08-14 05:22:04|T
C624C9377B27FAE9|3632|3632||U|2001|DEPO GEDANGAN|ABCDEFGHIJKLMNO|LUTFI HENDRA|2020-08-14 05:22:04|2021-08-14 05:22:04|T
C624C9377B27FAE9|3633|3633||U|2001|DEPO GEDANGAN|ABCDEFGHIJKLMNO|DWI NAFIK|2020-08-14 05:22:04|2021-08-14 05:22:04|T
C624C9377B27FAE9|3634|3634||U|2001|DEPO GEDANGAN|ABCDEFGHIJKLMNO|ANDRE OBAYA|2020-08-14 05:22:04|2021-08-14 05:22:04|T
C624C9377B27FAE9|3635|3635|Canvassing Cash|U|2001|DEPO GEDANGAN|ABCDEFGHIJKLMNO|YOGA|2020-08-14 05:22:04|2021-08-14 05:22:04|T
C624C9377B27FAE9|3636|3636||U|2001|DEPO GEDANGAN|ABCDEFGHIJKLMNO|ANDIK|2020-08-14 05:22:04|2021-08-14 05:22:04|T
C624C9377B27FAE9|3637|3637||U|2001|DEPO GEDANGAN|ABCDEFGHIJKLMNO|CAHYO WIBI|2020-08-14 05:22:04|2021-08-14 05:22:04|T
C624C9377B27FAE9|3638|3638|Dropping All|U|2001|DEPO GEDANGAN|ABCDEFGHIJKLMNO|HELMI|2020-08-14 05:22:04|2021-08-14 05:22:04|T
C624C9377B27FAE9|3639|3639||U|2001|DEPO GEDANGAN|ABCDEFGHIJKLMNO|FACHRUDI|2020-08-14 05:22:04|2021-08-14 05:22:04|T
C624C9377B27FAE9|3640|3640||U|2001|DEPO GEDANGAN|ABCDEFGHIJKLMNO|BEPY TSN|2020-08-14 05:22:04|2021-08-14 05:22:04|T
C624C9377B27FAE9|3641|3641||U|2001|DEPO GEDANGAN|ABCDEFGHIJKLMNO|RICKY TSN|2020-08-14 05:22:04|2021-08-14 05:22:04|T
C624C9377B27FAE9|3642|3642||U|2001|DEPO GEDANGAN|ABCDEFGHIJKLMNO|SEPTIAN TSN|2020-08-14 05:22:04|2021-08-14 05:22:04|T
C624C9377B27FAE9|3643|3643||U|2001|DEPO GEDANGAN|ABCDEFGHIJKLMNO|MARIA TSN|2020-08-14 05:22:04|2021-08-14 05:22:04|T
C624C9377B27FAE9|3644|3644||U|2001|DEPO GEDANGAN|ABCDEFGHIJKLMNO|HENDRA TSN|2020-08-14 05:22:04|2021-08-14 05:22:04|T
C624C9377B27FAE9|3645|3645||U|2001|DEPO GEDANGAN|ABCDEFGHIJKLMNO|FAHRUDDIN FANANI|2020-08-14 05:22:04|2021-08-14 05:22:04|T
C624C9377B27FAE9|3646|3646|Canvassing Credit|U|2001|DEPO GEDANGAN|ABCDEFGHIJKLMNO|DARWIN|2020-08-14 05:22:04|2021-08-14 05:22:04|T
C624C9377B27FAE9|3647|3647||U|2001|DEPO GEDANGAN|ABCDEFGHIJKLMNO|RIKY|2020-08-14 05:22:04|2021-08-14 05:22:04|T
C624C9377B27FAE9|3648|3648|Canvassing Cash|U|2001|DEPO GEDANGAN|ABCDEFGHIJKLMNO|ARIF MUSTOFA|2020-08-14 05:22:04|2021-08-14 05:22:04|T
C624C9377B27FAE9|3649|3649||U|2001|DEPO GEDANGAN|ABCDEFGHIJKLMNO|SAPTA|2020-08-14 05:22:04|2021-08-14 05:22:04|T
C624C9377B27FAE9|3650|3650||U|2001|DEPO GEDANGAN|ABCDEFGHIJKLMNO|WIRO KANU MALIK|2020-08-14 05:22:04|2021-08-14 05:22:04|T
C624C9377B27FAE9|3651|3651|Canvassing Cash|U|2001|DEPO GEDANGAN|ABCDEFGHIJKLMNO|ARIS KURNIAWAN|2020-08-14 05:22:04|2021-08-14 05:22:04|T
C624C9377B27FAE9|3652|3652||U|2001|DEPO GEDANGAN|ABCDEFGHIJKLMNO|HENGKY ARIFIN|2020-08-14 05:22:04|2021-08-14 05:22:04|T
C624C9377B27FAE9|B001|B001|Canvassing Credit|U|2001|DEPO GEDANGAN|ABCDEFGHIJKLMNO|DODIK IRAWAN|2020-08-14 05:22:04|2021-08-14 05:22:04|T
C624C9377B27FAE9|B002|B002|Dropping All|U|2001|DEPO GEDANGAN|ABCDEFGHIJKLMNO|ARIF CAHYONO|2020-08-14 05:22:04|2021-08-14 05:22:04|T
C624C9377B27FAE9|B003|B003||U|2001|DEPO GEDANGAN|ABCDEFGHIJKLMNO|LUKMAN HAKIM|2020-08-14 05:22:04|2021-08-14 05:22:04|T
C624C9377B27FAE9|B004|B004|Canvassing Cash|U|2001|DEPO GEDANGAN|ABCDEFGHIJKLMNO|AHMAD SUBAIRI|2020-08-14 05:22:04|2021-08-14 05:22:04|T
C624C9377B27FAE9|B005|B005|Canvassing Cash|U|2001|DEPO GEDANGAN|ABCDEFGHIJKLMNO|KURNIAWAN URIP SEMBO|2020-08-14 05:22:04|2021-08-14 05:22:04|T
C624C9377B27FAE9|B006|B006|Canvassing Cash|U|2001|DEPO GEDANGAN|ABCDEFGHIJKLMNO|RIO AMANDA|2020-08-14 05:22:04|2021-08-14 05:22:04|T
C624C9377B27FAE9|B007|B007||U|2001|DEPO GEDANGAN|ABCDEFGHIJKLMNO|DEDDY SATRIAWAN JAYA|2020-08-14 05:22:04|2021-08-14 05:22:04|T
C624C9377B27FAE9|B008|B008|Canvassing Cash|U|2001|DEPO GEDANGAN|ABCDEFGHIJKLMNO|SUHENDRO WISASONGKO|2020-08-14 05:22:04|2021-08-14 05:22:04|T
C624C9377B27FAE9|B009|B009|Dropping All|U|2001|DEPO GEDANGAN|ABCDEFGHIJKLMNO|MOHAMAD SAIFUL|2020-08-14 05:22:04|2021-08-14 05:22:04|T
C624C9377B27FAE9|B010|B010|Dropping All|U|2001|DEPO GEDANGAN|ABCDEFGHIJKLMNO|KUSWANDI|2020-08-14 05:22:04|2021-08-14 05:22:04|T
C624C9377B27FAE9|B011|B011|Canvassing Credit|U|2001|DEPO GEDANGAN|ABCDEFGHIJKLMNO|CHODERI|2020-08-14 05:22:04|2021-08-14 05:22:04|T
C624C9377B27FAE9|B012|B012|Canvassing Cash|U|2001|DEPO GEDANGAN|ABCDEFGHIJKLMNO|WIRO KANU MALIK|2020-08-14 05:22:04|2021-08-14 05:22:04|T
C624C9377B27FAE9|B013|B013|Dropping All|U|2001|DEPO GEDANGAN|ABCDEFGHIJKLMNO|ACHMAD FIRMANSYAH|2020-08-14 05:22:04|2021-08-14 05:22:04|T
C624C9377B27FAE9|B014|B014||U|2001|DEPO GEDANGAN|ABCDEFGHIJKLMNO|SEPTIAN NUR CHOLIS|2020-08-14 05:22:04|2021-08-14 05:22:04|T
C624C9377B27FAE9|B015|B015|Dropping All|U|2001|DEPO GEDANGAN|ABCDEFGHIJKLMNO|IMAM GHOZALI|2020-08-14 05:22:04|2021-08-14 05:22:04|T
C624C9377B27FAE9|B016|B016|Dropping All|U|2001|DEPO GEDANGAN|ABCDEFGHIJKLMNO|FIRMAN MAULANA|2020-08-14 05:22:04|2021-08-14 05:22:04|T
C624C9377B27FAE9|B017|B017|Dropping All|U|2001|DEPO GEDANGAN|ABCDEFGHIJKLMNO|FADELI IRAWAN|2020-08-14 05:22:04|2021-08-14 05:22:04|T
C624C9377B27FAE9|B018|B018||U|2001|DEPO GEDANGAN|ABCDEFGHIJKLMNO|PURWANTO|2020-08-14 05:22:04|2021-08-14 05:22:04|T
C624C9377B27FAE9|B019|B019|Canvassing Cash|U|2001|DEPO GEDANGAN|ABCDEFGHIJKLMNO|MOHAMMED CHOIRUN NIZ|2020-08-14 05:22:04|2021-08-14 05:22:04|T
C624C9377B27FAE9|B020|B020|Canvassing Cash|U|2001|DEPO GEDANGAN|ABCDEFGHIJKLMNO|UNTUNG WIYONO|2020-08-14 05:22:04|2021-08-14 05:22:04|T
C624C9377B27FAE9|B021|B021|Dropping All|U|2001|DEPO GEDANGAN|ABCDEFGHIJKLMNO|HASANURDIN|2020-08-14 05:22:04|2021-08-14 05:22:04|T
C624C9377B27FAE9|B022|B022|Canvassing Credit|U|2001|DEPO GEDANGAN|ABCDEFGHIJKLMNO|EKO PURWANTO|2020-08-14 05:22:04|2021-08-14 05:22:04|T
C624C9377B27FAE9|B023|B023|Branch Office|U|2001|DEPO GEDANGAN|ABCDEFGHIJKLMNO|SO Kantor|2020-08-14 05:22:04|2021-08-14 05:22:04|T
C624C9377B27FAE9|B024|B024||U|2001|DEPO GEDANGAN|ABCDEFGHIJKLMNO|FERRY BAYU PAMUNGKAS|2020-08-14 05:22:04|2021-08-14 05:22:04|T
C624C9377B27FAE9|B025|B025||U|2001|DEPO GEDANGAN|ABCDEFGHIJKLMNO|PUMA FAUSI|2020-08-14 05:22:04|2021-08-14 05:22:04|T
C624C9377B27FAE9|B026|B026|Canvassing Cash|U|2001|DEPO GEDANGAN|ABCDEFGHIJKLMNO|BAMBANG SUHARTONO|2020-08-14 05:22:04|2021-08-14 05:22:04|T
C624C9377B27FAE9|B027|B027|Dropping All|U|2001|DEPO GEDANGAN|ABCDEFGHIJKLMNO|RIZKI WAHYU PRIYONO|2020-08-14 05:22:04|2021-08-14 05:22:04|T
C624C9377B27FAE9|B028|B028|Canvassing Cash|U|2001|DEPO GEDANGAN|ABCDEFGHIJKLMNO|RENDI SEPTAGEDI|2020-08-14 05:22:04|2021-08-14 05:22:04|T
C624C9377B27FAE9|B029|B029|Canvassing Cash|U|2001|DEPO GEDANGAN|ABCDEFGHIJKLMNO|BEPI DWI SUSANTI|2020-08-14 05:22:04|2021-08-14 05:22:04|T
C624C9377B27FAE9|B030|B030|Canvassing Cash|U|2001|DEPO GEDANGAN|ABCDEFGHIJKLMNO|OKA RINTIS JAYANTO|2020-08-14 05:22:04|2021-08-14 05:22:04|T
C624C9377B27FAE9|B031|B031|Dropping All|U|2001|DEPO GEDANGAN|ABCDEFGHIJKLMNO|LUCKY DWI|2020-08-14 05:22:04|2021-08-14 05:22:04|T
C624C9377B27FAE9|B032|B032||U|2001|DEPO GEDANGAN|ABCDEFGHIJKLMNO|TOMY PERWIRA|2020-08-14 05:22:04|2021-08-14 05:22:04|T
