{
	"mysql" : {
		"hostname" : "103.130.187.203",
		"port" : "3309",
		"user" : "root",
		"password" : "tsiapplication",
		"libraryLocation" : "libmysql.dll",
		"database" : "db_sfa",
	},
	"sqlserver" : {
		"hostname" : "103.130.187.203",
		"port" : "1433",
		"user" : "sfa",
		"password" : "123",
		"database" : " Provider=SQLNCLI11.1;Persist Security Info=False;User ID=sfa;Initial Catalog=d_transaksi;Data Source=103.130.187.203;Initial File Name='';Server SPN='' ",
	},
	"ftp" : {
		"hostname" : "103.130.187.203",
		"port" : "21",
		"user" : "cleomodis",
		"password" : "tanobelfood",
	}
}